Division,WeightClassKg,Place,Name,Team,BodyweightKg,Best3SquatKg,Best3BenchKg,Best3DeadliftKg,TotalKg,Equipment,Event,Sex,BirthDate
Boys,51.71,1,Chasmon Davis,Everman,51.26,170.1,90.72,181.44,442.25,Single-ply,SBD,M,
Boys,51.71,2,Kenaj Washington,Kennedale,50.71,149.69,81.65,149.69,381.02,Single-ply,SBD,M,
Boys,51.71,3,Erik Tapia,Gunter,51.62,108.86,65.77,124.74,299.37,Single-ply,SBD,M,
Boys,51.71,4,Gage Woodring,Millsap,46.36,92.99,52.16,102.06,247.21,Single-ply,SBD,M,
Boys,51.71,5,Jimmy Duncan,Strawn,48.81,68.04,38.56,90.72,197.31,Single-ply,SBD,M,
Boys,51.71,DQ,Reace Norris,Venus,50.17,,,,,Single-ply,SBD,M,
Boys,55.79,1,Noah Jones,Hillsboro,55.79,149.69,92.99,151.95,394.63,Single-ply,SBD,M,
Boys,55.79,2,Trey Orsini,Strawn,55.34,136.08,65.77,142.88,344.73,Single-ply,SBD,M,
Boys,59.87,1,Dj Williams,Everman,57.61,181.44,90.72,172.37,444.52,Single-ply,SBD,M,
Boys,59.87,2,Hunter Burton,Millsap,59.06,188.24,104.33,151.95,444.52,Single-ply,SBD,M,
Boys,59.87,3,Dominic Cunningham,Kennedale,58.88,151.95,90.72,165.56,408.23,Single-ply,SBD,M,
Boys,59.87,4,Ricky Perez,Fort Worth Diamond Hill-Jarvis,57.7,136.08,83.91,136.08,356.07,Single-ply,SBD,M,
Boys,59.87,5,Ralen Allen,Everman,56.34,124.74,72.57,136.08,333.39,Single-ply,SBD,M,
Boys,59.87,6,Joel Medellin,Fort Worth Diamond Hill-Jarvis,57.06,122.47,65.77,142.88,331.12,Single-ply,SBD,M,
Boys,59.87,7,Kyler Tunnel,Strawn,58.51,131.54,68.04,113.4,312.98,Single-ply,SBD,M,
Boys,59.87,8,Oscar Landaverde,Perrin-Whitt,59.87,97.52,63.5,124.74,285.76,Single-ply,SBD,M,
Boys,59.87,DQ,Leonardo Lopez,Hillsboro,58.42,158.76,95.25,,,Single-ply,SBD,M,
Boys,67.13,1,Aaron Ambriz,Everman,65.59,215.46,122.47,204.12,542.04,Single-ply,SBD,M,
Boys,67.13,2,Marlete Joyner,Kennedale,64.77,213.19,113.4,204.12,530.7,Single-ply,SBD,M,
Boys,67.13,3,Gabriel Leal,Venus,65.5,165.56,142.88,174.63,483.08,Single-ply,SBD,M,
Boys,67.13,4,Erick Torres,Venus,66.13,185.97,102.06,163.29,451.32,Single-ply,SBD,M,
Boys,67.13,5,Mike Martinez,Jacksboro,65.59,172.37,106.59,163.29,442.25,Single-ply,SBD,M,
Boys,67.13,6,Abel Cortez,Fort Worth Diamond Hill-Jarvis,66.41,158.76,74.84,165.56,399.16,Single-ply,SBD,M,
Boys,67.13,7,Trenton Sizemore,Strawn,64.86,145.15,86.18,158.76,390.09,Single-ply,SBD,M,
Boys,67.13,8,Luke Laursen,Santo,66.04,140.61,83.91,154.22,378.75,Single-ply,SBD,M,
Boys,67.13,9,Shane Hull,Kennedale,67.04,142.88,95.25,138.35,376.48,Single-ply,SBD,M,
Boys,67.13,10,Trey Pender,Santo,65.32,136.08,74.84,158.76,369.68,Single-ply,SBD,M,
Boys,67.13,11,Daniel Tran,Crowley,62.14,124.74,86.18,156.49,367.41,Single-ply,SBD,M,
Boys,67.13,12,Jake Bryan,Santo,63.14,136.08,86.18,136.08,358.34,Single-ply,SBD,M,
Boys,67.13,13,Brayden Newcomb,Santo,66.13,120.2,61.23,136.08,317.51,Single-ply,SBD,M,
Boys,67.13,14,Brayden Weathers,Millsap,67.13,115.67,70.31,127.01,312.98,Single-ply,SBD,M,
Boys,67.13,15,Havier Juerta,Crowley,65.41,113.4,61.23,131.54,306.17,Single-ply,SBD,M,
Boys,67.13,16,Jaden South,Azle Christian School,65.41,79.38,47.63,124.74,251.74,Single-ply,SBD,M,
Boys,67.13,DQ,Travis Neyhart,Kennedale,66.68,,,,,Single-ply,SBD,M,
Boys,67.13,DQ,Jerree Mills,Kennedale,63.59,158.76,,,,Single-ply,SBD,M,
Boys,67.13,DQ,Jake Byrd,Santo,65.5,136.08,68.04,,,Single-ply,SBD,M,
Boys,67.13,DQ,Alejandro Mejia,Venus,67.13,163.29,104.33,,,Single-ply,SBD,M,
Boys,67.13,DQ,Joe Cullum,Kennedale,66.04,,,,,Single-ply,SBD,M,
Boys,74.84,1,Micah Conner,Kennedale,72.12,256.28,122.47,238.14,616.89,Single-ply,SBD,M,
Boys,74.84,2,Cameron Hynson,Kennedale,70.4,226.8,138.35,238.14,603.28,Single-ply,SBD,M,
Boys,74.84,3,Richard Hoffman,Clyde,74.66,208.65,113.4,188.24,510.29,Single-ply,SBD,M,
Boys,74.84,4,Caulan Jackson,Crowley,73.94,174.63,129.27,201.85,505.76,Single-ply,SBD,M,
Boys,74.84,5,Caden DeVries,Hillsboro,74.48,174.63,122.47,183.7,480.81,Single-ply,SBD,M,
Boys,74.84,6,Jett Millsop,Strawn,71.3,181.44,104.33,167.83,453.59,Single-ply,SBD,M,
Boys,74.84,7,Marcus Gonzales,Hillsboro,72.48,161.03,95.25,183.7,439.98,Single-ply,SBD,M,
Boys,74.84,8,Alpha Tyler,Crowley,74.12,183.7,104.33,149.69,437.72,Single-ply,SBD,M,
Boys,74.84,9,Ryan Krieger,Azle Christian School,72.39,156.49,102.06,165.56,424.11,Single-ply,SBD,M,
Boys,74.84,10,Sam Henderson,Santo,72.12,149.69,104.33,163.29,417.3,Single-ply,SBD,M,
Boys,74.84,11,John Fraga,Strawn,74.57,163.29,83.91,163.29,410.5,Single-ply,SBD,M,
Boys,74.84,12,Colby Farquhar,Santo,67.86,158.76,86.18,158.76,403.7,Single-ply,SBD,M,
Boys,74.84,13,Christian DeSantiago,Venus,72.57,156.49,74.84,136.08,367.41,Single-ply,SBD,M,
Boys,74.84,14,Mitchell Kingston,Peaster,73.03,108.86,83.91,156.49,349.27,Single-ply,SBD,M,
Boys,74.84,15,Tyler Ray,Baird,73.3,113.4,88.45,131.54,333.39,Single-ply,SBD,M,
Boys,74.84,16,Brock Adair,Perrin-Whitt,70.22,115.67,77.11,131.54,324.32,Single-ply,SBD,M,
Boys,74.84,17,Ethan Hodges,Azle Christian School,70.13,88.45,54.43,113.4,256.28,Single-ply,SBD,M,
Boys,82.1,1,Diego Cortez,Everman,81.74,283.5,120.2,240.4,644.1,Single-ply,SBD,M,
Boys,82.1,2,Randall Hamilton,Jacksboro,78.38,233.6,131.54,206.38,571.53,Single-ply,SBD,M,
Boys,82.1,3,Jake Holmes,Perrin-Whitt,79.11,174.63,124.74,215.46,514.83,Single-ply,SBD,M,
Boys,82.1,4,Braden Waters,Kennedale,79.38,174.63,108.86,185.97,469.47,Single-ply,SBD,M,
Boys,82.1,5,Auston McBroom,Millsap,78.29,181.44,104.33,179.17,464.93,Single-ply,SBD,M,
Boys,82.1,6,Mathew Wilke,Brock,80.38,183.7,108.86,165.56,458.13,Single-ply,SBD,M,
Boys,82.1,7,Austin Guthrie,Jacksboro,82.01,185.97,90.72,181.44,458.13,Single-ply,SBD,M,
Boys,82.1,8,Antoine Martin,Kennedale,79.2,161.03,92.99,174.63,428.64,Single-ply,SBD,M,
Boys,82.1,9,Trace Faulkner,Brock,79.47,113.4,86.18,158.76,358.34,Single-ply,SBD,M,
Boys,82.1,10,Aiden Poe,Kennedale,79.92,129.27,90.72,136.08,356.07,Single-ply,SBD,M,
Boys,82.1,11,Devin Bueno,Crowley,77.02,147.42,68.04,136.08,351.53,Single-ply,SBD,M,
Boys,82.1,DQ,Jorge Soria,Hillsboro,80.2,,,,,Single-ply,SBD,M,
Boys,89.81,1,Dewayne Bradley,Crowley,89.72,219.99,127.01,174.63,521.63,Single-ply,SBD,M,
Boys,89.81,2,Jacob Carter,Peaster,87.91,176.9,113.4,188.24,478.54,Single-ply,SBD,M,
Boys,89.81,3,Edgar Rivera,Fort Worth Diamond Hill-Jarvis,88.27,188.24,102.06,188.24,478.54,Single-ply,SBD,M,
Boys,89.81,4,JR Ellison,Azle Christian School,86.82,142.88,92.99,170.1,405.97,Single-ply,SBD,M,
Boys,89.81,5,Brayden Smith,Santo,82.74,145.15,81.65,151.95,378.75,Single-ply,SBD,M,
Boys,89.81,6,Anthony Miles,Kennedale,87,156.49,83.91,131.54,371.95,Single-ply,SBD,M,
Boys,89.81,7,Joaquin Mendoza,Everman,84.01,147.42,83.91,136.08,367.41,Single-ply,SBD,M,
Boys,89.81,8,Lex Laursen,Santo,88.72,127.01,70.31,136.08,333.39,Single-ply,SBD,M,
Boys,89.81,19,Ethan Burns,Millsap,89.81,136.08,81.65,147.42,365.14,Single-ply,SBD,M,
Boys,89.81,DQ,Luck Short,Petrolia,88.18,,,,,Single-ply,SBD,M,
Boys,89.81,DQ,Gavin Blackmon,Santo,89.63,158.76,79.38,,,Single-ply,SBD,M,
Boys,89.81,DQ,Phiromhathai Dimanh,Venus,84.28,231.33,86.18,,,Single-ply,SBD,M,
Boys,99.79,1,Izaiha Olalde,Everman,99.06,249.48,172.37,215.46,637.3,Single-ply,SBD,M,
Boys,99.79,2,Jordan Price,Kennedale,98.7,260.82,151.95,192.78,605.55,Single-ply,SBD,M,
Boys,99.79,3,Michael Flores,Hillsboro,92.44,233.6,158.76,192.78,585.13,Single-ply,SBD,M,
Boys,99.79,4,Christopher Washington,Kennedale,97.98,208.65,136.08,226.8,571.53,Single-ply,SBD,M,
Boys,99.79,5,Lorenzo Garcia,Strawn,93.08,226.8,136.08,204.12,566.99,Single-ply,SBD,M,
Boys,99.79,6,Ethan Clapp,Brock,94.26,215.46,117.93,226.8,560.19,Single-ply,SBD,M,
Boys,99.79,7,Moises Ibanez,Kennedale,97.07,215.46,129.27,192.78,537.51,Single-ply,SBD,M,
Boys,99.79,8,Caiden Vasquez,Jacksboro,90.63,219.99,108.86,204.12,532.97,Single-ply,SBD,M,
Boys,99.79,9,Drelyn Shannon-McKnight,Everman,93.89,204.12,145.15,183.7,532.97,Single-ply,SBD,M,
Boys,99.79,10,Kayden Mathews,Brock,92.62,185.97,120.2,197.31,503.49,Single-ply,SBD,M,
Boys,99.79,11,Aldo Calvillo,Millsap,90.63,217.72,95.25,188.24,501.22,Single-ply,SBD,M,
Boys,99.79,12,Justice Baker,Strawn,94.53,199.58,127.01,167.83,494.42,Single-ply,SBD,M,
Boys,99.79,13,Gage Hodges,Perrin-Whitt,99.43,181.44,111.13,188.24,480.81,Single-ply,SBD,M,
Boys,99.79,14,Landon Clearly,Brock,93.44,181.44,97.52,181.44,460.4,Single-ply,SBD,M,
Boys,99.79,15,Joseph McQueen,Brock,92.99,167.83,102.06,181.44,451.32,Single-ply,SBD,M,
Boys,99.79,16,Bobby Porter,Santo,92.8,156.49,106.59,185.97,449.06,Single-ply,SBD,M,
Boys,99.79,17,Jose Estrada,Strawn,91.99,172.37,95.25,158.76,426.38,Single-ply,SBD,M,
Boys,99.79,18,Hayden Dixon,Brock,93.98,147.42,92.99,149.69,390.09,Single-ply,SBD,M,
Boys,99.79,20,Ryan English,Azle Christian School,91.81,124.74,79.38,145.15,349.27,Single-ply,SBD,M,
Boys,99.79,21,Hunter Hunt,Kennedale,97.07,117.93,86.18,140.61,344.73,Single-ply,SBD,M,
Boys,99.79,22,Preston Shields,Millsap,96.52,142.88,81.65,113.4,337.93,Single-ply,SBD,M,
Boys,99.79,23,Damian Ortuno,Lingleville,90.26,113.4,49.9,115.67,278.96,Single-ply,SBD,M,
Boys,109.77,1,Austin Adkins,Baird,106.78,283.5,163.29,260.82,707.6,Single-ply,SBD,M,
Boys,109.77,2,Ismael Lopez,Hillsboro,108.23,231.33,158.76,188.24,578.33,Single-ply,SBD,M,
Boys,109.77,3,Zack Shivers,Brock,104.51,249.48,124.74,197.31,571.53,Single-ply,SBD,M,
Boys,109.77,4,Max Hopkins,Strawn,108.68,226.8,102.06,185.97,514.83,Single-ply,SBD,M,
Boys,109.77,5,Kevin Allen,Everman,107.86,204.12,104.33,204.12,512.56,Single-ply,SBD,M,
Boys,109.77,6,Taylor Miller,Everman,107.77,181.44,120.2,204.12,505.76,Single-ply,SBD,M,
Boys,109.77,7,Carlos Quijano,Venus,107.14,192.78,111.13,183.7,487.61,Single-ply,SBD,M,
Boys,109.77,8,Bryan Resendiz,Everman,103.33,170.1,108.86,192.78,471.74,Single-ply,SBD,M,
Boys,109.77,9,Andrew Olivarez,Jacksboro,104.42,183.7,97.52,170.1,451.32,Single-ply,SBD,M,
Boys,109.77,10,Colton Clester,Azle Christian School,106.59,165.56,77.11,192.78,435.45,Single-ply,SBD,M,
Boys,109.77,11,Nico Glynn,Watauga Harvest Christian Academy,107.77,174.63,102.06,133.81,410.5,Single-ply,SBD,M,
Boys,109.77,12,Johnathan Porter,Crowley,105.41,133.81,92.99,158.76,385.55,Single-ply,SBD,M,
Boys,109.77,13,Dillon Couch,Peaster,101.06,,117.93,,117.93,Single-ply,B,M,
Boys,109.77,DQ,Chris Butler,Crowley,108.41,,,,,Single-ply,SBD,M,
Boys,124.74,1,Victor Garcia,Kennedale,124.28,328.85,188.24,240.4,757.5,Single-ply,SBD,M,
Boys,124.74,2,Junior Seay,Kennedale,116.39,278.96,179.17,226.8,684.92,Single-ply,SBD,M,
Boys,124.74,3,Adrian Anderson,Everman,115.3,283.5,158.76,204.12,646.37,Single-ply,SBD,M,
Boys,124.74,4,Jahaziel Compean,Hillsboro,117.84,242.67,149.69,231.33,623.69,Single-ply,SBD,M,
Boys,124.74,5,Reagan Spencer,Gunter,123.01,249.48,120.2,174.63,544.31,Single-ply,SBD,M,
Boys,124.74,6,Dylan Bueno,Crowley,116.3,215.46,113.4,201.85,530.7,Single-ply,SBD,M,
Boys,124.74,7,Jonathan Kuper,Brock,114.31,190.51,86.18,165.56,442.25,Single-ply,SBD,M,
Boys,124.74,8,Payton Garrison,Gunter,113.31,151.95,92.99,158.76,403.7,Single-ply,SBD,M,
Boys,124.74,9,Sawyer Rabalais,Kennedale,116.94,129.27,102.06,161.03,392.36,Single-ply,SBD,M,
Boys,124.74,10,Patrick Nestle,Crowley,122.29,136.08,68.04,181.44,385.55,Single-ply,SBD,M,
Boys,124.74,11,Lane Gunter,Crowley,116.3,90.72,83.91,136.08,310.71,Single-ply,SBD,M,
Boys,124.74+,1,Marc Johnson,Crowley,181.44,344.73,215.46,299.37,859.56,Single-ply,SBD,M,
Boys,124.74+,2,Seth Bynum-Graham,Hillsboro,161.84,281.23,161.03,226.8,669.05,Single-ply,SBD,M,
Boys,124.74+,3,Seth Martin,Everman,126.55,247.21,142.88,249.48,639.57,Single-ply,SBD,M,
Boys,124.74+,4,Colby Henry,Kennedale,164.2,260.82,124.74,226.8,612.35,Single-ply,SBD,M,
Boys,124.74+,5,Trent Tidwell,Hillsboro,132.63,238.14,154.22,217.72,610.08,Single-ply,SBD,M,
Boys,124.74+,6,Brett Briscoe,Petrolia,148.32,260.82,142.88,204.12,607.81,Single-ply,SBD,M,
Boys,124.74+,7,Trinton Jones,Crowley,124.83,219.99,136.08,226.8,582.87,Single-ply,SBD,M,
Boys,124.74+,8,Chris Jones,Crowley,133.27,195.04,127.01,190.51,512.56,Single-ply,SBD,M,
Boys,124.74+,9,Julian Ortuno,Lingleville,126.64,217.72,117.93,170.1,505.76,Single-ply,SBD,M,
Boys,124.74+,10,Bryson Bentley,Crowley,131.63,195.04,83.91,204.12,483.08,Single-ply,SBD,M,
Boys,124.74+,11,Vontrez Jackson,Crowley,150.77,204.12,90.72,185.97,480.81,Single-ply,SBD,M,
Boys,124.74+,12,Jared Pele,Everman,130,204.12,102.06,170.1,476.27,Single-ply,SBD,M,
Boys,124.74+,13,Nick Ingram,Crowley,136.17,172.37,117.93,158.76,449.06,Single-ply,SBD,M,
Boys,124.74+,14,Cayden Cudd,Azle Christian School,148.42,174.63,88.45,176.9,439.98,Single-ply,SBD,M,
Boys,124.74+,15,Joseph Dunn,Jacksboro,139.71,170.1,72.57,136.08,378.75,Single-ply,SBD,M,
