Division,WeightClassKg,Place,Name,Team,BodyweightKg,Best3SquatKg,Best3BenchKg,Best3DeadliftKg,TotalKg,Equipment,Event,Sex,BirthDate
Boys,51.71,1,Fracisco Villiareal,Laredo Nixon,48.08,122.47,81.65,136.08,340.19,Single-ply,SBD,M,
Boys,51.71,2,Adam Moncada,Laredo Martin,50.71,106.59,58.97,108.86,274.42,Single-ply,SBD,M,
Boys,51.71,3,Tony Garza,Carrizo Springs,44,90.72,56.7,111.13,258.55,Single-ply,SBD,M,
Boys,51.71,4,Robert Longoria,Pearsall,50.98,79.38,54.43,117.93,251.74,Single-ply,SBD,M,
Boys,51.71,5,Abel Garcia,Dilley,46.99,79.38,36.29,79.38,195.04,Single-ply,SBD,M,
Boys,51.71,6,Sebastian Garcia,Dilley,44,70.31,43.09,70.31,183.7,Single-ply,SBD,M,
Boys,51.71,DQ,Ricky Martinez,Pearsall,51.07,124.74,,,,Single-ply,SBD,M,
Boys,55.79,1,Adrian Churchill,Floresville,53.25,108.86,61.23,142.88,312.98,Single-ply,SBD,M,
Boys,55.79,2,Alexander Moncada,Laredo Martin,53.89,129.27,56.7,108.86,294.84,Single-ply,SBD,M,
Boys,55.79,3,Ryan Jimenez,Crystal City,54.61,113.4,65.77,106.59,285.76,Single-ply,SBD,M,
Boys,55.79,4,Nick Martinez,Stockdale,52.25,104.33,61.23,113.4,278.96,Single-ply,SBD,M,
Boys,55.79,5,Kyle Biseno,Carrizo Springs,52.71,97.52,58.97,117.93,274.42,Single-ply,SBD,M,
Boys,59.87,1,Lupe Ibarra,Floresville,59.24,165.56,106.59,170.1,442.25,Single-ply,SBD,M,
Boys,59.87,2,Nolan Raya,Laredo United South,59.15,165.56,95.25,179.17,439.98,Single-ply,SBD,M,
Boys,59.87,3,Daniel García,Floresville,55.97,113.4,72.57,149.69,335.66,Single-ply,SBD,M,
Boys,59.87,4,Frank Rivera,Pearsall,57.52,108.86,56.7,136.08,301.64,Single-ply,SBD,M,
Boys,59.87,DQ,Jesus de la Rosa,Laredo Nixon,59.87,,,,,Single-ply,SBD,M,
Boys,67.13,1,Vincent Villanueva,Floresville,65.05,188.24,106.59,195.04,489.88,Single-ply,SBD,M,
Boys,67.13,2,Tommy Huerta,Crystal City,61.69,174.63,97.52,156.49,428.64,Single-ply,SBD,M,
Boys,67.13,3,Gavin LaFleur,Floresville,61.23,158.76,90.72,151.95,401.43,Single-ply,SBD,M,
Boys,67.13,4,Virgil Luna,Crystal City,65.14,147.42,86.18,163.29,396.89,Single-ply,SBD,M,
Boys,67.13,5,Diego Torres,Dilley,67.04,149.69,72.57,154.22,376.48,Single-ply,SBD,M,
Boys,67.13,6,Miguel Terrazas,Laredo Nixon,64.5,133.81,88.45,147.42,369.68,Single-ply,SBD,M,
Boys,67.13,7,Johnathan Sonnier-Ruiz,Laredo Martin,62.78,138.35,70.31,154.22,362.87,Single-ply,SBD,M,
Boys,67.13,8,Jerry Martinez,Uvalde,65.05,133.81,77.11,145.15,356.07,Single-ply,SBD,M,
Boys,67.13,9,Robert Hueghs,Pearsall,62.05,127.01,68.04,131.54,326.59,Single-ply,SBD,M,
Boys,67.13,10,Oscar Vez,Laredo Cigarroa,59.96,117.93,61.23,142.88,322.05,Single-ply,SBD,M,
Boys,67.13,11,Ashton Gomez,Stockdale,60.06,115.67,79.38,127.01,322.05,Single-ply,SBD,M,
Boys,67.13,12,Deuce Cano,Dilley,62.96,102.06,92.99,124.74,319.78,Single-ply,SBD,M,
Boys,74.84,1,Daniel Almedia,Uvalde,73.48,183.7,108.86,238.14,530.7,Single-ply,SBD,M,
Boys,74.84,2,Zack Lambert,Uvalde,73.21,183.7,104.33,206.38,494.42,Single-ply,SBD,M,
Boys,74.84,3,Shane Medrano,Uvalde,69.22,165.56,102.06,195.04,462.66,Single-ply,SBD,M,
Boys,74.84,4,Angel Rodríguez,Crystal City,68.4,188.24,102.06,165.56,455.86,Single-ply,SBD,M,
Boys,74.84,5,Zack Nelson,Floresville,70.13,158.76,117.93,170.1,446.79,Single-ply,SBD,M,
Boys,74.84,6,Julian Flores,Laredo United South,71.85,151.95,95.25,172.37,419.57,Single-ply,SBD,M,
Boys,74.84,7,Alex De La Rosa,Dilley,67.95,151.95,102.06,161.03,415.04,Single-ply,SBD,M,
Boys,74.84,8,Eric Hernandez,Pearsall,69.22,142.88,92.99,161.03,396.89,Single-ply,SBD,M,
Boys,74.84,9,Anthony Vasquez,Laredo United South,69.4,142.88,90.72,142.88,376.48,Single-ply,SBD,M,
Boys,74.84,10,David Benavides,Pearsall,71.03,140.61,83.91,145.15,369.68,Single-ply,SBD,M,
Boys,74.84,11,Eduardo Garcia,Laredo Alexander,72.85,108.86,70.31,147.42,326.59,Single-ply,SBD,M,
Boys,74.84,12,Jake Gutierrez,Laredo Cigarroa,67.68,92.99,74.84,136.08,303.91,Single-ply,SBD,M,
Boys,74.84,13,Abraham Davilia,Uvalde,73.94,206.38,58.97,,265.35,Single-ply,SB,M,
Boys,74.84,DQ,Jose Lucatero,Laredo Martin,74.84,,,,,Single-ply,SBD,M,
Boys,74.84,DQ,Jeremiah Mendoza,Laredo Alexander,70.22,111.13,,,,Single-ply,SBD,M,
Boys,82.1,1,Eden Fuentes,Pearsall,78.38,217.72,127.01,222.26,566.99,Single-ply,SBD,M,
Boys,82.1,2,Nathan Delgado,Crystal City,81.65,217.72,124.74,190.51,532.97,Single-ply,SBD,M,
Boys,82.1,3,Ray Leal,Pearsall,80.92,192.78,108.86,222.26,523.9,Single-ply,SBD,M,
Boys,82.1,4,Leroy Lima,Floresville,78.47,195.04,120.2,195.04,510.29,Single-ply,SBD,M,
Boys,82.1,5,Carlos Carrillo,Laredo Martin,78.83,204.12,102.06,204.12,510.29,Single-ply,SBD,M,
Boys,82.1,6,Andrew Sosa,Laredo Nixon,80.83,158.76,99.79,204.12,462.66,Single-ply,SBD,M,
Boys,82.1,7,Ulrich Kalthoft,Pearsall,78.56,170.1,102.06,174.63,446.79,Single-ply,SBD,M,
Boys,82.1,8,Mark Rodriguez,Laredo United South,80.2,170.1,99.79,170.1,439.98,Single-ply,SBD,M,
Boys,82.1,9,Abel Sanchez,Laredo Nixon,79.74,151.95,92.99,170.1,415.04,Single-ply,SBD,M,
Boys,82.1,10,John Velasquez,Pearsall,76.57,151.95,92.99,167.83,412.77,Single-ply,SBD,M,
Boys,82.1,11,Jesus Tellez,Crystal City,82.1,165.56,95.25,142.88,403.7,Single-ply,SBD,M,
Boys,82.1,12,Jarett Gest,Carrizo Springs,77.93,133.81,95.25,147.42,376.48,Single-ply,SBD,M,
Boys,82.1,13,David Vela,Laredo Alexander,81.37,120.2,74.84,111.13,306.17,Single-ply,SBD,M,
Boys,82.1,DQ,Eric Garcia,Laredo Alexander,82.1,,,,,Single-ply,SBD,M,
Boys,89.81,1,Josiah Marquez,Pearsall,85.55,242.67,142.88,249.48,635.03,Single-ply,SBD,M,
Boys,89.81,2,Aaron Ramirez,Dilley,89.09,247.21,149.69,226.8,623.69,Single-ply,SBD,M,
Boys,89.81,3,Martin Rios,Crystal City,87.18,222.26,142.88,215.46,580.6,Single-ply,SBD,M,
Boys,89.81,4,Isaac Garcia,Crystal City,88.18,226.8,124.74,219.99,571.53,Single-ply,SBD,M,
Boys,89.81,5,Vincent Correa,Dilley,87.72,188.24,102.06,195.04,485.34,Single-ply,SBD,M,
Boys,89.81,6,Domingo Mendiola,Laredo Nixon,86,156.49,113.4,210.92,480.81,Single-ply,SBD,M,
Boys,89.81,7,Jason Coronado,Floresville,88.72,179.17,97.52,192.78,469.47,Single-ply,SBD,M,
Boys,89.81,8,Robert Olivarez,Uvalde,83.73,142.88,106.59,183.7,433.18,Single-ply,SBD,M,
Boys,89.81,9,Dominick Hernandez,Carrizo Springs,84.55,165.56,90.72,151.95,408.23,Single-ply,SBD,M,
Boys,89.81,10,Hilario Alfaro,Laredo United South,88.54,142.88,97.52,156.49,396.89,Single-ply,SBD,M,
Boys,89.81,11,Andrew Guerra,Laredo Alexander,87.72,147.42,74.84,167.83,390.09,Single-ply,SBD,M,
Boys,89.81,12,Andres Rodriguez,Laredo Nixon,88.54,133.81,83.91,170.1,387.82,Single-ply,SBD,M,
Boys,89.81,13,Pedro Contreras,Laredo Martin,82.92,149.69,83.91,149.69,383.29,Single-ply,SBD,M,
Boys,89.81,14,Chris Tijerina,Laredo Alexander,85.37,124.74,86.18,167.83,378.75,Single-ply,SBD,M,
Boys,89.81,15,Tony Barrientos,Stockdale,88,122.47,70.31,140.61,333.39,Single-ply,SBD,M,
Boys,99.79,1,Kevin Herrera,Floresville,99.16,249.48,149.69,226.8,625.96,Single-ply,SBD,M,
Boys,99.79,2,Javier Amador,Laredo Martin,99.79,219.99,104.33,204.12,528.44,Single-ply,SBD,M,
Boys,99.79,3,Brandon Rivas,Pearsall,98.34,188.24,115.67,215.46,519.36,Single-ply,SBD,M,
Boys,99.79,4,Chris Keiser,Stockdale,92.62,165.56,129.27,199.58,494.42,Single-ply,SBD,M,
Boys,99.79,5,Carlos Ramos,Laredo Cigarroa,98.16,181.44,108.86,197.31,487.61,Single-ply,SBD,M,
Boys,99.79,6,Diego Rubio,Stockdale,92.8,154.22,113.4,204.12,471.74,Single-ply,SBD,M,
Boys,99.79,7,Joey Ramirez,Pearsall,91.63,161.03,108.86,197.31,467.2,Single-ply,SBD,M,
Boys,99.79,8,Adam Andres,Uvalde,93.62,165.56,102.06,192.78,460.4,Single-ply,SBD,M,
Boys,99.79,9,Angel Garza,Laredo Nixon,94.35,147.42,111.13,170.1,428.64,Single-ply,SBD,M,
Boys,99.79,10,Adrian Carazzco,Dilley,99.25,156.49,111.13,149.69,417.3,Single-ply,SBD,M,
Boys,99.79,11,Chris Espinoza,Laredo United South,92.53,156.49,97.52,158.76,412.77,Single-ply,SBD,M,
Boys,99.79,12,Gabriel Elizondo,Laredo United South,95.8,165.56,95.25,145.15,405.97,Single-ply,SBD,M,
Boys,99.79,13,Leroy Gutierrez,Laredo Martin,94.08,156.49,74.84,161.03,392.36,Single-ply,SBD,M,
Boys,99.79,DQ,Jose Garza,Laredo Nixon,99.79,,,,,Single-ply,SBD,M,
Boys,109.77,1,Alfredo Segura,Carrizo Springs,106.05,249.48,149.69,265.35,664.51,Single-ply,SBD,M,
Boys,109.77,2,Logan Hebert,Stockdale,109.59,215.46,158.76,204.12,578.33,Single-ply,SBD,M,
Boys,109.77,3,Max Blanco,Laredo Cigarroa,100.7,219.99,120.2,233.6,573.79,Single-ply,SBD,M,
Boys,109.77,4,Joe Vega #5,Crystal City,109.77,226.8,154.22,165.56,546.58,Single-ply,SBD,M,
Boys,109.77,5,Lauro Soto,Laredo Cigarroa,105.96,215.46,129.27,179.17,523.9,Single-ply,SBD,M,
Boys,109.77,6,Gabriel Gutierrez,Pearsall,107.73,192.78,115.67,208.65,517.1,Single-ply,SBD,M,
Boys,109.77,7,Eleazar Guerra,Laredo United South,104.6,199.58,127.01,183.7,510.29,Single-ply,SBD,M,
Boys,109.77,8,Phillip Valles,Carrizo Springs,106.5,195.04,111.13,192.78,498.95,Single-ply,SBD,M,
Boys,109.77,9,Kaden Vega,Dilley,108.32,204.12,99.79,195.04,498.95,Single-ply,SBD,M,
Boys,109.77,10,Levi Gallegos,Laredo United South,102.87,185.97,120.2,185.97,492.15,Single-ply,SBD,M,
Boys,109.77,11,Joseph Delarosa,Pearsall,104.24,172.37,127.01,181.44,480.81,Single-ply,SBD,M,
Boys,109.77,12,Aden Hinojosa,Laredo Alexander,103.42,172.37,95.25,188.24,455.86,Single-ply,SBD,M,
Boys,109.77,13,Jorge Medrano,Laredo United South,100.7,161.03,113.4,156.49,430.91,Single-ply,SBD,M,
Boys,109.77,14,Arturo Guerra,Laredo Martin,104.78,156.49,79.38,161.03,396.89,Single-ply,SBD,M,
Boys,109.77,15,Rodrigo Herrera,Laredo Cigarroa,104.42,120.2,74.84,142.88,337.93,Single-ply,SBD,M,
Boys,109.77,16,Luke Morales,Crystal City,100.88,127.01,65.77,131.54,324.32,Single-ply,SBD,M,
Boys,109.77,DQ,Santiago Valdivia,Laredo Nixon,109.77,,,,,Single-ply,SBD,M,
Boys,124.74,1,Dustin Domingez,Dilley,123.65,256.28,158.76,226.8,641.83,Single-ply,SBD,M,
Boys,124.74,2,Kollin Meeks,Pearsall,113.94,242.67,129.27,201.85,573.79,Single-ply,SBD,M,
Boys,124.74,3,Matt Polasek,Floresville,120.02,233.6,127.01,183.7,544.31,Single-ply,SBD,M,
Boys,124.74,4,Joshua Serenil,Floresville,114.4,204.12,111.13,188.24,503.49,Single-ply,SBD,M,
Boys,124.74,5,Bobby Rocha,Crystal City,112.94,204.12,122.47,174.63,501.22,Single-ply,SBD,M,
Boys,124.74,6,Mathew Mahlstede,Stockdale,110.86,165.56,129.27,201.85,496.68,Single-ply,SBD,M,
Boys,124.74,7,Tolbert Garcia,Laredo Alexander,119.93,167.83,86.18,170.1,424.11,Single-ply,SBD,M,
Boys,124.74,8,Euh Mendez,Laredo Alexander,112.58,145.15,79.38,174.63,399.16,Single-ply,SBD,M,
Boys,124.74,9,Juan Trejo,Laredo Cigarroa,115.76,174.63,70.31,142.88,387.82,Single-ply,SBD,M,
Boys,124.74,10,Francisco Santos,Laredo Martin,119.2,147.42,70.31,163.29,381.02,Single-ply,SBD,M,
Boys,124.74+,1,Juan Jose Valadez,Laredo Martin,133.9,260.82,149.69,210.92,621.42,Single-ply,SBD,M,
Boys,124.74+,2,Deymeonn Vercher,Laredo United South,125.46,179.17,104.33,226.8,510.29,Single-ply,SBD,M,
Boys,124.74+,3,Jorge Rangel,Laredo Cigarroa,129.5,183.7,97.52,176.9,458.13,Single-ply,SBD,M,
Boys,124.74+,4,Anthony Salas #2,Laredo Nixon,128.46,181.44,97.52,176.9,455.86,Single-ply,SBD,M,
Boys,124.74+,5,Esteban Garcia,Laredo Cigarroa,129.91,142.88,77.11,142.88,362.87,Single-ply,SBD,M,
Boys,124.74+,6,Alex Alvarez,Dilley,136.35,45.36,52.16,61.23,158.76,Single-ply,SBD,M,
