Division,WeightClassKg,Place,Name,Team,BodyweightKg,Best3SquatKg,Best3BenchKg,Best3DeadliftKg,TotalKg,Equipment,Event,Sex,BirthDate
Girls,44.23,1,Estefania Espino,Perryton,43.09,122.47,61.23,111.13,294.84,Single-ply,SBD,F,
Girls,44.23,2,Evelyn Garcia,Plainview,42.64,70.31,38.56,90.72,199.58,Single-ply,SBD,F,
Girls,47.85,1,Carolina Holguin,Perryton,47.17,90.72,45.36,92.99,229.06,Single-ply,SBD,F,
Girls,47.85,2,Jasmine Rodriguez,Dimmitt,47.17,81.65,38.56,88.45,208.65,Single-ply,SBD,F,
Girls,47.85,3,Damita Estrada,Dumas,47.17,72.57,36.29,99.79,208.65,Single-ply,SBD,F,
Girls,47.85,4,Brin Mowry,Canyon,47.63,83.91,34.02,90.72,208.65,Single-ply,SBD,F,
Girls,47.85,5,Jolie Maples,Amarillo Highland Park,47.17,56.7,27.22,74.84,158.76,Single-ply,SBD,F,
Girls,47.85,DQ,Grecia Almanza,Dimmitt,47.17,,,7.26,,Single-ply,SBD,F,
Girls,51.94,1,Britney Olivas,Dumas,51.94,115.67,72.57,111.13,299.37,Single-ply,SBD,F,
Girls,51.94,2,Anahi Saldana Canchola,Dalhart,51.94,104.33,56.7,117.93,278.96,Single-ply,SBD,F,
Girls,51.94,3,Danny Espinoza,Dimmitt,49.44,83.91,45.36,99.79,229.06,Single-ply,SBD,F,
Girls,51.94,4,Marley Xon Gonzales,Dalhart,48.99,72.57,29.48,74.84,176.9,Single-ply,SBD,F,
Girls,56.02,1,Dalia Becerril,Perryton,55.34,136.08,68.04,120.2,324.32,Single-ply,SBD,F,
Girls,56.02,2,Brooklyn Berryman,Dumas,56.02,117.93,63.5,124.74,306.17,Single-ply,SBD,F,
Girls,56.02,3,Melissa Ramos,Perryton,56.02,97.52,61.23,113.4,272.16,Single-ply,SBD,F,
Girls,56.02,4,Denisia Garcia,Dumas,55.79,97.52,61.23,92.99,251.74,Single-ply,SBD,F,
Girls,56.02,5,Emory Buchenau,Dumas,53.98,90.72,63.5,92.99,247.21,Single-ply,SBD,F,
Girls,56.02,6,Esperanza Perez,Plainview,55.57,83.91,38.56,74.84,197.31,Single-ply,SBD,F,
Girls,56.02,7,Mackenzie Sharon,Dallas Highland Park,52.62,72.57,34.02,,106.59,Single-ply,SB,F,
Girls,60.1,1,Destiny Cervantes,Dumas,59.19,140.61,86.18,136.08,362.87,Single-ply,SBD,F,
Girls,60.1,2,Minnel Leal,Dimmitt,59.65,120.2,65.77,138.35,324.32,Single-ply,SBD,F,
Girls,60.1,3,Bailey Dettle,Dalhart,57.83,133.81,65.77,115.67,315.25,Single-ply,SBD,F,
Girls,60.1,4,Mahala Stembridge,Borger,59.78,113.4,36.29,113.4,263.08,Single-ply,SBD,F,
Girls,60.1,5,Mia DeLaRosa,Plainview,57.61,106.59,40.82,113.4,260.82,Single-ply,SBD,F,
Girls,60.1,6,Hannah Garrett,Bushland,58.51,90.72,40.82,108.86,240.4,Single-ply,SBD,F,
Girls,60.1,7,Hannah Bridges,Bushland,58.06,90.72,45.36,90.72,226.8,Single-ply,SBD,F,
Girls,60.1,8,Destiny Amaya,Amarillo Highland Park,59.19,72.57,34.02,79.38,185.97,Single-ply,SBD,F,
Girls,60.1,DQ,Sariya Romero,Dallas Highland Park,58.51,,,,,Single-ply,SBD,F,
Girls,67.36,1,Cheyanne Buck,Perryton,66.22,154.22,83.91,138.35,376.48,Single-ply,SBD,F,
Girls,67.36,2,Cali Cordova,Bushland,64.41,124.74,45.36,142.88,312.98,Single-ply,SBD,F,
Girls,67.36,3,Cailin Laprada,Plainview,66.68,131.54,68.04,113.4,312.98,Single-ply,SBD,F,
Girls,67.36,4,Ashleigh Broom,Dimmitt,67.36,122.47,70.31,117.93,310.71,Single-ply,SBD,F,
Girls,67.36,5,Jo Vasquez,Dimmitt,66,127.01,58.97,115.67,301.64,Single-ply,SBD,F,
Girls,67.36,6,Breanna Villarreal,Plainview,66.68,122.47,61.23,117.93,301.64,Single-ply,SBD,F,
Girls,67.36,7,Evelyn Becerril,Perryton,62.82,115.67,43.09,138.35,297.1,Single-ply,SBD,F,
Girls,67.36,8,Fatima Estrada,Perryton,65.77,113.4,54.43,117.93,285.76,Single-ply,SBD,F,
Girls,67.36,9,Shantel Ramos,Dumas,63.5,102.06,65.77,113.4,281.23,Single-ply,SBD,F,
Girls,67.36,10,Jenny Vaquera,Plainview,62.6,99.79,54.43,117.93,272.16,Single-ply,SBD,F,
Girls,67.36,11,Catey Thomas,Perryton,62.37,99.79,47.63,115.67,263.08,Single-ply,SBD,F,
Girls,67.36,12,Dennise Gomez,Perryton,64.64,102.06,49.9,108.86,260.82,Single-ply,SBD,F,
Girls,67.36,13,Bennett Ray,Bushland,67.13,65.77,31.75,72.57,170.1,Single-ply,SBD,F,
Girls,67.36,DQ,Caryce Guerrero,Dalhart,67.13,,,,,Single-ply,SBD,F,
Girls,67.36,DQ,Katie Castro,Plainview,63.96,,,,,Single-ply,SBD,F,
Girls,75.07,1,Nuvia Gonzalez,Perryton,71.21,136.08,63.5,142.88,342.46,Single-ply,SBD,F,
Girls,75.07,2,Ariana Perez,Dimmitt,72.12,147.42,56.7,136.08,340.19,Single-ply,SBD,F,
Girls,75.07,3,Marlene Rodriguez,Dumas,74.16,131.54,63.5,133.81,328.85,Single-ply,SBD,F,
Girls,75.07,4,Brooke McKinney,Canyon,71.67,111.13,63.5,120.2,294.84,Single-ply,SBD,F,
Girls,75.07,5,Alexis Rodriguez,Plainview,68.27,58.97,,,58.97,Single-ply,S,F,
Girls,82.33,1,Lyssa Dunnam,Dumas,80.97,195.04,113.4,172.37,480.81,Single-ply,SBD,F,
Girls,82.33,2,Juliet Gonzales,Amarillo Highland Park,77.34,124.74,54.43,145.15,324.32,Single-ply,SBD,F,
Girls,82.33,3,Gaby Silva,Dimmitt,80.97,122.47,58.97,127.01,308.44,Single-ply,SBD,F,
Girls,82.33,4,D'Aubrione White,Plainview,76.66,106.59,43.09,122.47,272.16,Single-ply,SBD,F,
Girls,90.04,1,Alejandra Salas,Perryton,83.01,174.63,83.91,156.49,415.04,Single-ply,SBD,F,
Girls,90.04,2,Yazmin Barron,Dimmitt,87.77,163.29,74.84,138.35,376.48,Single-ply,SBD,F,
Girls,90.04,3,Rubi Borjas,Perryton,84.59,158.76,77.11,136.08,371.95,Single-ply,SBD,F,
Girls,90.04,4,Aliyah Valenzuela,Perryton,83.91,131.54,65.77,140.61,337.93,Single-ply,SBD,F,
Girls,90.04,5,Daniela Llamas,Perryton,87.54,124.74,56.7,111.13,292.57,Single-ply,SBD,F,
Girls,90.04,6,Jazmin Williams,Dumas,87.77,108.86,63.5,117.93,290.3,Single-ply,SBD,F,
Girls,90.04,7,Diana Felix,Amarillo Highland Park,88,68.04,36.29,90.72,195.04,Single-ply,SBD,F,
Girls,100.02,1,Andrea Fabela,Perryton,90.72,197.31,120.2,145.15,462.66,Single-ply,SBD,F,
Girls,100.02,2,Marilyn Martinez,Dimmitt,96.39,147.42,68.04,140.61,356.07,Single-ply,SBD,F,
Girls,100.02,3,Brianna Bustamante,Dumas,94.12,138.35,49.9,147.42,335.66,Single-ply,SBD,F,
Girls,100.02,4,Clarissa Rivera,Dimmitt,92.99,122.47,61.23,133.81,317.51,Single-ply,SBD,F,
Girls,100.02,5,Mallory Rodriguez,Plainview,95.25,129.27,58.97,127.01,315.25,Single-ply,SBD,F,
Girls,100.02,6,Mikaela Mercado,Amarillo Highland Park,92.31,63.5,38.56,95.25,197.31,Single-ply,SBD,F,
Girls,117.71,1,Maraya Corrales,Dimmitt,104.78,149.69,86.18,124.74,360.61,Single-ply,SBD,F,
Girls,117.71,2,Samantha Tinoco,Plainview,101.15,124.74,63.5,122.47,310.71,Single-ply,SBD,F,
Girls,117.71,3,Jennifer Montes,Dalhart,103.87,124.74,63.5,115.67,303.91,Single-ply,SBD,F,
Girls,117.71,4,Cassie Hines,Lefors,104.78,115.67,54.43,115.67,285.76,Single-ply,SBD,F,
Girls,117.71,5,Yaritza Pena,Dumas,105.91,95.25,52.16,115.67,263.08,Single-ply,SBD,F,
Girls,117.71+,1,Irma Rodriguez,Perryton,127.91,192.78,99.79,167.83,460.4,Single-ply,SBD,F,
Girls,117.71+,2,Jaqueline Lopez,Plainview,118.84,151.95,54.43,124.74,331.12,Single-ply,SBD,F,
Girls,117.71+,DQ,Arlene Solis,Dimmitt,118.39,136.08,,,,Single-ply,SBD,F,
Girls,117.71+,DQ,Marisol Mendoza,Dumas,122.92,,,,,Single-ply,SBD,F,
