Name,Sex,Age,Division,Event,Equipment,BodyweightKg,WeightClassKg,Squat1Kg,Squat2Kg,Squat3Kg,Squat4Kg,Best3SquatKg,Bench1Kg,Bench2Kg,Bench3Kg,Best3BenchKg,Deadlift1Kg,Deadlift2Kg,Deadlift3Kg,Deadlift4Kg,Best3DeadliftKg,TotalKg,Country,Place
Péter Belme,M,43,M1,B,Multi-ply,106.1,110,,,,,,202.5,210,215,215,,,,,,215,Hungary,1
Attila Nyikos-Kiss,M,48,M2,B,Multi-ply,86.8,90,,,,,,150,155,-160,155,,,,,,155,Hungary,1
Ferenc Balázs,M,47,M2,B,Multi-ply,111.8,125,,,,,,290,300,-305,300,,,,,,300,Hungary,1
Frantisek Szobluk,M,61,M5,B,Multi-ply,97.5,100,,,,,,220,-230,-230,220,,,,,,220,Poland,1
László Jobbágy,M,70,M7,B,Multi-ply,83.8,90,,,,,,-150,-150,,,,,,,,,Hungary,DQ
Zoltán Szabó,M,32,O,B,Multi-ply,82.2,82.5,,,,,,-180,185,-195,185,,,,,,185,Hungary,1
Kartli Hamid Mohmedi,M,53,O,B,Multi-ply,90,90,,,,,,130,150,160,160,,,,,,160,Iran,1
Pavel Drtina,M,35,O,B,Multi-ply,92.4,100,,,,,,-210,210,-220,210,,,,,,210,Czechia,2
Patryk Kozieł,M,30,O,B,Multi-ply,95.4,100,,,,,,210,225,-240,225,,,,,,225,Poland,1
Máté Szilágyi,M,27,O,B,Multi-ply,97,100,,,,,,-300,-300,-300,,,,,,,,Hungary,DQ
Milos Cecavic,M,39,O,B,Multi-ply,106.8,110,,,,,,260,-272.5,-275,260,,,,,,260,Montenegro,2
József Zsíros,M,28,O,B,Multi-ply,109,110,,,,,,260,275,290,290,,,,,,290,Hungary,1
Krisztián Kovács,M,37,O,B,Multi-ply,114.7,125,,,,,,200,-210,210,210,,,,,,210,Hungary,1
Richárd Buda,M,24,O,B,Multi-ply,131.6,140,,,,,,370,-402.5,-402.5,370,,,,,,370,Hungary,1
Liliána Endrődy,F,15,T1,B,Raw,49.3,52,,,,,,37.5,42.5,45,45,,,,,,45,Hungary,1
Krisztina Farkas,F,19,T3,B,Raw,63.1,67.5,,,,,,62.5,65,-68,65,,,,,,65,Hungary,1
Rózsa Sipeki,F,23,J,B,Raw,56,56,,,,,,50,55.5,,55.5,,,,,,55.5,Hungary,1
Kamila Dominika Wyderska,F,21,J,B,Raw,65,67.5,,,,,,50,52.5,55,55,,,,,,55,Poland,1
Rita Nagy,F,43,M1,B,Raw,66.3,67.5,,,,,,115,120,125,125,,,,,,125,Hungary,1
Mónika Bazsó,F,44,M1,B,Raw,70.5,75,,,,,,90,97.5,102.5,102.5,,,,,,102.5,Hungary,1
Anna Szlávik,F,44,M1,B,Raw,80.3,82.5,,,,,,-72.5,-72.5,-72.5,,,,,,,,Hungary,DQ
Ilona Egri,F,45,M2,B,Raw,57.3,60,,,,,,60,62.5,-65,62.5,,,,,,62.5,Hungary,1
Éva Koczkás,F,46,M2,B,Raw,83.3,90,,,,,,100,105,110,110,,,,,,110,Hungary,1
Dana Besková,F,63,M5,B,Raw,54.9,56,,,,,,30,35,37.5,37.5,,,,,,37.5,Czechia,1
Krisztina Majoros,F,24,O,B,Raw,55.9,56,,,,,,55,57.5,-60,57.5,,,,,,57.5,Hungary,1
Alexandra Drtinová,F,36,O,B,Raw,59.2,60,,,,,,60,67.5,72.5,72.5,,,,,,72.5,Czechia,1
Margit Fodorné Tóth,F,38,O,B,Raw,73.2,75,,,,,,37.5,42.5,45,45,,,,,,45,Hungary,2
Veronika Zemanová,F,36,O,B,Raw,69.2,75,,,,,,80,90,100,100,,,,,,100,Czechia,1
Zuzana Žlebková,F,35,O,B,Raw,82.4,82.5,,,,,,85,90,95,95,,,,,,95,Czechia,1
Nikolett Contleitner,F,24,O,B,Raw,83.6,90,,,,,,40,45,50,50,,,,,,50,Hungary,1
Dávid Horák,M,16,T2,B,Raw,68.2,75,,,,,,65,72.5,80,80,,,,,,80,Czechia,1
Krisztián Pupos,M,17,T2,B,Raw,83.4,90,,,,,,100,-107.5,-107.5,100,,,,,,100,Hungary,2
Ondrej Zatloukal,M,16,T2,B,Raw,85.3,90,,,,,,130,-140,-140,130,,,,,,130,Czechia,1
Ferenc Mata,M,16,T2,B,Raw,96,100,,,,,,105,112.5,120,120,,,,,,120,Hungary,1
János Bialik,M,17,T2,B,Raw,116,125,,,,,,115,120,122.5,122.5,,,,,,122.5,Hungary,1
Ádám Hedrich,M,18,T3,B,Raw,70.9,75,,,,,,115,125,-130,125,,,,,,125,Hungary,1
István Jeszeni,M,19,T3,B,Raw,75.4,82.5,,,,,,130,135,-137.5,135,,,,,,135,Hungary,2
Csaba Pupos,M,19,T3,B,Raw,77.2,82.5,,,,,,125,132.5,137.5,137.5,,,,,,137.5,Hungary,1
Olivér Janik,M,19,T3,B,Raw,107.5,110,,,,,,130,140,-145,140,,,,,,140,Slovakia,2
Bence Bihi,M,18,T3,B,Raw,107.4,110,,,,,,160,165,170,170,,,,,,170,Hungary,1
Mihály Krizsán,M,23,J,B,Raw,74,75,,,,,,130,-140,-140,130,,,,,,130,Hungary,1
Miklós Nándor Nagy,M,21,J,B,Raw,82.1,82.5,,,,,,150,157.5,-165,157.5,,,,,,157.5,Hungary,1
Dezső Korom Jr,M,21,J,B,Raw,88.9,90,,,,,,-185,185,-195,185,,,,,,185,Hungary,1
Patrik Marian Hajduk,M,21,J,B,Raw,93.1,100,,,,,,160,-175,-175,160,,,,,,160,Poland,2
Alex Bak,M,23,J,B,Raw,99.9,100,,,,,,180,190,200,200,,,,,,200,Hungary,1
Lukasz Gajudulewicz,M,20,J,B,Raw,110.4,125,,,,,,-175,175,180,180,,,,,,180,Poland,2
Dávid Farkas #1,M,22,J,B,Raw,119,125,,,,,,200,210,220,220,,,,,,220,Hungary,1
Patrik József Fekete,M,20,J,B,Raw,143.9,140+,,,,,,180,190,195,195,,,,,,195,Hungary,1
János Tóth,M,44,M1,B,Raw,57.3,60,,,,,,75,80,85,85,,,,,,85,Hungary,1
István Répás,M,41,M1,B,Raw,66.7,67.5,,,,,,127.5,132.5,137.5,137.5,,,,,,137.5,Hungary,1
Ghassem Ghorbanizadeh,M,42,M1,B,Raw,78.5,82.5,,,,,,100,115,120,120,,,,,,120,Iran,1
Zoltán Megyeri,M,43,M1,B,Raw,85.2,90,,,,,,145,150,155,155,,,,,,155,Hungary,2
István Szeifert,M,41,M1,B,Raw,89.3,90,,,,,,160,165,-170,165,,,,,,165,Hungary,1
Andrzej Robert Juraszek,M,40,M1,B,Raw,93.1,100,,,,,,160,165,-170,165,,,,,,165,Poland,2
György Berecz,M,42,M1,B,Raw,93.5,100,,,,,,160,-170,172.5,172.5,,,,,,172.5,Hungary,1
Zamani Reza,M,41,M1,B,Raw,107.4,110,,,,,,150,160,170,170,,,,,,170,Iran,3
Péter Belme,M,43,M1,B,Raw,106.1,110,,,,,,175,182.5,185,185,,,,,,185,Hungary,2
Jindřich Dressler,M,40,M1,B,Raw,109.8,110,,,,,,210,220,-225,220,,,,,,220,Czechia,1
Tibor Németh,M,44,M1,B,Raw,113.9,125,,,,,,-170,175,-185,175,,,,,,175,Hungary,3
Zoltán Vásárhelyi,M,42,M1,B,Raw,113.7,125,,,,,,165,175,-180,175,,,,,,175,Hungary,2
Richárd Nagy,M,43,M1,B,Raw,118.4,125,,,,,,175,182.5,-187.5,182.5,,,,,,182.5,Hungary,1
Attila Pupos,M,40,M1,B,Raw,128.6,140,,,,,,160,170,-180,170,,,,,,170,Hungary,4
Krzysztof Marek Halczyk,M,43,M1,B,Raw,132.3,140,,,,,,170,172.5,,172.5,,,,,,172.5,Poland,3
Attila Dobos,M,42,M1,B,Raw,129.1,140,,,,,,180,185,-197.5,185,,,,,,185,Hungary,2
András Sebők,M,40,M1,B,Raw,125.1,140,,,,,,190,195,197.5,197.5,,,,,,197.5,Hungary,1
Stamenovski Boshko,M,47,M2,B,Raw,72.4,75,,,,,,120,125,-130,125,,,,,,125,Macedonia,1
Zsolt Karlik,M,45,M2,B,Raw,76.2,82.5,,,,,,145,155,160,160,,,,,,160,Hungary,2
Dezső Korom Sr,M,47,M2,B,Raw,79.2,82.5,,,,,,150,160,165,165,,,,,,165,Hungary,1
Zsolt Kovács,M,45,M2,B,Raw,89.2,90,,,,,,135,140,147.5,147.5,,,,,,147.5,Hungary,1
Zdeněk Brauner,M,45,M2,B,Raw,91.3,100,,,,,,145,152.5,-157.5,152.5,,,,,,152.5,Czechia,1
István Lugasi,M,45,M2,B,Raw,103.4,110,,,,,,150,160,-165,160,,,,,,160,Hungary,1
Tamás Szabó,M,47,M2,B,Raw,123.5,125,,,,,,170,180,-192.5,180,,,,,,180,Hungary,2
Tamás Pfeifenróth,M,45,M2,B,Raw,110.8,125,,,,,,180,190,-200,190,,,,,,190,Hungary,1
Tibor Szmolár,M,45,M2,B,Raw,128.1,140,,,,,,135,-140,-140,135,,,,,,135,Hungary,2
Mátyás Farkas,M,48,M2,B,Raw,134.1,140,,,,,,225,-235,240,240,,,,,,240,Hungary,1
Grzegorz Kantor,M,46,M2,B,Raw,143.8,140+,,,,,,175,180,182.5,182.5,,,,,,182.5,Poland,1
László Göbölös,M,54,M3,B,Raw,74,75,,,,,,-100,105,110,110,,,,,,110,Hungary,2
Ernő Varga,M,53,M3,B,Raw,69.5,75,,,,,,120,125,130,130,,,,,,130,Hungary,1
László József Horváth,M,50,M3,B,Raw,80.7,82.5,,,,,,115,122.5,-127.5,122.5,,,,,,122.5,Hungary,2
Piotr Jurkeiewicz,M,51,M3,B,Raw,77.3,82.5,,,,,,120,125,130,130,,,,,,130,Poland,1
Ferenc Papp,M,54,M3,B,Raw,87.4,90,,,,,,110,120,-130,120,,,,,,120,Hungary,2
Gábor Reichert,M,53,M3,B,Raw,86,90,,,,,,125,132.5,-135,132.5,,,,,,132.5,Hungary,1
Zoltán Németh,M,50,M3,B,Raw,98.4,100,,,,,,135,145,150,150,,,,,,150,Hungary,2
Bruno Walter,M,50,M3,B,Raw,93.9,100,,,,,,170,180,-185,180,,,,,,180,Czechia,1
Attila Heizer,M,52,M3,B,Raw,106.9,110,,,,,,160,-170,-170,160,,,,,,160,Hungary,2
Sándor Szabó,M,54,M3,B,Raw,109.1,110,,,,,,162.5,-172.5,-172.5,162.5,,,,,,162.5,Hungary,1
Csaba Molnár,M,53,M3,B,Raw,123.8,125,,,,,,172.5,177.5,-180,177.5,,,,,,177.5,Hungary,1
László Vass,M,53,M3,B,Raw,134,140,,,,,,180,190,-195,190,,,,,,190,Hungary,1
Gyula Leyer,M,58,M4,B,Raw,82.2,82.5,,,,,,105,110,115,115,,,,,,115,Hungary,1
Tamás Brauner,M,57,M4,B,Raw,87.8,90,,,,,,150,160,-165,160,,,,,,160,Hungary,1
Imre Nagy,M,55,M4,B,Raw,104.8,110,,,,,,120,130,140,140,,,,,,140,Hungary,1
Béla Nagy,M,57,M4,B,Raw,116,125,,,,,,160,167.5,,167.5,,,,,,167.5,Hungary,1
Gábor Goda,M,63,M5,B,Raw,73.4,75,,,,,,120,126,,126,,,,,,126,Hungary,1
József Németh,M,60,M5,B,Raw,77.3,82.5,,,,,,105,107.5,110,110,,,,,,110,Hungary,1
László Kozma,M,61,M5,B,Raw,88.1,90,,,,,,122.5,127.5,132.5,132.5,,,,,,132.5,Hungary,1
Imrich Činčura,M,61,M5,B,Raw,96,100,,,,,,150,160,165,165,,,,,,165,Hungary,1
Jozef Matej,M,64,M5,B,Raw,104,110,,,,,,130,-135,-135,130,,,,,,130,Slovakia,2
István Eszenyi,M,60,M5,B,Raw,108,110,,,,,,150,-155,-155,150,,,,,,150,Hungary,1
Vladimír Svoboda,M,65,M6,B,Raw,95.6,100,,,,,,105,115,,115,,,,,,115,Czechia,2
Ottó Dalos,M,65,M6,B,Raw,94.1,100,,,,,,145,150,,150,,,,,,150,Hungary,1
Ján Matej,M,70,M7,B,Raw,89.3,90,,,,,,102.5,110,-112.5,110,,,,,,110,Slovakia,2
László Jobbágy,M,70,M7,B,Raw,83.8,90,,,,,,120,-130,,120,,,,,,120,Hungary,1
István Réz,M,75,M8,B,Raw,73.8,75,,,,,,90,100,,100,,,,,,100,Hungary,1
József Baranyai,M,77,M8,B,Raw,77.4,82.5,,,,,,80,85,87.5,87.5,,,,,,87.5,Hungary,1
Béla Bolgárfalvi,M,75,M8,B,Raw,88.6,90,,,,,,100,-110,,100,,,,,,100,Hungary,2
László Kasza,M,77,M8,B,Raw,88.4,90,,,,,,110,120,125,125,,,,,,125,Hungary,1
Csaba Keszthelyi,M,84,M9,B,Raw,77.3,82.5,,,,,,-67.5,67.5,-72.5,67.5,,,,,,67.5,Hungary,1
Péter Dobos,M,32,O,B,Raw,58,60,,,,,,60,65,-70,65,,,,,,65,Hungary,3
Gábor Boncz,M,27,O,B,Raw,57,60,,,,,,85,-92.5,-92.5,85,,,,,,85,Hungary,2
József Takács,M,32,O,B,Raw,57.2,60,,,,,,-85,85,90,90,,,,,,90,Hungary,1
István Répás,M,41,O,B,Raw,66.7,67.5,,,,,,127.5,132.5,137.5,137.5,,,,,,137.5,Hungary,1
Lukáš Dorazil,M,34,O,B,Raw,72,75,,,,,,105,115,120,120,,,,,,120,Czechia,3
Máté Suszter,M,30,O,B,Raw,72.8,75,,,,,,147.5,152.5,-157.5,152.5,,,,,,152.5,Hungary,2
Zdeněk Holeček,M,30,O,B,Raw,74.2,75,,,,,,152.5,162.5,170,170,,,,,,170,Czechia,1
Martin Andrzej Szreiber,M,36,O,B,Raw,76,82.5,,,,,,147.5,152.5,-157.5,152.5,,,,,,152.5,Poland,3
Ákos Nagy,M,24,O,B,Raw,80.1,82.5,,,,,,165,-172.5,-172.5,165,,,,,,165,Hungary,2
Gábor Molnár,M,25,O,B,Raw,80.2,82.5,,,,,,160,170,-175,170,,,,,,170,Hungary,1
Tibor Pupos,M,24,O,B,Raw,87.7,90,,,,,,162.5,170,-180,170,,,,,,170,Hungary,5
István Mester,M,26,O,B,Raw,83,90,,,,,,170,-180,-180,170,,,,,,170,Hungary,4
Milan Zeman,M,24,O,B,Raw,88.1,90,,,,,,160,175,-185,175,,,,,,175,Czechia,3
Zsolt Mák,M,25,O,B,Raw,87,90,,,,,,180,-185,185,185,,,,,,185,Hungary,2
Jaroslav Buczko,M,25,O,B,Raw,89.6,90,,,,,,215,220,-225,220,,,,,,220,Poland,1
Gábor Galambos,M,34,O,B,Raw,100,100,,,,,,80,85,90,90,,,,,,90,Hungary,6
Attila Mocsár,M,39,O,B,Raw,91.2,100,,,,,,130,-140,,130,,,,,,130,Hungary,5
Attila Mészáros,M,30,O,B,Raw,94.4,100,,,,,,150,-160,-160,150,,,,,,150,Hungary,4
Dániel Zelei,M,27,O,B,Raw,98.7,100,,,,,,170,-175,175,175,,,,,,175,Hungary,3
Zoltán Luka,M,31,O,B,Raw,94.6,100,,,,,,190,-200,-200,190,,,,,,190,Hungary,2
Patryk Kozieł,M,30,O,B,Raw,95.4,100,,,,,,180,190,192.5,192.5,,,,,,192.5,Poland,1
Zoltán Borszuk,M,39,O,B,Raw,107.6,110,,,,,,180,185,-190,185,,,,,,185,Hungary,5
Dániel Hegedüs,M,25,O,B,Raw,107.7,110,,,,,,185,190,-200,190,,,,,,190,Hungary,4
Róbert Svanczár,M,32,O,B,Raw,104.5,110,,,,,,185,190,197.5,197.5,,,,,,197.5,Hungary,3
Mihály Kővári,M,29,O,B,Raw,109.5,110,,,,,,200,-207.5,-210,200,,,,,,200,Hungary,2
Ákos Oláh,M,29,O,B,Raw,106.3,110,,,,,,200,207.5,215,215,,,,,,215,Hungary,1
Bence Nagy,M,33,O,B,Raw,118,125,,,,,,160,170,175,175,,,,,,175,Hungary,3
Tamás Kucsera,M,25,O,B,Raw,110.8,125,,,,,,-180,190,-200,190,,,,,,190,Hungary,2
György Karosán,M,30,O,B,Raw,120.4,125,,,,,,210,225,-240,225,,,,,,225,Hungary,1
Huba Hablicsek,M,20,J,D,Multi-ply,58.8,60,,,,,,,,,,140,155,165,,165,165,Hungary,1
Áron Benjámin Mező,M,21,J,D,Multi-ply,90,90,,,,,,,,,,240,-250,-255,-260,240,240,Hungary,1
Ernő Eck Jr,M,23,J,D,Multi-ply,93.1,100,,,,,,,,,,210,225,230,,230,230,Hungary,1
Norbert Hablicsek,M,44,M1,D,Multi-ply,108.8,110,,,,,,,,,,240,260,,,260,260,Hungary,1
Ernő Eck Sr,M,46,M2,D,Multi-ply,109.3,110,,,,,,,,,,282.5,292.5,297,-301,297,297,Hungary,1
Libor Hurdálek,M,63,M5,D,Multi-ply,99.1,100,,,,,,,,,,190,210,220,,220,220,Czechia,1
Jaroslav Tomanec,M,74,M7,D,Multi-ply,82.5,82.5,,,,,,,,,,150,155,160,,160,160,,1
István Hangyál,M,29,O,D,Multi-ply,70,75,,,,,,,,,,130,140,150,,150,150,Hungary,1
László Eck,M,39,O,D,Multi-ply,89.9,90,,,,,,,,,,-245,250,255,,255,255,Hungary,1
Péter Pintér,M,32,O,D,Multi-ply,115.9,125,,,,,,,,,,285,300,,,300,300,Slovakia,1
Vivien Halász,F,16,T2,D,Raw,62.2,67.5,,,,,,,,,,87.5,-92.5,92.5,,92.5,92.5,Hungary,1
Patrícia Hamarics,F,20,J,D,Raw,49.1,52,,,,,,,,,,-110,120,-125,,120,120,Hungary,1
Veronika Danyi,F,41,M1,D,Raw,71.3,75,,,,,,,,,,55,65,75,,75,75,Hungary,2
Mónika Bazsó,F,44,M1,D,Raw,69.2,75,,,,,,,,,,180,190,200,,200,200,Hungary,1
Edit Illyés,F,45,M2,D,Raw,73.9,75,,,,,,,,,,140,-150,-150,,140,140,Hungary,1
Katalin Rohrmann,F,64,M5,D,Raw,82.4,82.5,,,,,,,,,,120,130,135,,135,135,Hungary,1
Dóra Bubernik,F,26,O,D,Raw,59.7,60,,,,,,,,,,122.5,127.5,-130,,127.5,127.5,Hungary,1
Amela Fekovic,F,26,O,D,Raw,61.7,67.5,,,,,,,,,,120,135,150,,150,150,Montenegro,2
Veronika Zemanová,F,36,O,D,Raw,67.2,67.5,,,,,,,,,,160,175,190,,190,190,Czechia,1
Ádám Jakubek,M,16,T2,D,Raw,108.2,110,,,,,,,,,,210,225,232.5,,232.5,232.5,Slovakia,1
Ladislav Daněček,M,19,T3,D,Raw,73.6,75,,,,,,,,,,210,220,-230,,220,220,Czechia,1
Zoltán Horváth #2,M,18,T3,D,Raw,79.4,82.5,,,,,,,,,,185,195,200,,200,200,Hungary,1
Martin Kostelecký,M,19,T3,D,Raw,88.6,90,,,,,,,,,,260,-270,270,,270,270,Czechia,1
Henrik Horváth,M,19,T3,D,Raw,98.3,100,,,,,,,,,,180,210,-220,,210,210,Hungary,1
Péter Bodolai,M,18,T3,D,Raw,107.9,110,,,,,,,,,,275,-290,-290,,275,275,Hungary,2
Ukrinas Lukas,M,19,T3,D,Raw,108.8,110,,,,,,,,,,250,280,-292.5,,280,280,Lithuania,1
Huba Hablicsek,M,20,J,D,Raw,58.6,60,,,,,,,,,,135,-145,150,,150,150,Hungary,1
Jiří Balabán,M,23,J,D,Raw,74.3,75,,,,,,,,,,237.5,247.5,253,257.5,253,253,Czechia,1
Jakub Navrátil,M,23,J,D,Raw,80,82.5,,,,,,,,,,230,240,247.5,,247.5,247.5,Czechia,3
David Rajčányi,M,20,J,D,Raw,80.2,82.5,,,,,,,,,,230,250,262.5,,262.5,262.5,Czechia,2
Gábor Bezzeg,M,20,J,D,Raw,81.3,82.5,,,,,,,,,,250,260,265,,265,265,Hungary,1
Gergely Marton,M,22,J,D,Raw,83.3,90,,,,,,,,,,240,-250,-250,,240,240,Hungary,2
Vojtěch Semerád,M,23,J,D,Raw,88.3,90,,,,,,,,,,250,-260,-265,,250,250,Czechia,1
Péter Virág,M,22,J,D,Raw,97.8,100,,,,,,,,,,230,240,250,,250,250,Hungary,2
Lukáš Bláha,M,22,J,D,Raw,98.1,100,,,,,,,,,,310,320,330,335,330,330,Czechia,1
Stanislav Močkor,M,21,J,D,Raw,106,110,,,,,,,,,,-280,290,-302.5,,290,290,Slovakia,1
Sadowski Piotr,M,22,J,D,Raw,111.1,125,,,,,,,,,,300,310,315,,315,315,Poland,2
Zoltán Borbíró,M,22,J,D,Raw,113.3,125,,,,,,,,,,300,320,-330,,320,320,Hungary,1
Zsolt Nagy,M,43,M1,D,Raw,102.6,110,,,,,,,,,,240,250,262.5,,262.5,262.5,Hungary,2
Norbert Hablicsek,M,44,M1,D,Raw,108.8,110,,,,,,,,,,242.5,252.5,265,,265,265,Hungary,1
Reza Zamani,M,41,M1,D,Raw,107.1,110,,,,,,,,,,-240,,,,,,Iran,DQ
Richárd Nagy,M,43,M1,D,Raw,117.9,125,,,,,,,,,,220,230,-237.5,,230,230,Hungary,2
Tibor Szántó,M,42,M1,D,Raw,117.7,125,,,,,,,,,,260,270,-282.5,,270,270,Hungary,1
Ferenc Szenti,M,40,M1,D,Raw,132.7,140,,,,,,,,,,275,290,300,,300,300,Hungary,2
Tibor Karalyos,M,44,M1,D,Raw,136.6,140,,,,,,,,,,290,310,,,310,310,Hungary,1
Vjekoslav Karakaš,M,48,M2,D,Raw,64.2,67.5,,,,,,,,,,140,150,155,,155,155,Croatia,1
Mehrdad Sorkhi,M,47,M2,D,Raw,89.8,90,,,,,,,,,,140,160,175,,175,175,,2
Zdeněk Brauner,M,45,M2,D,Raw,90,90,,,,,,,,,,145,240,-255,,240,240,Czechia,1
Roman Zigo,M,45,M2,D,Raw,99.5,100,,,,,,,,,,190,210,225,,225,225,Czechia,1
Gábor Nagy,M,47,M2,D,Raw,106.2,110,,,,,,,,,,200,210,,,210,210,Hungary,3
Ferenc Gyenes,M,49,M2,D,Raw,109.2,110,,,,,,,,,,235,245,252.5,,252.5,252.5,Hungary,2
László Kiss,M,49,M2,D,Raw,106.5,110,,,,,,,,,,260,280,-290,,280,280,Hungary,1
Zoltán Németh,M,50,M3,D,Raw,98.1,100,,,,,,,,,,185,195,205,,205,205,Hungary,1
Sejfo Šehović,M,58,M4,D,Raw,71.8,75,,,,,,,,,,210,220,,,220,220,Bosnia and Herzegovina,1
Imre Nagy,M,55,M4,D,Raw,105.1,110,,,,,,,,,,140,,,,140,140,Hungary,1
Szabolcs Kassa,M,32,O,D,Raw,67.5,67.5,,,,,,,,,,185,195,205,,205,205,Hungary,1
Tamás Varga,M,25,O,D,Raw,72.1,75,,,,,,,,,,220,230,240,,240,240,Hungary,1
Péter Katona,M,33,O,D,Raw,81.2,82.5,,,,,,,,,,185,195,-205,,195,195,Hungary,3
Csaba Koleszár,M,28,O,D,Raw,79.6,82.5,,,,,,,,,,210,220,-232.5,,220,220,Hungary,2
Gábor Csikós,M,30,O,D,Raw,80.3,82.5,,,,,,,,,,200,230,235,,235,235,Hungary,1
Jozef Keszőcze,M,25,O,D,Raw,88.8,90,,,,,,,,,,260,275,-282.5,,275,275,Czechia,2
Szilveszter Zsilák,M,25,O,D,Raw,87.2,90,,,,,,,,,,280,-300,-300,,280,280,Hungary,1
János Magyar,M,32,O,D,Raw,97.3,100,,,,,,,,,,230,240,-242.5,,240,240,Hungary,5
Mihály Erdei,M,24,O,D,Raw,96.8,100,,,,,,,,,,225,240,-247.5,,240,240,Hungary,4
Kristóf Kincses,M,25,O,D,Raw,98.4,100,,,,,,,,,,225,235,247.5,,247.5,247.5,Hungary,3
Róbert Majoros,M,24,O,D,Raw,95.6,100,,,,,,,,,,250,260,270,,270,270,Hungary,2
Lukáš Bláha,M,22,O,D,Raw,98.1,100,,,,,,,,,,330,340,,,340,340,Czechia,1
Richárd Németh,M,24,O,D,Raw,104.3,110,,,,,,,,,,250,260,275,,275,275,Hungary,2
Szabolcs Balázs,M,30,O,D,Raw,101.5,110,,,,,,,,,,290,300,,,300,300,Hungary,1
Piotr Goj,M,24,O,D,Raw,118.6,125,,,,,,,,,,285,300,-305,,300,300,Poland,2
Hristo Muskov,M,32,O,D,Raw,121.8,125,,,,,,,,,,325,340,-352.5,,340,340,Bulgaria,1
Adam Švehla,M,37,O,D,Raw,132.9,140,,,,,,,,,,300,310,320,,320,320,Czechia,1
Attila Csaba Kis,M,38,O,D,Raw,152,140+,,,,,,,,,,200,215,230,,230,230,Hungary,1
Áron Benjámin Mező,M,21,J,D,Raw,90,90,,,,,,,,,,-200,-200,-200,,,,,DQ
Vendel Böjtös,M,53,M3,SBD,Multi-ply,121.9,125,180,195,-210,,195,125,130,135,135,180,190,200,,200,530,Hungary,1
Pavel Malina,M,58,M4,SBD,Multi-ply,59.7,60,175,185,-195,,185,100,105,-107.5,105,150,160,170,,170,460,,1
Karol Brečka,M,57,M4,SBD,Multi-ply,77.5,82.5,175,190,200,,200,100,110,120,120,175,190,200,,200,520,Czechia,1
Vincas Varza,M,61,M5,SBD,Multi-ply,95.5,100,-220,-220,-220,,,,,,,,,,,,,Lithuania,DQ
Dagmar Skalová,F,15,T1,SBD,Wraps,59.3,60,-75,80,90,,90,50,-55,-55,50,85,92.5,100,,100,240,Czechia,1
Karolina Bottyán,F,15,T1,SBD,Wraps,62.5,67.5,-100,-100,-100,,-100,40,-42.5,42.5,42.5,-115,-115,-115,,,,Hungary,DQ
Vivien Halász,F,16,T2,SBD,Wraps,62.2,67.5,90,-95,95,,95,47.5,52.5,55,55,87.5,92.5,-97.5,,92.5,242.5,Hungary,1
Tifani Wittman,F,18,T3,SBD,Wraps,69.5,75,-145,145,150,,150,-100,100,105,105,180,190,-200,,190,445,Slovakia,1
Dominika Rusznyák,F,20,J,SBD,Wraps,50.9,52,90,-100,100,,100,-70,-70,70,70,100,110,-120,,110,280,Hungary,1
Felicita Susa,F,23,J,SBD,Wraps,59.8,60,120,132.5,-140.5,,132.5,55,60,-65,60,110,120,127.5,,127.5,320,Hungary,1
Barbara Tóth,F,21,J,SBD,Wraps,66.7,67.5,110,117.5,125,,125,52.5,57.5,62.5,62.5,117.5,127.5,-135,,127.5,315,Hungary,1
Veronika Rulíková,F,21,J,SBD,Wraps,73.1,75,-130,130,-150,,130,75,77.5,-80,77.5,130,150,155,,155,362.5,Hungary,1
Alexandra Soós,F,20,J,SBD,Wraps,82.5,82.5,155,165,-172.5,,165,85,90,-97.5,90,180,190,200,,200,455,Hungary,1
Mónika Bazsó,F,44,M1,SBD,Wraps,69.2,75,142.5,152.5,160,,160,92.5,97.5,102.5,102.5,185,195,-201,,195,457.5,Hungary,1
Éva Koczkás,F,46,M2,SBD,Wraps,81.9,82.5,170,175,180,,180,100,105,-110,105,140,145,150,,150,435,Hungary,1
Tereza Mlýnková,F,25,O,SBD,Wraps,49.5,52,80,90,95,,95,45,52.5,-55,52.5,115,125,-135,,125,272.5,Czechia,1
Helena Erbanová,F,35,O,SBD,Wraps,64.4,67.5,-100,100,107.5,,107.5,55,60,-62.5,60,120,130,140,,140,307.5,Czechia,2
Elena Šímová,F,39,O,SBD,Wraps,66.7,67.5,-170,170,-185,,170,80,87.5,-90,87.5,170,180,-185,,180,437.5,Slovakia,1
Veronika Zemanová,F,36,O,SBD,Wraps,67.2,67.5,-150,-155,-155,,,,,,,,,,,,,Czechia,DQ
Márta Matuska,F,28,O,SBD,Wraps,71.8,75,160,170,180,,180,90,100,-105,100,170,190,-195,,190,470,Hungary,1
Martina Dostálová,F,34,O,SBD,Wraps,84.8,90,180,-190,-195,,180,120,130,-132.5,130,230,240,245,,245,555,Czechia,1
István László Vereb,M,15,T1,SBD,Wraps,65.9,67.5,-140,140,-150,,140,65,70,-80,70,140,-150,-150,,140,350,Hungary,2
Milán Bogdán,M,15,T1,SBD,Wraps,66.3,67.5,80,100,120,,120,75,90,-92.5,90,125,137.5,145,,145,355,Hungary,1
Samuel Hoza,M,16,T2,SBD,Wraps,73.5,75,140,155,170,,170,75,85,-95,85,120,130,-140,,130,385,Czechia,3
Csaba Méry,M,17,T2,SBD,Wraps,72.2,75,120,135,-150,,135,90,100,-105,100,170,180,190,,190,425,Slovakia,2
Csaba Bajczer,M,16,T2,SBD,Wraps,73,75,-155,165,180,,180,90,105,-115,105,180,200,220,,220,505,Hungary,1
Roman Fuksa,M,17,T2,SBD,Wraps,80.9,82.5,200,-220,-220,,200,100,110,-120,110,-241,241,250,,250,560,Czechia,1
Lukáš Horáček,M,17,T2,SBD,Wraps,95.6,100,175,-185,185,,185,105,112.5,115,115,190,200,205,,205,505,Czechia,1
Erik Méhes,M,16,T2,SBD,Wraps,152.3,140+,185,-195,200,,200,80,85,-90,85,195,205,-215,,205,490,Slovakia,1
Máté Kiss,M,18,T3,SBD,Wraps,59.2,60,150,160,165,,165,75,80,85,85,160,175,-182.5,,175,425,Hungary,1
Adrián Untermayer,M,18,T3,SBD,Wraps,80.7,82.5,140,150,-160,,150,100,105,-110,105,190,205,-215,,205,460,Slovakia,2
Márk Mészáros,M,19,T3,SBD,Wraps,80.1,82.5,165,175,-185,,175,105,110,115,115,210,220,-230,,220,510,Hungary,1
Martin Kostelecký,M,19,T3,SBD,Wraps,88.6,90,200,210,-220,,210,110,120,125,125,260,270,-277.5,,270,605,Czechia,2
David Zitta,M,19,T3,SBD,Wraps,88.4,90,210,-230,-230,,210,120,130,140,140,240,255,265,,265,615,Czechia,1
Ukrinas Lukas,M,19,T3,SBD,Wraps,108.8,110,-230,230,-245,,230,135,145,-152.5,145,-260,260,-292.5,,260,635,Lithuania,4
Dominik Ponocný,M,18,T3,SBD,Wraps,107.1,110,245,,265,,265,120,135,145,145,245,265,285,,285,695,Czechia,3
Mihály Horváth,M,18,T3,SBD,Wraps,106.8,110,240,250,260,,260,170,180,190,190,250,270,280,,280,730,Hungary,2
Gergő Grézál,M,18,T3,SBD,Wraps,104.7,110,270,285,-300,,285,170,180,-190,180,290,-302.5,-302.5,,290,755,Hungary,1
Michael Štěpánek,M,22,J,SBD,Wraps,74,75,-175,175,185,,185,100,107.5,-112.5,107.5,205,225,235,,235,527.5,Czechia,1
Petr Hloušek,M,20,J,SBD,Wraps,81.4,82.5,180,-200,-205,,180,100,110,122.5,122.5,200,,230,,230,532.5,Czechia,4
Norbert Csizmazia,M,20,J,SBD,Wraps,79.6,82.5,160,165,170,,170,135,142.5,-147.5,142.5,215,225,-235,,225,537.5,Hungary,3
Krisztián Korsós,M,22,J,SBD,Wraps,75.6,82.5,-200,-200,200,,200,-120,120,-125,120,-215,215,220,,220,540,Hungary,2
Gábor Bezzeg,M,20,J,SBD,Wraps,81.3,82.5,200,210,-220,,210,110,115,-120,115,250,265,-270,,265,590,Hungary,1
Gergely Marton,M,22,J,SBD,Wraps,83.3,90,-200,200,210,,210,120,130,132.5,132.5,240,,,,240,582.5,Hungary,3
Árpád Ignéczi,M,22,J,SBD,Wraps,84.8,90,210,220,230,,230,150,160,170,170,-280,-280,280,,280,680,Hungary,2
Balázs Hajdú,M,21,J,SBD,Wraps,87.6,90,225,240,252.5,,252.5,160,172.5,-180,172.5,250,270,-282.5,,270,695,Hungary,1
Přemysl Skoták,M,21,J,SBD,Wraps,98.4,100,267.5,-282.5,-282.5,,267.5,162.5,172.5,180,180,267.5,282.5,290,,290,737.5,Czechia,1
Alexandar Radivojevic,M,21,J,SBD,Wraps,108.1,110,-260,,260,,260,170,180,,180,280,300,310,,310,750,Serbia,1
Zoltán Kapusi,M,21,J,SBD,Wraps,119,125,215,225,240,,240,125,135,145,145,245,265,280,,280,665,Hungary,3
Piotr Sadowski,M,22,J,SBD,Wraps,111.1,125,-250,-250,250,,250,180,190,-195,190,-300,310,315,,315,755,Poland,2
Zoltán Borbíró,M,22,J,SBD,Wraps,113.3,125,260,270,-285,,270,175,182.5,-187.5,182.5,300,320,340,,340,792.5,Hungary,1
Marius Babkovič,M,23,J,SBD,Wraps,128.4,140,-245,-245,-245,,,-160,170,-185,170,,,,,,,Slovakia,DQ
Zsolt Horváth,M,43,M1,SBD,Wraps,79.5,82.5,210,220,-230,,220,125,132.5,-135,132.5,220,230,240,,240,592.5,Hungary,1
Zoltán Pánczél,M,43,M1,SBD,Wraps,94.3,100,170,190,200,,200,140,150,-155,150,240,250,-255,,250,600,Hungary,3
Martin Horák,M,41,M1,SBD,Wraps,99.3,100,210,215,225,,225,155,165,-172.5,165,220,235,242.5,,242.5,632.5,Czechia,2
Zoltán Karsai,M,44,M1,SBD,Wraps,97.2,100,240,250,-260,,250,170,180,190,190,240,250,260,,260,700,Hungary,1
Martin Kolodžej,M,44,M1,SBD,Wraps,102.6,110,190,205,212.5,,212.5,110,-120,-125,110,220,230,-240,,230,552.5,Czechia,3
Lajos Bán,M,41,M1,SBD,Wraps,104.1,110,-210,210,220,,220,140,-145,-145,140,230,-245,250,,250,610,Hungary,2
Zsolt Nagy,M,43,M1,SBD,Wraps,102.6,110,190,200,210,,210,175,185,-190,185,240,250,260,,260,655,Hungary,1
Ákos Lehotkai,M,42,M1,SBD,Wraps,119.3,125,270,-280,-280,,270,155,-165,-165,155,280,-300,300,,300,725,Slovakia,2
Zsolt Antal,M,42,M1,SBD,Wraps,117.3,125,280,290,300,,300,180,190,195,195,280,290,-300,,290,785,Hungary,1
Josef Mazač,M,41,M1,SBD,Wraps,140.2,140+,260,290,-300,,290,190,210,230,230,270,290,-300,,290,810,Czechia,1
Ferenc Hábetler,M,45,M2,SBD,Wraps,78.2,82.5,175,187.5,190,,190,85,90,-95,90,170,180,185,,185,465,Hungary,1
Roman Zigo,M,45,M2,SBD,Wraps,99.5,100,170,-180,190,,190,105,115,120,120,190,210,220,,220,530,Czechia,3
Miroslav Šefl,M,46,M2,SBD,Wraps,93.7,100,190,210,-220,,210,140,145,-147.5,145,200,220,225,,225,580,Czechia,2
István Kürti,M,45,M2,SBD,Wraps,90.8,100,210,220,225,,225,160,165,170,170,220,230,240,,240,635,Hungary,1
Gábor Nagy,M,47,M2,SBD,Wraps,106.2,110,150,160,-172.5,,160,125,135,142.5,142.5,210,220,230,,230,532.5,Hungary,2
Róbert Franyó,M,46,M2,SBD,Wraps,102.6,110,180,200,210,,210,150,160,170,170,180,200,,,200,580,Hungary,1
Lajos Kovács,M,46,M2,SBD,Wraps,129.2,140,220,235,245,,245,150,160,170,170,210,220,230,,230,645,Hungary,1
István Landesz,M,51,M3,SBD,Wraps,86.4,90,210,-220,-225,,210,130,135,-140,135,190,200,210,,210,555,Hungary,1
Zoltán Németh,M,50,M3,SBD,Wraps,98.1,100,195,205,-210,,205,140,145,150,150,195,200,205,,205,560,Hungary,1
Tibor Varga,M,52,M3,SBD,Wraps,115.4,125,-180,180,-190,,180,150,160,-170,160,190,210,215,,215,555,Hungary,1
Sejfo Šehović,M,59,M4,SBD,Wraps,71.8,75,155,-170,-170,,155,95,,,95,205,215,,,215,465,Bosnia and Herzegovina,1
Jozef Cichy,M,65,M6,SBD,Wraps,59.9,60,-130,130,-137.5,,130,-50,50,-55,50,135,145,-155,,145,325,Czechia,1
Miklós Kardos,M,66,M6,SBD,Wraps,80.9,82.5,110,120,-130,,120,75,-80,-80,75,145,,,,145,340,Hungary,2
Petr Kutner,M,67,M6,SBD,Wraps,81.9,82.5,140,150,160,,160,70,75,80,80,180,192.5,-200,,192.5,432.5,Czechia,1
Pavel Erban,M,66,M6,SBD,Wraps,87.1,90,95,105,-115,,105,77.5,-82.5,,77.5,125,135,142.5,,142.5,325,Czechia,2
Ferenc Smuk,M,65,M6,SBD,Wraps,87.7,90,230,-245,245,,245,100,,,100,230,245,260,,260,605,Hungary,1
Vladimír Svoboda,M,65,M6,SBD,Wraps,95.5,100,145,155,160,,160,105,115,,115,145,160,,,160,435,Czechia,2
Ladislau Kiss,M,69,M6,SBD,Wraps,97.3,100,190,210,-220,,210,110,125,-135,125,225,240,260,,260,595,Hungary,1
Szabolcs Kassa,M,32,O,SBD,Wraps,67.5,67.5,-165,-165,165,,165,-107.5,107.5,115,115,190,205,210,,210,490,Hungary,1
Mário Lompart,M,32,O,SBD,Wraps,73.5,75,-160,160,-175,,160,140,150,-160,150,195,205,215,,215,525,Slovakia,3
Florián Tichý,M,31,O,SBD,Wraps,71.5,75,160,170,-180,,170,140,145,-147.5,145,200,210,215,,215,530,Slovakia,2
Kamil Tůma,M,33,O,SBD,Wraps,74.3,75,210,-220,220,,220,140,150,-160,150,240,250,-260,,250,620,Czechia,1
Adrián Hegyi,M,29,O,SBD,Wraps,70.7,75,-180,-180,-180,,,105,-110,-110,105,190,200,205,,205,,Hungary,DQ
Mátyás Nagy,M,25,O,SBD,Wraps,80.6,82.5,135,-140,145,,145,105,107.5,-110,107.5,200,210,220,,220,472.5,Slovakia,3
Petr Karácsony,M,36,O,SBD,Wraps,79.6,82.5,165,-175,-177.5,,165,100,107.5,-110,107.5,195,205,210,,210,482.5,Czechia,2
Petr Gažko,M,36,O,SBD,Wraps,82.5,82.5,200,-220,220,,220,150,160,170,170,210,220,230,,230,620,Czechia,1
Milan Zeman,M,24,O,SBD,Wraps,86,90,180,-200,,,180,160,170,180,180,200,220,230,,230,590,Czechia,5
Ádám Dömők,M,27,O,SBD,Wraps,86.2,90,200,-215,215,,215,150,160,-165,160,230,-240,-245,,230,605,Hungary,4
Petr Keliar,M,33,O,SBD,Wraps,88.6,90,225,235,245,,245,127.5,-135,135,135,210,220,230,,230,610,Czechia,3
Roland Zsigmond,M,27,O,SBD,Wraps,87.6,90,200,210,-215,,210,150,-160,-160,150,225,240,252.5,,252.5,612.5,Hungary,2
Attila Stir,M,31,O,SBD,Wraps,89.6,90,250,270,280,,280,170,180,,180,260,270,-280,,270,730,Hungary,1
Petr Horák,M,38,O,SBD,Wraps,87.5,90,-250,-250,-280,,,,,,,,,,,,,Czechia,DQ
József Bartal,M,27,O,SBD,Wraps,95.6,100,180,200,210,,210,120,125,-130,125,220,230,240,,240,575,Hungary,7
Péter Pálvölgyi,M,25,O,SBD,Wraps,92.8,100,210,220,230,,230,135,142.5,150,150,220,230,240,,240,620,Hungary,6
András Szilágyi,M,25,O,SBD,Wraps,99.6,100,230,-240,-240,,230,160,170,-175,170,260,270,-275,,270,670,Hungary,5
Alexandr Globa,M,24,O,SBD,Wraps,97.8,100,252.5,265,270,,270,150,-160,-160,150,245,275,290,,290,710,Czechia,4
Dávid Barabás,M,30,O,SBD,Wraps,98.4,100,240,250,260,,260,180,-190,-190,180,260,275,-282.5,,275,715,Hungary,3
Paulus Markvénas,M,25,O,SBD,Wraps,99.4,100,230,240,250,,250,200,-210,-210,200,270,280,-295,,280,730,Lithuania,2
Róbert Majoros,M,24,O,SBD,Wraps,95.6,100,250,260,-262.5,,260,170,182.5,-190,182.5,265,300,-305,,300,742.5,Hungary,1
Levente Bernáth,M,25,O,SBD,Wraps,107,110,-210,210,-230,,210,155,-160,-160,155,250,270,-280,,270,635,Hungary,5
Jaroslav Křížovský,M,28,O,SBD,Wraps,100.4,110,180,200,220,,220,150,-160,-160,150,240,255,265,,265,635,Czechia,4
Tibor Lázár,M,29,O,SBD,Wraps,107.9,110,-250,,250,,250,180,190,-200,190,250,270,290,,290,730,Hungary,3
Tamás Kövesdi,M,28,O,SBD,Wraps,107.5,110,250,265,-272.5,,265,160,170,-175,170,285,300,310,,310,745,Hungary,2
Alexandar Jovanovic,M,29,O,SBD,Wraps,106.6,110,270,290,-300,,290,160,-170,-170,160,275,-300,300,,300,750,Serbia,1
Tamás Szalai,M,25,O,SBD,Wraps,124.6,125,260,-270,-270,,260,190,-200,-200,190,260,270,285,,285,735,Hungary,1
Péter Kiss,M,27,O,SBD,Wraps,133,140,230,240,250,,250,150,160,-165,160,240,250,260,,260,670,Poland,4
György Ladányi,M,37,O,SBD,Wraps,129.5,140,260,280,300,,300,180,190,200,200,250,-275,,,250,750,Hungary,3
Gábor Bencze,M,38,O,SBD,Wraps,127.8,140,300,315,325,,325,190,200,210,210,310,-320,-320,,310,845,Hungary,2
Gergő Benes,M,19,O,SBD,Wraps,138.4,140,-330,-330,330,,330,190,205,,205,347.5,-365,-365,,347.5,882.5,Hungary,1
Attila Csaba Kis,M,38,O,SBD,Wraps,152,140+,150,165,175,,175,115,125,132.5,132.5,200,215,225,,225,532.5,Hungary,1
Jan Kasper,M,19,T3,S,Multi-ply,85.9,90,205,215,-225,,215,,,,,,,,,,215,Czechia,1
Áron Benjámin Mező,M,,J,S,Multi-ply,90,90,180,200,-220,,200,,,,,,,,,,200,Hungary,1
Tibor Manzera,M,49,M2,S,Multi-ply,110.7,125,100,110,120,,120,,,,,,,,,,120,Hungary,1
Pavel Hurdálek,M,38,O,S,Multi-ply,113.5,125,300,320,-330,,320,,,,,,,,,,320,Czechia,1
Rózsa Sipeki,F,23,J,S,Wraps,55.9,56,95,-105,105,-110,105,,,,,,,,,,105,Hungary,1
Mónika Bazsó,F,44,M1,S,Wraps,69.2,75,140,150,,,150,,,,,,,,,,150,Hungary,1
Katalin Rohrmann,F,64,M5,S,Wraps,82.4,82.5,-90,90,95,,95,,,,,,,,,,95,Hungary,1
Dóra Bubernik,F,26,O,S,Wraps,59.7,60,95,-107.5,-107.5,,95,,,,,,,,,,95,Hungary,1
Ádám Jakubek,M,16,T2,S,Wraps,108.2,110,-200,200,-215,,200,,,,,,,,,,200,Slovakia,1
Zoltán Horváth #2,M,18,T3,S,Wraps,79.4,82.5,160,170,180,,180,,,,,,,,,,180,Hungary,1
Henrik László Horváth,M,19,T3,S,Wraps,98.3,100,180,-210,210,215,210,,,,,,,,,,210,Hungary,1
Péter Bodolai,M,18,T3,S,Wraps,107.9,110,255,270,-280,,270,,,,,,,,,,270,Hungary,1
Jiří Balabán,M,23,J,S,Wraps,74.3,75,182.5,192.5,200,-205,200,,,,,,,,,,200,Czechia,1
Jakub Navrátil,M,23,J,S,Wraps,80,82.5,170,-180,180,190,180,,,,,,,,,,180,Czechia,1
Gergely Marton,M,22,J,S,Wraps,83.3,90,180,,,,180,,,,,,,,,,180,Hungary,1
Alexandar Radivojevic,M,21,J,S,Wraps,108.1,110,250,270,286,,286,,,,,,,,,,286,Serbia,1
Tamás Brudnyák,M,43,M1,S,Wraps,94.9,100,190,200,-210,,200,,,,,,,,,,200,Hungary,3
Martin Horák,M,41,M1,S,Wraps,99.3,100,215,222.5,227.5,,227.5,,,,,,,,,,227.5,Czechia,2
Eugenijus Cibulskis,M,42,M1,S,Wraps,96,100,195,215,227.5,,227.5,,,,,,,,,,227.5,Lithuania,1
Roman Zigo,M,45,M2,S,Wraps,99.5,100,170,-200,-200,,170,,,,,,,,,,170,Czechia,1
Ferenc Gyenes,M,49,M2,S,Wraps,109.2,110,215,225,230,,230,,,,,,,,,,230,Hungary,1
Zoltán Németh,M,50,M3,S,Wraps,98.1,100,190,195,210,,210,,,,,,,,,,210,Hungary,1
Vladimír Svoboda,M,65,M6,S,Wraps,95.5,100,145,155,162.5,,162.5,,,,,,,,,,162.5,Czechia,1
Martin Hurdálek,M,39,O,S,Wraps,99,100,220,240,-250,,240,,,,,,,,,,240,Czechia,2
Róbert Majoros,M,24,O,S,Wraps,95.6,100,235,250,-262.5,,250,,,,,,,,,,250,Hungary,1
Alexandar Jovanovic,M,29,O,S,Wraps,106.6,110,-270,270,-311,,270,,,,,,,,,,270,Serbia,1
Gaj Piotr,M,24,O,S,Wraps,118.6,125,250,260,265,,265,,,,,,,,,,265,Poland,1
