Division,WeightClassKg,Place,Name,Team,BodyweightKg,Best3SquatKg,Best3BenchKg,Best3DeadliftKg,TotalKg,Equipment,Event,Sex
Boys,51.71,1,Mohammad Ali,Mansfield Timberview,46.36,104.33,65.77,120.2,290.3,Single-ply,SBD,M
Boys,59.87,1,Tevin Cofield,Mansfield,57.7,181.44,102.06,176.9,460.4,Single-ply,SBD,M
Boys,59.87,2,Tyler Groce,Mansfield Legacy,56.25,131.54,81.65,136.08,349.27,Single-ply,SBD,M
Boys,59.87,3,Cubic Ward,Mansfield Legacy,56.97,133.81,90.72,124.74,349.27,Single-ply,SBD,M
Boys,59.87,4,Prince Ofori-Nyadu,Mansfield Lake Ridge,56.43,111.13,65.77,120.2,297.1,Single-ply,SBD,M
Boys,67.13,1,Matthew Barrett,Mansfield Summit,65.68,188.24,99.79,204.12,492.15,Single-ply,SBD,M
Boys,67.13,2,DaVante Owens,Mansfield,65.59,181.44,99.79,179.17,460.4,Single-ply,SBD,M
Boys,67.13,3,Jarrell Peterson,Mansfield Summit,65.86,147.42,92.99,172.37,412.77,Single-ply,SBD,M
Boys,67.13,4,Kyle Van Pelt,Mansfield Timberview,63.59,136.08,99.79,149.69,385.55,Single-ply,SBD,M
Boys,67.13,5,Brennan Morrell,Mansfield Legacy,60.87,136.08,88.45,136.08,360.61,Single-ply,SBD,M
Boys,67.13,6,Louie Lombardo,Mansfield Summit,64.86,106.59,70.31,145.15,322.05,Single-ply,SBD,M
Boys,74.84,7,Steven Sims,Mansfield Legacy,67.31,92.99,70.31,106.59,269.89,Single-ply,SBD,M
Boys,74.84,1,Jordan Hester,Mansfield Summit,73.3,192.78,113.4,204.12,510.29,Single-ply,SBD,M
Boys,74.84,2,Joshua Smith,Mansfield Timberview,73.48,204.12,111.13,181.44,496.68,Single-ply,SBD,M
Boys,74.84,3,Caleb Waugh,Mansfield Legacy,68.67,151.95,108.86,147.42,408.23,Single-ply,SBD,M
Boys,74.84,4,Chris Ramirez,Mansfield Legacy,72.67,136.08,90.72,142.88,369.68,Single-ply,SBD,M
Boys,74.84,5,Rycardo Dos Anjos,Mansfield Summit,69.4,111.13,79.38,142.88,333.39,Single-ply,SBD,M
Boys,74.84,6,Kendall Chalk,Mansfield Lake Ridge,70.76,102.06,65.77,102.06,269.89,Single-ply,SBD,M
Boys,74.84,7,Tyler Strawn,Mansfield Legacy,70.31,90.72,68.04,102.06,260.82,Single-ply,SBD,M
Boys,74.84,DQ,Micheal Seay,Mansfield Legacy,68.22,188.24,117.93,,,Single-ply,SBD,M
Boys,82.1,1,Blake Shipman,Mansfield,81.92,158.76,115.67,197.31,471.74,Single-ply,SBD,M
Boys,82.1,2,Dayton Boling,Mansfield Summit,81.74,176.9,104.33,188.24,469.47,Single-ply,SBD,M
Boys,82.1,3,Nick Hall,Mansfield,76.93,183.7,113.4,161.03,458.13,Single-ply,SBD,M
Boys,82.1,4,Tyler Wawrzynski,Mansfield Legacy,76.02,149.69,79.38,149.69,378.75,Single-ply,SBD,M
Boys,82.1,5,Garrek Orth,Mansfield Summit,79.47,122.47,70.31,142.88,335.66,Single-ply,SBD,M
Boys,82.1,6,Noah Newhouse,Mansfield Lake Ridge,80.47,104.33,90.72,113.4,308.44,Single-ply,SBD,M
Boys,89.81,1,Joseph Brown #2,Mansfield,86.73,170.1,113.4,204.12,487.61,Single-ply,SBD,M
Boys,89.81,2,Parker Herrington,Mansfield Summit,87.63,136.08,120.2,156.49,412.77,Single-ply,SBD,M
Boys,89.81,3,Dylan Briscoe,Mansfield Summit,87.09,131.54,106.59,149.69,387.82,Single-ply,SBD,M
Boys,89.81,4,Kendall Dewitt,Mansfield Lake Ridge,89.27,129.27,88.45,165.56,383.29,Single-ply,SBD,M
Boys,89.81,5,Ricky Pope,Mansfield Lake Ridge,88.45,129.27,90.72,161.03,381.02,Single-ply,SBD,M
Boys,89.81,6,Miguel Murillo,Mansfield Summit,82.83,111.13,74.84,136.08,322.05,Single-ply,SBD,M
Boys,89.81,7,Blake Pipken,Mansfield Legacy,89.09,115.67,74.84,117.93,308.44,Single-ply,SBD,M
Boys,99.79,1,Samuel Amaka,Mansfield Timberview,98.25,258.55,142.88,256.28,657.71,Single-ply,SBD,M
Boys,99.79,2,Jearld McGlothin,Mansfield Summit,96.16,229.06,138.35,251.74,619.15,Single-ply,SBD,M
Boys,99.79,3,Alejandro Anzaldua,Mansfield Timberview,98.16,240.4,156.49,206.38,603.28,Single-ply,SBD,M
Boys,99.79,4,Maurice Isuo,Mansfield,95.53,217.72,108.86,222.26,548.85,Single-ply,SBD,M
Boys,99.79,5,Keiandre Reed,Mansfield,95.71,183.7,117.93,185.97,487.61,Single-ply,SBD,M
Boys,99.79,6,Dylan Majica,Mansfield Summit,99.06,170.1,122.47,161.03,453.59,Single-ply,SBD,M
Boys,99.79,7,Matt Harmon,Mansfield Timberview,96.89,167.83,104.33,172.37,444.52,Single-ply,SBD,M
Boys,99.79,8,Jared Walsh,Mansfield Lake Ridge,96.25,138.35,108.86,183.7,430.91,Single-ply,SBD,M
Boys,99.79,9,Michael Coleman #6,Mansfield Timberview,93.98,167.83,111.13,149.69,428.64,Single-ply,SBD,M
Boys,99.79,10,Gerred Johnson,Mansfield Summit,94.26,149.69,106.59,145.15,401.43,Single-ply,SBD,M
Boys,99.79,11,James Fox,Mansfield Timberview,94.17,56.7,45.36,140.61,242.67,Single-ply,SBD,M
Boys,109.77,1,Sean Gil,Mansfield,104.6,161.03,122.47,163.29,446.79,Single-ply,SBD,M
Boys,109.77,2,Moses Arauole,Mansfield Timberview,103.15,136.08,95.25,183.7,415.04,Single-ply,SBD,M
Boys,109.77,3,Noel Escalon,Mansfield,107.77,158.76,99.79,154.22,412.77,Single-ply,SBD,M
Boys,109.77,4,Cameron Sorrells,Mansfield Lake Ridge,107.23,151.95,95.25,124.74,371.95,Single-ply,SBD,M
Boys,109.77,5,Darian Flores,Mansfield Timberview,106.32,142.88,70.31,140.61,353.8,Single-ply,SBD,M
Boys,124.74,1,Jonathan Ayala,Mansfield Summit,114.4,195.04,113.4,199.58,508.02,Single-ply,SBD,M
Boys,124.74,2,Seth Turnbough,Mansfield Legacy,116.57,181.44,138.35,174.63,494.42,Single-ply,SBD,M
Boys,124.74,3,Chase Snyder,Mansfield Summit,111.31,165.56,97.52,183.7,446.79,Single-ply,SBD,M
Boys,124.74,4,Anthony Dominguez,Mansfield,120.11,161.03,120.2,147.42,428.64,Single-ply,SBD,M
Boys,124.74,5,Hakeer Kaymore,Mansfield Lake Ridge,114.67,151.95,106.59,156.49,415.04,Single-ply,SBD,M
Boys,124.74,6,Eric Fedon,Mansfield Lake Ridge,112.49,151.95,86.18,158.76,396.89,Single-ply,SBD,M
Boys,124.74,7,Terrance Bell,Mansfield Legacy,117.3,106.59,79.38,90.72,276.69,Single-ply,SBD,M
Boys,124.74,DQ,Kameron Alston,Mansfield Legacy,117.48,,,,,Single-ply,SBD,M
Boys,124.74+,1,D C,Mansfield Summit,135.53,181.44,124.74,210.92,517.1,Single-ply,SBD,M
Boys,124.74+,2,Ryan Pescka,Mansfield Timberview,131.18,174.63,115.67,192.78,483.08,Single-ply,SBD,M
Boys,124.74+,3,Simont Scott,Mansfield Lake Ridge,151.32,124.74,77.11,142.88,344.73,Single-ply,SBD,M
