Division,WeightClassKg,Place,Name,Team,BodyweightKg,Best3SquatKg,Best3BenchKg,Best3DeadliftKg,TotalKg,Equipment,Event,Sex
Boys,51.71,1,Seth Solis,Troy,47.81,131.54,77.11,127.01,335.66,Single-ply,SBD,M
Boys,55.79,2,Trevor Koestens,Troy,51.89,117.93,61.23,122.47,301.64,Single-ply,SBD,M
Boys,51.71,3,Philip Sharp,Waco Reicher Catholic,51.07,90.72,63.5,113.4,267.62,Single-ply,SBD,M
Boys,51.71,4,Jacob Noyolla,Little River Academy,49.9,90.72,54.43,108.86,254.01,Single-ply,SBD,M
Boys,51.71,5,Justin Sultenfuss,Little River Academy,50.35,86.18,49.9,92.99,229.06,Single-ply,SBD,M
Boys,51.71,6,R Ginsburg,Waco Reicher Catholic,50.62,99.79,,,99.79,Single-ply,S,M
Boys,59.87,1,Lorenzo Sanchez,Taylor,55.97,161.03,92.99,158.76,412.77,Single-ply,SBD,M
Boys,55.79,2,Davion Aldridge,Hutto,55.34,136.08,79.38,147.42,362.87,Single-ply,SBD,M
Boys,55.79,3,David Hernandez,Hearne,53.71,117.93,77.11,147.42,342.46,Single-ply,SBD,M
Boys,55.79,4,Sammy Ortega,Hutto,54.52,115.67,63.5,138.35,317.51,Single-ply,SBD,M
Boys,55.79,5,Juan Rodriguez,Hearne,55.7,102.06,45.36,120.2,267.62,Single-ply,SBD,M
Boys,55.79,6,Logan McMillian,Little River Academy,55.34,90.72,56.7,102.06,249.48,Single-ply,SBD,M
Boys,55.79,7,Gavin Smith #2,Little River Academy,53.98,79.38,49.9,79.38,208.65,Single-ply,SBD,M
Boys,55.79,8,C Keahey,Waco Reicher Catholic,54.34,77.11,,,77.11,Single-ply,S,M
Boys,59.87,1,Jake Schmidt,Troy,59.33,145.15,104.33,158.76,408.23,Single-ply,SBD,M
Boys,59.87,2,Ernan Lopez,Hutto,59.69,145.15,90.72,161.03,396.89,Single-ply,SBD,M
Boys,67.13,3,Hunter Hernandez,Jarrell,59.96,111.13,65.77,136.08,312.98,Single-ply,SBD,M
Boys,59.87,4,Colton Gober,Troy,57.42,104.33,56.7,136.08,297.1,Single-ply,SBD,M
Boys,67.13,5,Dakota Volk,Salado,60.06,92.99,58.97,129.27,281.23,Single-ply,SBD,M
Boys,59.87,6,Iain McVeigh,Little River Academy,59.42,104.33,63.5,111.13,278.96,Single-ply,SBD,M
Boys,67.13,DQ,T Saucedo,Hutto,60.06,,,,,Single-ply,SBD,M
Boys,74.84,1,Noah Contella,Waco Reicher Catholic,67.22,183.7,106.59,185.97,476.27,Single-ply,SBD,M
Boys,67.13,2,J. Lopez,Taylor,63.59,156.49,92.99,170.1,419.57,Single-ply,SBD,M
Boys,67.13,3,Jordan Lawrence,Pflugerville Connally,66.5,147.42,97.52,170.1,415.04,Single-ply,SBD,M
Boys,67.13,4,Derek Camero,Hutto,66.86,156.49,92.99,154.22,403.7,Single-ply,SBD,M
Boys,67.13,5,Joseph Marmolejo,Taylor,64.05,142.88,86.18,167.83,396.89,Single-ply,SBD,M
Boys,67.13,6,Caden Forisha,Hutto,65.95,140.61,88.45,167.83,396.89,Single-ply,SBD,M
Boys,67.13,7,Darryl Florez,Cameron Yoe,65.95,122.47,92.99,170.1,385.55,Single-ply,SBD,M
Boys,67.13,8,Danny Rogalie,Little River Academy,66.22,147.42,77.11,158.76,383.29,Single-ply,SBD,M
Boys,67.13,9,S Trice,Salado,66.22,145.15,86.18,149.69,381.02,Single-ply,SBD,M
Boys,67.13,10,Jody Chance,Rogers,63.41,147.42,88.45,140.61,376.48,Single-ply,SBD,M
Boys,67.13,11,M. Kocian,Taylor,66.68,142.88,97.52,136.08,376.48,Single-ply,SBD,M
Boys,67.13,12,R Munguia,Taylor,66.77,136.08,97.52,136.08,369.68,Single-ply,SBD,M
Boys,67.13,13,Tate Hill,Salado,66.59,113.4,74.84,154.22,342.46,Single-ply,SBD,M
Boys,67.13,14,H Solano,Waco Reicher Catholic,66.41,161.03,,154.22,315.25,Single-ply,SD,M
Boys,67.13,15,Clay Johnson,Little River Academy,66.68,111.13,72.57,117.93,301.64,Single-ply,SBD,M
Boys,74.84,1,Tristan Dudley,Rogers,73.21,195.04,131.54,188.24,514.83,Single-ply,SBD,M
Boys,74.84,2,Kyle Castilleja,Hearne,74.48,172.37,104.33,222.26,498.95,Single-ply,SBD,M
Boys,74.84,3,Justis Owens,Hutto,69.76,195.04,111.13,188.24,494.42,Single-ply,SBD,M
Boys,74.84,4,Roy Ward,Waco Reicher Catholic,71.21,188.24,111.13,190.51,489.88,Single-ply,SBD,M
Boys,74.84,5,William Toliver,Hearne,68.31,161.03,104.33,210.92,476.27,Single-ply,SBD,M
Boys,74.84,6,Bryce Williams,Little River Academy,73.94,181.44,104.33,188.24,474,Single-ply,SBD,M
Boys,74.84,7,Zack Smith,Little River Academy,74.16,167.83,108.86,183.7,460.4,Single-ply,SBD,M
Boys,74.84,8,Travis Stone,Rogers,68.49,181.44,90.72,185.97,458.13,Single-ply,SBD,M
Boys,74.84,9,M. Bates,Hutto,67.49,161.03,92.99,183.7,437.72,Single-ply,SBD,M
Boys,74.84,10,Ivan Cardenas,Jarrell,70.03,149.69,102.06,154.22,405.97,Single-ply,SBD,M
Boys,74.84,11,Caleb Tinnell,Hearne,73.12,138.35,92.99,170.1,401.43,Single-ply,SBD,M
Boys,74.84,12,J. Roberts,Hutto,73.48,154.22,79.38,142.88,376.48,Single-ply,SBD,M
Boys,74.84,13,Grayson Edwards,Little River Academy,73.48,136.08,79.38,158.76,374.21,Single-ply,SBD,M
Boys,74.84,14,P. Cook,Franklin,68.95,108.86,83.91,149.69,342.46,Single-ply,SBD,M
Boys,74.84,15,Andrew Ramstedt,Little River Academy,74.39,131.54,74.84,127.01,333.39,Single-ply,SBD,M
Boys,74.84,16,Nic Welch,Troy,74.75,129.27,74.84,129.27,333.39,Single-ply,SBD,M
Boys,74.84,17,Kyle Holecek,Waco Reicher Catholic,74.12,120.2,72.57,136.08,328.85,Single-ply,SBD,M
Boys,74.84,18,Tyler Stairs,Salado,70.76,127.01,65.77,127.01,319.78,Single-ply,SBD,M
Boys,74.84,19,Cooper Womack,Salado,70.76,102.06,61.23,124.74,288.03,Single-ply,SBD,M
Boys,74.84,20,Lorenzo Vargas,Waco Reicher Catholic,70.67,111.13,56.7,115.67,283.5,Single-ply,SBD,M
Boys,82.1,1,James Bradford,Troy,79.47,199.58,151.95,213.19,564.72,Single-ply,SBD,M
Boys,82.1,2,Marco Castro,Waco Reicher Catholic,79.11,206.38,120.2,219.99,546.58,Single-ply,SBD,M
Boys,82.1,3,Everado Araujo,Taylor,80.74,215.46,115.67,199.58,530.7,Single-ply,SBD,M
Boys,82.1,4,Cole Ballard,Hutto,75.66,179.17,102.06,174.63,455.86,Single-ply,SBD,M
Boys,82.1,5,Chris Hatch,Taylor,79.47,149.69,127.01,176.9,453.59,Single-ply,SBD,M
Boys,82.1,6,Kris Rodriguez,Hutto,81.28,170.1,92.99,179.17,442.25,Single-ply,SBD,M
Boys,82.1,7,K Mungia,Pflugerville Connally,81.19,142.88,83.91,188.24,415.04,Single-ply,SBD,M
Boys,82.1,8,Ricky Sampson,Salado,78.47,158.76,90.72,158.76,408.23,Single-ply,SBD,M
Boys,82.1,9,B. Graham,Franklin,80.29,158.76,99.79,136.08,394.63,Single-ply,SBD,M
Boys,82.1,10,Luciano Garza,Jarrell,80.01,113.4,77.11,145.15,335.66,Single-ply,SBD,M
Boys,82.1,11,A Stokely,Franklin,75.39,111.13,70.31,133.81,315.25,Single-ply,SBD,M
Boys,82.1,DQ,B. Buchanan,Hutto,79.56,,,,,Single-ply,SBD,M
Boys,89.81,1,MarcJavion McGrew,Hearne,88.45,231.33,127.01,258.55,616.89,Single-ply,SBD,M
Boys,89.81,2,Luke Evans,Hutto,83.01,172.37,117.93,219.99,510.29,Single-ply,SBD,M
Boys,89.81,3,Bailey Guynes,Troy,88.45,185.97,117.93,204.12,508.02,Single-ply,SBD,M
Boys,89.81,4,Jayden Smith,Jarrell,83.19,163.29,106.59,192.78,462.66,Single-ply,SBD,M
Boys,89.81,5,Jason Flynn,Salado,83.19,136.08,90.72,136.08,362.87,Single-ply,SBD,M
Boys,89.81,6,M Schwertner,Jarrell,88.99,149.69,,170.1,319.78,Single-ply,SD,M
Boys,89.81,7,Dallas Masters,Hearne,84.19,106.59,70.31,136.08,312.98,Single-ply,SBD,M
Boys,89.81,8,J Daley,Hutto,85.82,83.91,47.63,129.27,260.82,Single-ply,SBD,M
Boys,99.79,1,Brandon Bruce,Rogers,92.08,231.33,136.08,213.19,580.6,Single-ply,SBD,M
Boys,99.79,2,Bryson Jones,Rogers,93.89,226.8,142.88,206.38,576.06,Single-ply,SBD,M
Boys,99.79,3,Luis Villafranco,Salado,93.89,229.06,129.27,199.58,557.92,Single-ply,SBD,M
Boys,99.79,4,J Alcavaz,Taylor,97.25,204.12,129.27,188.24,521.63,Single-ply,SBD,M
Boys,99.79,5,I Villanueva,Taylor,92.26,181.44,117.93,170.1,469.47,Single-ply,SBD,M
Boys,99.79,6,Caleb Henson,Pflugerville Connally,90.17,181.44,97.52,181.44,460.4,Single-ply,SBD,M
Boys,99.79,7,Robert Rangel,Hutto,92.35,151.95,92.99,181.44,426.38,Single-ply,SBD,M
Boys,99.79,8,E Espinoza,Taylor,98.43,183.7,,195.04,378.75,Single-ply,SD,M
Boys,99.79,9,Jayden Beck,Troy,93.53,161.03,74.84,140.61,376.48,Single-ply,SBD,M
Boys,99.79,10,Clay Guthrie,Rogers,90.72,147.42,95.25,124.74,367.41,Single-ply,SBD,M
Boys,109.77,1,Collin McMillan,Little River Academy,108.86,226.8,163.29,254.01,644.1,Single-ply,SBD,M
Boys,109.77,2,O'neal Patterson,Hutto,108.86,213.19,133.81,192.78,539.77,Single-ply,SBD,M
Boys,109.77,3,Michael Padgett,Troy,104.78,199.58,145.15,188.24,532.97,Single-ply,SBD,M
Boys,109.77,4,Jarrett Gregory,Troy,104.33,192.78,99.79,188.24,480.81,Single-ply,SBD,M
Boys,109.77,5,Pablo Rodriguez,Cameron Yoe,101.97,142.88,90.72,174.63,408.23,Single-ply,SBD,M
Boys,109.77,6,Tomas Salomon,Cameron Yoe,109.77,145.15,90.72,172.37,408.23,Single-ply,SBD,M
Boys,109.77,7,Abram Villescaz,Waco Reicher Catholic,108.95,127.01,86.18,185.97,399.16,Single-ply,SBD,M
Boys,109.77,8,Alejandro Villarreal,Jarrell,101.15,142.88,90.72,158.76,392.36,Single-ply,SBD,M
Boys,109.77,9,T. Johnson,Hutto,100.43,124.74,88.45,176.9,390.09,Single-ply,SBD,M
Boys,109.77,10,D. Ramsey,Salado,105.23,129.27,88.45,172.37,390.09,Single-ply,SBD,M
Boys,109.77,11,T. Hernandez,Troy,100.79,185.97,,181.44,367.41,Single-ply,SD,M
Boys,109.77,12,C. Smith,Jarrell,104.33,192.78,,,192.78,Single-ply,S,M
Boys,124.74,1,Ronaldo Ruiz,Hutto,122.29,272.16,149.69,249.48,671.32,Single-ply,SBD,M
Boys,124.74,2,Peyton Womack,Salado,117.21,278.96,138.35,231.33,648.64,Single-ply,SBD,M
Boys,124.74,3,Blake Johnson,Franklin,120.66,226.8,104.33,199.58,530.7,Single-ply,SBD,M
Boys,124.74,4,Tyler Thompson,Rogers,114.31,210.92,115.67,181.44,508.02,Single-ply,SBD,M
Boys,124.74+,5,Andrew French,Waco Reicher Catholic,124.83,174.63,113.4,190.51,478.54,Single-ply,SBD,M
Boys,124.74,6,A. Bravo,Jarrell,112.04,181.44,106.59,158.76,446.79,Single-ply,SBD,M
Boys,124.74,7,Oscar Smart,Jarrell,120.38,151.95,124.74,158.76,435.45,Single-ply,SBD,M
Boys,124.74,DQ,T Harville,Jarrell,112.58,,,,,Single-ply,SBD,M
Boys,124.74+,1,Grayson Eaton,Little River Academy,127.46,249.48,170.1,197.31,616.89,Single-ply,SBD,M
Boys,124.74+,2,Gabe Hernandez,Pflugerville Connally,133.45,233.6,124.74,195.04,553.38,Single-ply,SBD,M
Boys,124.74+,3,Jack Pirtle,Little River Academy,126.1,197.31,106.59,181.44,485.34,Single-ply,SBD,M
Boys,124.74+,4,Dj Cook,Jarrell,127.73,179.17,113.4,181.44,474,Single-ply,SBD,M
Boys,124.74+,5,J Bassa,Salado,135.17,183.7,90.72,165.56,439.98,Single-ply,SBD,M
Boys,124.74+,6,A Werner,Taylor,137.44,161.03,102.06,158.76,421.84,Single-ply,SBD,M
