Division,WeightClassKg,Place,Name,Team,BodyweightKg,Best3SquatKg,Best3BenchKg,Best3DeadliftKg,TotalKg,Equipment,Event,Sex
Boys,51.71,1,Matthew Palmer,Bonham,51.17,127.01,79.38,145.15,351.53,Single-ply,SBD,M
Boys,51.71,2,Russell Wilcox,Leonard,50.8,131.54,63.5,142.88,337.93,Single-ply,SBD,M
Boys,51.71,3,Jonathan Esquivel,Melissa,51.71,117.93,72.57,131.54,322.05,Single-ply,SBD,M
Boys,51.71,4,Jorge Solano,Bonham,50.98,99.79,45.36,131.54,276.69,Single-ply,SBD,M
Boys,51.71,5,Leo Garcia,Bonham,50.8,74.84,49.9,97.52,222.26,Single-ply,SBD,M
Boys,51.71,6,Marco Hernandez,Bonham,45.9,72.57,47.63,90.72,210.92,Single-ply,SBD,M
Boys,51.71,7,Justin Bilbrey,Howe,51.71,61.23,61.23,70.31,192.78,Single-ply,SBD,M
Boys,55.79,1,Jace Pallan,Celeste,54.52,140.61,83.91,161.03,385.55,Single-ply,SBD,M
Boys,55.79,2,Kolby Parker,Pottsboro,54.79,136.08,90.72,136.08,362.87,Single-ply,SBD,M
Boys,55.79,3,Clifton McKinzie,Whitesboro,53.25,108.86,56.7,120.2,285.76,Single-ply,SBD,M
Boys,55.79,4,Eliud Gonzales,Bonham,53.52,72.57,36.29,97.52,206.38,Single-ply,SBD,M
Boys,59.87,1,Adam Piper,Whitesboro,59.87,142.88,92.99,163.29,399.16,Single-ply,SBD,M
Boys,67.13,2,Jacob Kemp,Bonham,59.96,154.22,74.84,156.49,385.55,Single-ply,SBD,M
Boys,59.87,3,Gio Soto,Leonard,59.69,131.54,86.18,149.69,367.41,Single-ply,SBD,M
Boys,59.87,4,Justin Keeton,Anna,59.42,108.86,63.5,142.88,315.25,Single-ply,SBD,M
Boys,59.87,5,Nyal Barnes,Allen,58.88,115.67,68.04,124.74,308.44,Single-ply,SBD,M
Boys,59.87,6,Scott Crum,Anna,57.24,122.47,58.97,117.93,299.37,Single-ply,SBD,M
Boys,67.13,1,Jordan Smith,Bonham,64.86,199.58,90.72,199.58,489.88,Single-ply,SBD,M
Boys,67.13,2,Clayton Stringer,Whitesboro,64.86,147.42,74.84,167.83,390.09,Single-ply,SBD,M
Boys,67.13,3,Jalen Henley,Allen,65.59,158.76,77.11,154.22,390.09,Single-ply,SBD,M
Boys,67.13,4,Martin Sosa,Gainesville,61.6,133.81,74.84,133.81,342.46,Single-ply,SBD,M
Boys,74.84,5,Zach Drogosch,Allen,67.22,131.54,77.11,133.81,342.46,Single-ply,SBD,M
Boys,67.13,6,Brent Hicks,Leonard,61.05,117.93,61.23,147.42,326.59,Single-ply,SBD,M
Boys,67.13,7,David Bowling,Blue Ridge,61.87,81.65,74.84,129.27,285.76,Single-ply,SBD,M
Boys,67.13,DQ,Ty Watson,Howe,63.05,,,,,Single-ply,SBD,M
Boys,74.84,1,Marcus Ward,Allen,73.03,215.46,131.54,213.19,560.19,Single-ply,SBD,M
Boys,74.84,2,Jarrell Washington,Leonard,70.13,176.9,108.86,183.7,469.47,Single-ply,SBD,M
Boys,74.84,3,Joaquin Lopez,Howe,68.86,181.44,90.72,179.17,451.32,Single-ply,SBD,M
Boys,74.84,4,Tim Herman,Celeste,73.03,183.7,95.25,158.76,437.72,Single-ply,SBD,M
Boys,74.84,5,Michael Jacob #3,Allen,72.12,147.42,92.99,167.83,408.23,Single-ply,SBD,M
Boys,74.84,6,Hunter Shaw,Howe,71.3,154.22,83.91,163.29,401.43,Single-ply,SBD,M
Boys,74.84,7,Chase Pinion,Anna,73.48,136.08,99.79,158.76,394.63,Single-ply,SBD,M
Boys,74.84,8,Walker Copeland,Leonard,74.39,122.47,86.18,147.42,356.07,Single-ply,SBD,M
Boys,74.84,9,Jerid Sisson,Van Alstyne,74.21,129.27,88.45,136.08,353.8,Single-ply,SBD,M
Boys,74.84,10,Chris de la Cruz,Pottsboro,71.4,124.74,68.04,145.15,337.93,Single-ply,SBD,M
Boys,74.84,11,Clark Sulivant,Sadler S & S Cons,73.57,113.4,74.84,149.69,337.93,Single-ply,SBD,M
Boys,74.84,12,Cody Long,Anna,69.67,113.4,52.16,108.86,274.42,Single-ply,SBD,M
Boys,74.84,DQ,Hunter Hall,Gainesville,70.03,170.1,,,,Single-ply,SBD,M
Boys,82.1,1,Adam Berryman,Gainesville,76.57,226.8,92.99,251.74,571.53,Single-ply,SBD,M
Boys,82.1,2,Levi Haggard,Bonham,78.11,238.14,129.27,204.12,571.53,Single-ply,SBD,M
Boys,82.1,3,Brice Chaney,Whitesboro,76.84,179.17,95.25,199.58,474,Single-ply,SBD,M
Boys,82.1,4,Sean Kyle,Anna,78.74,185.97,104.33,181.44,471.74,Single-ply,SBD,M
Boys,82.1,5,Jad Jabary,Allen,79.65,176.9,120.2,174.63,471.74,Single-ply,SBD,M
Boys,82.1,6,Justin Bennett,Leonard,75.93,142.88,97.52,161.03,401.43,Single-ply,SBD,M
Boys,82.1,7,Logan Hardin,Pottsboro,77.75,142.88,68.04,136.08,347,Single-ply,SBD,M
Boys,82.1,8,Atticus Kilcrease,Whitesboro,77.56,97.52,74.84,113.4,285.76,Single-ply,SBD,M
Boys,82.1,DQ,Hunter Garrett,Whitesboro,79.83,,,,,Single-ply,SBD,M
Boys,82.1,DQ,Chris White,Gainesville,80.29,,,,,Single-ply,SBD,M
Boys,89.81,1,Dakota Barnes,Bonham,88.99,242.67,113.4,254.01,610.08,Single-ply,SBD,M
Boys,89.81,2,Stryker Hunnicutt,Bonham,88.45,213.19,127.01,229.06,569.26,Single-ply,SBD,M
Boys,89.81,3,Dustin Williams,Anna,85,219.99,145.15,192.78,557.92,Single-ply,SBD,M
Boys,89.81,4,Dylan House,Pottsboro,88.45,226.8,113.4,208.65,548.85,Single-ply,SBD,M
Boys,89.81,5,Harrison Flinn,Pottsboro,83.55,192.78,117.93,204.12,514.83,Single-ply,SBD,M
Boys,89.81,6,Garrett Lansford,Anna,87.36,204.12,111.13,195.04,510.29,Single-ply,SBD,M
Boys,89.81,7,Brandon Austin,Bonham,87.45,204.12,86.18,190.51,480.81,Single-ply,SBD,M
Boys,89.81,8,Kristov George,Melissa,86,174.63,122.47,181.44,478.54,Single-ply,SBD,M
Boys,89.81,9,Arnold Contreras,Leonard,84.46,197.31,108.86,167.83,474,Single-ply,SBD,M
Boys,89.81,10,Collin Kilcrease,Whitesboro,84.28,147.42,102.06,179.17,428.64,Single-ply,SBD,M
Boys,89.81,11,Thomas Morales,Whitesboro,84.46,158.76,104.33,158.76,421.84,Single-ply,SBD,M
Boys,89.81,12,Hunter Conley,Pottsboro,88.54,158.76,102.06,156.49,417.3,Single-ply,SBD,M
Boys,89.81,13,Bryce Himmelreich,Van Alstyne,83.19,149.69,104.33,151.95,405.97,Single-ply,SBD,M
Boys,89.81,14,Weston Jobe,Blue Ridge,84.01,151.95,77.11,167.83,396.89,Single-ply,SBD,M
Boys,89.81,15,Cason Riley,Leonard,86.55,151.95,81.65,156.49,390.09,Single-ply,SBD,M
Boys,89.81,16,Matthew Norrell,Anna,84.73,113.4,63.5,117.93,294.84,Single-ply,SBD,M
Boys,89.81,DQ,Ruben Garcia,Leonard,85.82,124.74,,,,Single-ply,SBD,M
Boys,89.81,DQ,Alec Smith,Celeste,84.28,172.37,127.01,,,Single-ply,SBD,M
Boys,89.81,DQ,Luis Erives,Sadler S & S Cons,83.28,172.37,,,,Single-ply,SBD,M
Boys,99.79,1,Eduardo Webber,Howe,91.44,272.16,140.61,235.87,648.64,Single-ply,SBD,M
Boys,109.77,2,Axel DeLeon,Little Elm,99.97,251.74,140.61,256.28,648.64,Single-ply,SBD,M
Boys,99.79,3,Alex Lovelady,Pottsboro,91.9,215.46,113.4,195.04,523.9,Single-ply,SBD,M
Boys,99.79,4,Mikey Dobbles,Bonham,90.63,188.24,104.33,192.78,485.34,Single-ply,SBD,M
Boys,99.79,5,Dawson Stewart,Howe,96.89,167.83,108.86,208.65,485.34,Single-ply,SBD,M
Boys,99.79,6,James Kemp,Anna,93.89,176.9,99.79,190.51,467.2,Single-ply,SBD,M
Boys,99.79,7,Kris Medlin,Van Alstyne,91.35,183.7,83.91,147.42,415.04,Single-ply,SBD,M
Boys,99.79,8,Manny Semidey,Van Alstyne,93.98,151.95,95.25,158.76,405.97,Single-ply,SBD,M
Boys,99.79,9,Tim Edmonds,Pottsboro,98.34,136.08,77.11,149.69,362.87,Single-ply,SBD,M
Boys,99.79,10,Dixon Carrell,Pottsboro,93.35,142.88,74.84,136.08,353.8,Single-ply,SBD,M
Boys,99.79,11,Tanner Hall,Van Alstyne,98.07,140.61,81.65,111.13,333.39,Single-ply,SBD,M
Boys,99.79,DQ,Donavan Wallis,Melissa,98.16,181.44,,,,Single-ply,SBD,M
Boys,99.79,DQ,Jared Boswell,Gainesville,97.16,181.44,,,,Single-ply,SBD,M
Boys,109.77,1,Zack McCoy,Little Elm,107.05,254.01,163.29,217.72,635.03,Single-ply,SBD,M
Boys,109.77,2,Scott Blair,Anna,103.33,226.8,129.27,226.8,582.87,Single-ply,SBD,M
Boys,109.77,3,Dillon Gage,Sadler S & S Cons,109.23,195.04,163.29,188.24,546.58,Single-ply,SBD,M
Boys,109.77,4,Lance Williams,Allen,108.68,204.12,127.01,204.12,535.24,Single-ply,SBD,M
Boys,109.77,5,Tejan Karoma,Allen,103.78,192.78,120.2,195.04,508.02,Single-ply,SBD,M
Boys,109.77,6,Trevin Riel,Gainesville,105.78,181.44,117.93,176.9,476.27,Single-ply,SBD,M
Boys,109.77,7,Ethan Lawson,Sadler S & S Cons,106.05,167.83,102.06,154.22,424.11,Single-ply,SBD,M
Boys,109.77,8,Casey Misenheimer,Whitesboro,106.5,149.69,88.45,151.95,390.09,Single-ply,SBD,M
Boys,109.77,9,Austin Reese,Melissa,102.78,147.42,90.72,149.69,387.82,Single-ply,SBD,M
Boys,109.77,10,Eric Reed,Pottsboro,100.61,156.49,79.38,142.88,378.75,Single-ply,SBD,M
Boys,109.77,11,Mason Banks,Gainesville,102.97,158.76,90.72,129.27,378.75,Single-ply,SBD,M
Boys,109.77,12,Adam Walker,Anna,104.51,113.4,47.63,117.93,278.96,Single-ply,SBD,M
Boys,109.77,DQ,Chris O'Toole,Little Elm,102.69,208.65,,,,Single-ply,SBD,M
Boys,124.74+,1,Jerome Daniels,Little Elm,124.92,254.01,163.29,240.4,657.71,Single-ply,SBD,M
Boys,124.74,2,Tyran McClendon,Allen,112.85,222.26,136.08,226.8,585.13,Single-ply,SBD,M
Boys,124.74,3,John Clark,Allen,120.38,254.01,124.74,206.38,585.13,Single-ply,SBD,M
Boys,124.74,4,Ethan Watson,Bonham,113.58,226.8,145.15,199.58,571.53,Single-ply,SBD,M
Boys,124.74,5,Eber Hernandez,Sadler S & S Cons,111.22,208.65,122.47,204.12,535.24,Single-ply,SBD,M
Boys,124.74,6,Alex Mayes,Van Alstyne,120.47,181.44,120.2,192.78,494.42,Single-ply,SBD,M
Boys,124.74,7,Caleb Mitcheson,Whitesboro,112.04,174.63,108.86,174.63,458.13,Single-ply,SBD,M
Boys,124.74,8,Steven Rubio,Van Alstyne,114.76,192.78,88.45,165.56,446.79,Single-ply,SBD,M
Boys,124.74,9,Timothy Drone,Anna,113.67,127.01,70.31,149.69,347,Single-ply,SBD,M
Boys,124.74,10,Michael Durnberger,Gainesville,114.31,124.74,86.18,106.59,317.51,Single-ply,SBD,M
Boys,124.74,DQ,Jesse Wolfe,Gainesville,120.11,,,,,Single-ply,SBD,M
Boys,124.74,DQ,Adam Stapleton,Whitesboro,115.67,215.46,,,,Single-ply,SBD,M
Boys,124.74,DQ,Tyler Edwards,Pottsboro,113.85,,,,,Single-ply,SBD,M
Boys,124.74+,1,Trey Marks,Little Elm,125.55,233.6,136.08,208.65,578.33,Single-ply,SBD,M
Boys,124.74+,2,Price Samford,Allen,126.28,235.87,129.27,213.19,578.33,Single-ply,SBD,M
Boys,124.74+,3,Cameron Adkins,Leonard,126.55,188.24,106.59,201.85,496.68,Single-ply,SBD,M
Boys,124.74+,DQ,Maximilian Wolfe,Melissa,143.7,149.69,,,,Single-ply,SBD,M
Boys,124.74+,DQ,Miguel Garcia,Blue Ridge,127.28,238.14,149.69,,,Single-ply,SBD,M
Boys,124.74+,DQ,Connor Mayes,Van Alstyne,154.4,,,,,Single-ply,SBD,M
