Division,WeightClassKg,Place,Name,Team,BodyweightKg,Best3SquatKg,Best3BenchKg,Best3DeadliftKg,TotalKg,Equipment,Event,Sex
Boys,51.71,1,Andrew DeLeon,Roscoe Collegiate,49.44,102.06,70.31,102.06,274.42,Single-ply,SBD,M
Boys,51.71,2,Jack Blair,Midland Greenwood,46.63,70.31,47.63,79.38,197.31,Single-ply,SBD,M
Boys,51.71,3,Ezekiel Murphy,Roscoe Collegiate,46.27,65.77,47.63,81.65,195.04,Single-ply,SBD,M
Boys,55.79,1,Chris Jackson #11,Sweetwater,54.88,154.22,115.67,147.42,417.3,Single-ply,SBD,M
Boys,55.79,2,Benny Dominguez,Odessa,54.52,142.88,61.23,149.69,353.8,Single-ply,SBD,M
Boys,55.79,3,Ramon Zubiate,Denver City,54.88,108.86,68.04,113.4,290.3,Single-ply,SBD,M
Boys,59.87,1,Adriel Nabarrette,Odessa,58.06,136.08,70.31,142.88,349.27,Single-ply,SBD,M
Boys,59.87,2,Oscar Vasquez #3,Monahans,56.25,122.47,65.77,149.69,337.93,Single-ply,SBD,M
Boys,59.87,3,Johnathan Vidal,Denver City,58.06,117.93,70.31,147.42,335.66,Single-ply,SBD,M
Boys,59.87,4,Bryson Jones,Ralls,58.97,122.47,56.7,147.42,326.59,Single-ply,SBD,M
Boys,59.87,5,Jose Manzanares,Levelland,58.06,102.06,70.31,142.88,315.25,Single-ply,SBD,M
Boys,59.87,6,Blake Scott,Sweetwater,58.06,124.74,83.91,102.06,310.71,Single-ply,SBD,M
Boys,59.87,7,Pacey Lee,Colorado City Colorado,58.06,113.4,70.31,122.47,306.17,Single-ply,SBD,M
Boys,59.87,8,Junie Gonzales,Midland Greenwood,56.25,113.4,63.5,127.01,303.91,Single-ply,SBD,M
Boys,59.87,9,Christian Velasquez,Ralls,57.79,115.67,61.23,120.2,297.1,Single-ply,SBD,M
Boys,59.87,10,Brady Faucett,Roby,56.25,95.25,56.7,108.86,260.82,Single-ply,SBD,M
Boys,59.87,11,Kaden Contreras,Midland Greenwood,57.06,86.18,52.16,102.06,240.4,Single-ply,SBD,M
Boys,59.87,12,Alex Pineda,Colorado City Colorado,56.7,77.11,38.56,106.59,222.26,Single-ply,SBD,M
Boys,59.87,DQ,Zack Falzone,Colorado City Colorado,58.97,97.52,,,,Single-ply,SBD,M
Boys,59.87,DQ,Gabriel Pedraza,Monahans,55.97,127.01,,,,Single-ply,SBD,M
Boys,67.13,1,Ulises Estrada,Odessa,64.59,170.1,102.06,176.9,449.06,Single-ply,SBD,M
Boys,67.13,2,Robert Zavala,Ralls,64.32,158.76,102.06,165.56,426.38,Single-ply,SBD,M
Boys,67.13,3,Jesus Rubio,Snyder,63.05,151.95,88.45,172.37,412.77,Single-ply,SBD,M
Boys,67.13,4,Bo Franklin,Plains,67.13,151.95,83.91,156.49,392.36,Single-ply,SBD,M
Boys,67.13,5,Jerry Flores,Ralls,65.59,142.88,81.65,154.22,378.75,Single-ply,SBD,M
Boys,67.13,6,Jagger Lopez,Levelland,61.69,113.4,79.38,142.88,335.66,Single-ply,SBD,M
Boys,67.13,7,Alex Huerta,Odessa,61.87,113.4,65.77,136.08,315.25,Single-ply,SBD,M
Boys,67.13,8,Ryan Austin,Midland Greenwood,62.64,104.33,70.31,117.93,292.57,Single-ply,SBD,M
Boys,67.13,9,Christian Cook,Midland Greenwood,64.5,111.13,61.23,120.2,292.57,Single-ply,SBD,M
Boys,67.13,10,Shawn Chavez,Ralls,66.95,95.25,61.23,136.08,292.57,Single-ply,SBD,M
Boys,67.13,11,Zach Kidd,Midland Greenwood,64.59,90.72,58.97,99.79,249.48,Single-ply,SBD,M
Boys,74.84,1,Alex Rubio,Snyder,74.84,192.78,106.59,188.24,487.61,Single-ply,SBD,M
Boys,74.84,2,Nestor Jiminez,Midland Lee,72.12,142.88,97.52,233.6,474,Single-ply,SBD,M
Boys,74.84,3,Y'Mari Collins,Midland Lee,74.03,165.56,108.86,188.24,462.66,Single-ply,SBD,M
Boys,74.84,4,Nathan Lopez,Midland Lee,73.12,165.56,106.59,170.1,442.25,Single-ply,SBD,M
Boys,74.84,5,Mason Brogden,Levelland,73.94,158.76,99.79,174.63,433.18,Single-ply,SBD,M
Boys,74.84,6,Izac Anthony,Levelland,72.57,154.22,92.99,170.1,417.3,Single-ply,SBD,M
Boys,74.84,7,Josh Camacho,Sweetwater,68.04,147.42,99.79,149.69,396.89,Single-ply,SBD,M
Boys,74.84,8,JJ Vargas,Monahans,73.57,136.08,86.18,133.81,356.07,Single-ply,SBD,M
Boys,74.84,9,Juan Hererra,Denver City,67.95,117.93,74.84,129.27,322.05,Single-ply,SBD,M
Boys,74.84,10,Kayden Laminack,Ralls,70.94,117.93,68.04,136.08,322.05,Single-ply,SBD,M
Boys,74.84,11,Colton Watts,Roscoe Collegiate,71.21,106.59,70.31,138.35,315.25,Single-ply,SBD,M
Boys,74.84,12,Jonah Gonzales,Plains,74.84,79.38,52.16,127.01,258.55,Single-ply,SBD,M
Boys,74.84,DQ,Akimas Clarett,Colorado City Colorado,69.13,158.76,,,,Single-ply,SBD,M
Boys,82.1,1,Isaiah Harvey,Midland Lee,81.92,199.58,124.74,197.31,521.63,Single-ply,SBD,M
Boys,82.1,2,Jj Burns,Snyder,80.74,199.58,92.99,226.8,519.36,Single-ply,SBD,M
Boys,82.1,3,Owen Sullivan,Midland Lee,80.56,204.12,120.2,192.78,517.1,Single-ply,SBD,M
Boys,82.1,4,Francisco Garcia,Roscoe Collegiate,78.74,197.31,113.4,183.7,494.42,Single-ply,SBD,M
Boys,82.1,5,Larry Steger,Odessa,78.65,165.56,129.27,195.04,489.88,Single-ply,SBD,M
Boys,82.1,6,Josh Fotis,Midland Lee,80.47,167.83,115.67,204.12,487.61,Single-ply,SBD,M
Boys,82.1,7,Ethan Coleman,Midland Greenwood,78.15,185.97,120.2,170.1,476.27,Single-ply,SBD,M
Boys,82.1,8,Isaiah Ramirez,Midland Lee,78.93,185.97,120.2,163.29,469.47,Single-ply,SBD,M
Boys,82.1,9,Jonathan Bostick,Midland Lee,75.93,170.1,88.45,181.44,439.98,Single-ply,SBD,M
Boys,82.1,10,Tony Padilla,Sweetwater,79.38,163.29,108.86,165.56,437.72,Single-ply,SBD,M
Boys,82.1,11,Julio Acevedo,Roby,76.29,167.83,90.72,163.29,421.84,Single-ply,SBD,M
Boys,82.1,12,Jeremy Flores,Ralls,75.39,140.61,88.45,167.83,396.89,Single-ply,SBD,M
Boys,82.1,13,Juan Blanco,Monahans,77.56,140.61,79.38,172.37,392.36,Single-ply,SBD,M
Boys,82.1,14,Jose Chavira,Roscoe Collegiate,79.83,133.81,86.18,138.35,358.34,Single-ply,SBD,M
Boys,82.1,15,Misael Castaneda,Levelland,78.93,127.01,79.38,136.08,342.46,Single-ply,SBD,M
Boys,82.1,DQ,Josh Traylor,Midland Lee,78.2,172.37,,,,Single-ply,SBD,M
Boys,82.1,DQ,Irvin Jurado,Odessa,80.38,129.27,,,,Single-ply,SBD,M
Boys,82.1,DQ,Ernesto Ornelas,Monahans,75.21,151.95,106.59,,,Single-ply,SBD,M
Boys,82.1,DQ,Enrique Wells,Snyder,81.87,251.74,,,,Single-ply,SBD,M
Boys,89.81,1,Gerardo Cabrera,Snyder,89.58,244.94,127.01,242.67,614.62,Single-ply,SBD,M
Boys,89.81,2,Oscar Lucio,Odessa,89.45,197.31,115.67,240.4,553.38,Single-ply,SBD,M
Boys,89.81,3,Jacob Redwine,Odessa,89.81,183.7,142.88,210.92,537.51,Single-ply,SBD,M
Boys,89.81,4,Erique Rinehart,Snyder,88.9,206.38,97.52,226.8,530.7,Single-ply,SBD,M
Boys,89.81,5,Ignacio Camacho,Monahans,87.09,201.85,122.47,204.12,528.44,Single-ply,SBD,M
Boys,89.81,6,Cruz Solis,Levelland,83.01,183.7,136.08,195.04,514.83,Single-ply,SBD,M
Boys,89.81,7,Trojan Terwillinger,Monahans,88,172.37,117.93,181.44,471.74,Single-ply,SBD,M
Boys,89.81,8,Cristobal Escalante,Denver City,82.46,156.49,124.74,185.97,467.2,Single-ply,SBD,M
Boys,89.81,9,John Flores,Snyder,89.49,192.78,102.06,156.49,451.32,Single-ply,SBD,M
Boys,89.81,10,Matt Hartman,Plains,89.81,167.83,102.06,170.1,439.98,Single-ply,SBD,M
Boys,89.81,11,Shawn Howell,Roby,85.82,181.44,86.18,167.83,435.45,Single-ply,SBD,M
Boys,89.81,12,Adrian Lomas,Roscoe Collegiate,88.9,158.76,102.06,170.1,430.91,Single-ply,SBD,M
Boys,89.81,13,Elias Martinez,Ralls,88.99,136.08,83.91,170.1,390.09,Single-ply,SBD,M
Boys,89.81,14,Richard Flores #4,Levelland,83.91,145.15,68.04,156.49,369.68,Single-ply,SBD,M
Boys,89.81,15,Mark Hartman #2,Plains,89.81,120.2,95.25,154.22,369.68,Single-ply,SBD,M
Boys,89.81,DQ,Andy Notley,Odessa Permian,85.64,181.44,,,,Single-ply,SBD,M
Boys,99.79,1,Khaled Abu-Alghanam,Odessa Permian,96.43,226.8,120.2,215.46,562.45,Single-ply,SBD,M
Boys,99.79,2,Sean Ramirez,Odessa Permian,91.72,219.99,124.74,215.46,560.19,Single-ply,SBD,M
Boys,99.79,3,Jesse Flores,Levelland,91.63,204.12,147.42,190.51,542.04,Single-ply,SBD,M
Boys,99.79,4,Kyler Saenz,Snyder,97.98,226.8,102.06,199.58,528.44,Single-ply,SBD,M
Boys,99.79,5,Hayden Pipkin,Monahans,90.54,199.58,124.74,201.85,526.17,Single-ply,SBD,M
Boys,99.79,6,Dylan Goode,Midland Lee,99.79,199.58,113.4,206.38,519.36,Single-ply,SBD,M
Boys,99.79,7,Raul Rios,Snyder,98.43,204.12,113.4,188.24,505.76,Single-ply,SBD,M
Boys,99.79,8,Damian Pena,Denver City,95.25,183.7,120.2,192.78,496.68,Single-ply,SBD,M
Boys,99.79,9,Logan Phillips,Odessa Permian,92.35,185.97,106.59,190.51,483.08,Single-ply,SBD,M
Boys,99.79,10,Austin Lara,Roscoe Collegiate,95.25,192.78,106.59,170.1,469.47,Single-ply,SBD,M
Boys,99.79,11,Hulen Hubbard,Midland Lee,92.53,161.03,113.4,185.97,460.4,Single-ply,SBD,M
Boys,99.79,12,Tobias Sanchez,Levelland,93.08,158.76,111.13,183.7,453.59,Single-ply,SBD,M
Boys,99.79,13,Connor McDonald,Midland Greenwood,99.52,183.7,108.86,161.03,453.59,Single-ply,SBD,M
Boys,99.79,14,Israel Chavira,Plains,99.79,163.29,104.33,167.83,435.45,Single-ply,SBD,M
Boys,99.79,15,Colby Molinar,Monahans,98.88,131.54,77.11,151.95,360.61,Single-ply,SBD,M
Boys,99.79,16,Logan King,Sweetwater,89.9,111.13,113.4,131.54,356.07,Single-ply,SBD,M
Boys,99.79,17,John Acevedo,Roby,94.62,133.81,68.04,127.01,328.85,Single-ply,SBD,M
Boys,99.79,18,Skyler Pulattie,Sweetwater,97.07,131.54,68.04,111.13,310.71,Single-ply,SBD,M
Boys,99.79,DQ,Brison Smith,Odessa,97.25,192.78,,,,Single-ply,SBD,M
Boys,99.79,DQ,Lathan Limones,Colorado City Colorado,91.81,136.08,,,,Single-ply,SBD,M
Boys,109.77,1,O'Ryan Farley,Odessa Permian,108.05,231.33,124.74,260.82,616.89,Single-ply,SBD,M
Boys,109.77,2,Macario Rivera,Snyder,109.32,244.94,138.35,222.26,605.55,Single-ply,SBD,M
Boys,109.77,3,Jessy Villagomez,Roby,102.97,233.6,136.08,233.6,603.28,Single-ply,SBD,M
Boys,109.77,4,Alexis Gonzalez,Denver City,105.69,217.72,158.76,215.46,591.94,Single-ply,SBD,M
Boys,109.77,5,Blaine Hunt,Monahans,105.23,181.44,113.4,199.58,494.42,Single-ply,SBD,M
Boys,109.77,6,Caleb Smith,Roby,102.97,192.78,99.79,192.78,485.34,Single-ply,SBD,M
Boys,109.77,7,Justin Castereno,Sweetwater,106.14,197.31,115.67,172.37,485.34,Single-ply,SBD,M
Boys,109.77,8,Micahel Huff,Colorado City Colorado,105.23,190.51,104.33,181.44,476.27,Single-ply,SBD,M
Boys,109.77,9,Alexander Lozano,Denver City,102.78,154.22,117.93,183.7,455.86,Single-ply,SBD,M
Boys,109.77,10,John Hignojos,Odessa Permian,102.87,158.76,97.52,165.56,421.84,Single-ply,SBD,M
Boys,109.77,11,Cadence Balencia,Odessa Permian,108.23,156.49,106.59,154.22,417.3,Single-ply,SBD,M
Boys,109.77,12,Gavin Reyes,Sweetwater,109.32,145.15,97.52,161.03,403.7,Single-ply,SBD,M
Boys,109.77,13,Landon Peterson,Odessa Permian,108.77,147.42,83.91,154.22,385.55,Single-ply,SBD,M
Boys,109.77,14,Jacob Bartlett,Ralls,101.15,117.93,74.84,151.95,344.73,Single-ply,SBD,M
Boys,109.77,15,Kyler Duncan,Denver City,102.51,133.81,83.91,124.74,342.46,Single-ply,SBD,M
Boys,109.77,16,Ian Moreno,Roby,102.24,136.08,79.38,122.47,337.93,Single-ply,SBD,M
Boys,124.74,1,Kobe Fahntrapp,Snyder,122.02,263.08,163.29,242.67,669.05,Single-ply,SBD,M
Boys,124.74,2,David Ornelas,Colorado City Colorado,122.92,249.48,142.88,204.12,596.47,Single-ply,SBD,M
Boys,124.74,3,Bryson White,Odessa Permian,112.76,226.8,120.2,204.12,551.11,Single-ply,SBD,M
Boys,124.74,4,Jeremiah Gonzales,Levelland,117.48,181.44,106.59,190.51,478.54,Single-ply,SBD,M
Boys,124.74,5,Paul Freeman,Odessa Permian,124.47,183.7,120.2,172.37,476.27,Single-ply,SBD,M
Boys,124.74,6,Hector Cruz,Colorado City Colorado,112.49,156.49,95.25,154.22,405.97,Single-ply,SBD,M
Boys,124.74,DQ,Nathan Sanchez #2,Odessa,115.58,219.99,,,,Single-ply,SBD,M
Boys,124.74+,1,Josh Wilson,Midland Lee,136.53,217.72,102.06,233.6,553.38,Single-ply,SBD,M
Boys,124.74+,2,Bradon Upshaw,Colorado City Colorado,129.73,206.38,124.74,192.78,523.9,Single-ply,SBD,M
Boys,124.74+,3,Blake Whitney,Snyder,142.7,226.8,104.33,192.78,523.9,Single-ply,SBD,M
Boys,124.74+,4,Max Rodriguez,Sweetwater,128.37,215.46,131.54,174.63,521.63,Single-ply,SBD,M
Boys,124.74+,5,James Bruce,Odessa Permian,131.36,183.7,106.59,185.97,476.27,Single-ply,SBD,M
Boys,124.74+,6,Donoven Campos,Levelland,126.1,167.83,106.59,181.44,455.86,Single-ply,SBD,M
Boys,124.74+,7,Reagan Huffty,Monahans,135.62,149.69,102.06,167.83,419.57,Single-ply,SBD,M
Boys,124.74+,8,Oscar Diego,Midland Greenwood,127.73,147.42,108.86,147.42,403.7,Single-ply,SBD,M
Boys,124.74+,DQ,Ted Rich,Colorado City Colorado,136.53,188.24,,,,Single-ply,SBD,M
Boys,124.74+,DQ,Jeremiah Barerra,Sweetwater,125.65,226.8,,,,Single-ply,SBD,M
