Place,Name,BirthYear,Country,BodyweightKg,Squat1Kg,Squat2Kg,Squat3Kg,Best3SquatKg,Bench1Kg,Bench2Kg,Bench3Kg,Best3BenchKg,Deadlift1Kg,Deadlift2Kg,Deadlift3Kg,Best3DeadliftKg,TotalKg,WeightClassKg,Division,Event,Sex,Equipment
1,Nikolas Gliebe,1997,Austria,65.59,245,252.5,-260.5,252.5,140,145,-150,145,200,212.5,222.5,222.5,620,66,Open,SBD,M,Single-ply
2,Danilo Corrias,1993,Italy,65.27,190,210,230,230,135,157.5,162.5,162.5,190,215,-230,215,607.5,66,Open,SBD,M,Single-ply
1,Paul Campbell,1983,UK,73.8,245,255,265,265,160,167.5,175,175,245,-260,-260,245,685,74,Open,SBD,M,Single-ply
2,Ingi Gautason Aron,1995,Iceland,73.73,-255,-260,260,260,-150,-150,150,150,210,225,,225,635,74,Open,SBD,M,Single-ply
1,Marco Guerretta,1990,Italy,82.29,275,290,-305,290,170,175,180,180,230,245,255,255,725,83,Open,SBD,M,Single-ply
2,Kevin Schmid,2000,Austria,81.82,245,-252.5,252.5,252.5,190,195,-200,195,240,247.5,-252.5,247.5,695,83,Open,SBD,M,Single-ply
DQ,Emmerik Vanhee,1990,Belgium,82.6,-270,-270,-270,,205,-212.5,212.5,212.5,240,247.5,,247.5,,83,Open,SBD,M,Single-ply
1,Alexander Huber,1990,Austria,90.06,320,327.5,,327.5,230,242.5,247.5,247.5,280,290,-300,290,865,93,Open,SBD,M,Single-ply
2,Federico Gasparini,1992,Italy,90.68,265,275,290,290,200,210,-220,210,260,280,-300,280,780,93,Open,SBD,M,Single-ply
3,Matt Watson #1,1991,UK,90.66,265,277.5,287.5,287.5,195,200,-205,200,215,222.5,227.5,227.5,715,93,Open,SBD,M,Single-ply
4,Khalon Hodson,1989,UK,89.49,247.5,260,-270,260,175,185,-192.5,185,230,-250,-250,230,675,93,Open,SBD,M,Single-ply
5,Jean-Marc De Ro,1973,Belgium,90.94,235,-245,-245,235,170,-175,-175,170,220,230,-237.5,230,635,93,Open,SBD,M,Single-ply
1,Cambray Orrason Alex,1989,Iceland,104.53,320,332.5,-345,332.5,-245,-245,245,245,250,-265,265,265,842.5,105,Open,SBD,M,Single-ply
2,Tuomas Puhakka,1995,Finland,104.96,290,297.5,305,305,-205,205,210,210,265,-285,287.5,287.5,802.5,105,Open,SBD,M,Single-ply
3,Jochem Schaap,1995,Netherlands,99.51,240,255,-260,255,180,187.5,192.5,192.5,210,220,225,225,672.5,105,Open,SBD,M,Single-ply
4,Sven Laenen,1986,Belgium,102.94,245,250,-257.5,250,-177.5,-177.5,177.5,177.5,-210,210,-247.5,210,637.5,105,Open,SBD,M,Single-ply
DQ,Andrea Mirabelli,1988,Italy,103.84,300,-315,-315,300,-225,-225,-225,,260,-300,-300,260,,105,Open,SBD,M,Single-ply
1,Dominik Pahl,1992,Germany,117.54,380,-390,-390,380,260,-267.5,270,270,300,315,325,325,975,120,Open,SBD,M,Single-ply
2,Jean Gengler,1986,Luxembourg,116.49,260,270,-275,270,170,-177.5,-185,170,255,270,277.5,277.5,717.5,120,Open,SBD,M,Single-ply
DQ,Gianluca Lise,1989,Italy,110.1,-300,-300,300,300,-215,-215,-215,,270,285,-300,285,,120,Open,SBD,M,Single-ply
1,Þorbergur Guðmundsson,1993,Iceland,150.08,-352.5,-352.5,352.5,352.5,-235,235,-242.5,235,280,300,-312.5,300,887.5,120+,Open,SBD,M,Single-ply
2,Mattia Di Martino,1988,Italy,127.3,317.5,327.5,335,335,210,217.5,225,225,285,-295,295,295,855,120+,Open,SBD,M,Single-ply
3,James Brincat-Smith,1975,UK,190.85,350,367.5,-382.5,367.5,220,-230,-230,220,240,252.5,260,260,847.5,120+,Open,SBD,M,Single-ply
1,Andrea Castello,1995,Italy,65.95,190,200.5,208,208,130,135,138,138,225,235,245,245,591,66,Open,SBD,M,Raw
2,Lorenzo Haarloo,1987,Netherlands,65.96,175,185,190,190,112.5,120,122.5,122.5,235,247.5,257.5,257.5,570,66,Open,SBD,M,Raw
1,Bastien Poyet,1995,France,72.76,210,220,-225,220,187.5,193,198,198,235,250,260,260,678,74,Open,SBD,M,Raw
2,Joshua Wright #1,1986,Germany,73.72,215,225,-232.5,225,160,165,167.5,167.5,255,-265,265,265,657.5,74,Open,SBD,M,Raw
3,Federico Martella,1990,Italy,73.97,212.5,225,230,230,145,150,-152.5,150,230,242.5,250,250,630,74,Open,SBD,M,Raw
4,Lukas Markmeyer,1997,Germany,73.87,197.5,207.5,-212.5,207.5,130,135,-137.5,135,245,260,-272.5,260,602.5,74,Open,SBD,M,Raw
5,Andrew McEllistrim,1997,Ireland,73.17,195,207.5,212.5,212.5,115,120,122.5,122.5,245,255,265,265,600,74,Open,SBD,M,Raw
6,Luke Wilson #2,1999,UK,73.99,225,235.5,245.5,245.5,70,,,70,225,235,245,245,560.5,74,Open,SBD,M,Raw
1,Matteo Moretto,1988,Italy,81.6,250,260,270,270,165,172.5,177.5,177.5,245,260,-270,260,707.5,83,Open,SBD,M,Raw
2,Joakim Halland Anders,1992,Norway,82.56,240,250,255,255,140,147.5,-150,147.5,265,-272.5,275,275,677.5,83,Open,SBD,M,Raw
3,Mark Comiskey,1986,Ireland,81.35,222.5,232.5,237.5,237.5,160,-165,165,165,245,260,272.5,272.5,675,83,Open,SBD,M,Raw
4,Niccolo Degiovanni,1991,Italy,82.28,225,235,242.5,242.5,170,-178,-178,170,242.5,255,262.5,262.5,675,83,Open,SBD,M,Raw
5,Vincent Moll,1998,Germany,82.78,217.5,227.5,-232.5,227.5,145,-150,150,150,267.5,275,-280,275,652.5,83,Open,SBD,M,Raw
6,Friðbjörn Bragi Hlynsson,1991,Iceland,82.82,-222.5,222.5,-230,222.5,147.5,152.5,155,155,-265,265,-275,265,642.5,83,Open,SBD,M,Raw
1,Erik Elvsvingen,1990,Norway,92,255,270,277.5,277.5,-172.5,-172.5,172.5,172.5,-285,285,301,301,751,93,Open,SBD,M,Raw
2,Matthew Henry,1994,Ireland,92.86,260,275,285,285,140,145,150,150,255,270,-280,270,705,93,Open,SBD,M,Raw
3,Davide Degrati,1995,Italy,92.16,220,235,245,245,160,167.5,-172.5,167.5,255,275,-290,275,687.5,93,Open,SBD,M,Raw
4,Eduard Moreno Curto,1983,Spain,91.72,225,240,-247.5,240,145,150,-152.5,150,270,285,-290,285,675,93,Open,SBD,M,Raw
5,Markus Alitalo,1982,Finland,92.06,230,-240,,230,160,-162.5,162.5,162.5,250,275,-285,275,667.5,93,Open,SBD,M,Raw
1,Anthony McLeggan,1981,Ireland,102.62,225,240,250,250,195,200.5,205.5,205.5,290,305,325.5,325.5,781,105,Open,SBD,M,Raw
2,Scott Dean,1997,Ireland,104.5,260,275,282.5,282.5,160,165,167.5,167.5,285,300,310,310,760,105,Open,SBD,M,Raw
3,Geir Øyvind Thorsen,1986,Norway,104.76,-267.5,275,282.5,282.5,165,170,-175,170,270,280,-292.5,280,732.5,105,Open,SBD,M,Raw
4,Ingvi Örn Friðriksson,1994,Iceland,101.03,255,265,275,275,150,157.5,-162.5,157.5,282.5,295,,295,727.5,105,Open,SBD,M,Raw
5,Lieven De Saedeleer,1988,Belgium,101.99,235,250,-255,250,165,172.5,-175,172.5,247.5,260,265,265,687.5,105,Open,SBD,M,Raw
1,Joseph Walton #1,1991,UK,119.48,303.5,317.5,-320,317.5,175,182.5,187.5,187.5,295,315,-320,315,820,120,Open,SBD,M,Raw
2,Gianluca Galletto,1995,Italy,116.54,265,280,-300,280,172.5,180,185,185,295,315,-330,315,780,120,Open,SBD,M,Raw
3,Christophe Rebreyend,1988,Netherlands,119.77,270,280,-285,280,167.5,172.5,175,175,-325,325,-341.5,325,780,120,Open,SBD,M,Raw
4,Viktor Samúelsson,1993,Iceland,115.35,260,275,285,285,190,197.5,202.5,202.5,290,-305,-312.5,290,777.5,120,Open,SBD,M,Raw
5,Aron Friðrik Georgsson,1989,Iceland,119.3,270,-282.5,282.5,282.5,170,180,190,190,260,275,285,285,757.5,120,Open,SBD,M,Raw
6,Tuomo Väänänen,1984,Finland,119.36,255,275,,275,160,170,175,175,260,280,290,290,740,120,Open,SBD,M,Raw
7,Philippe Parage,2001,Luxembourg,111.66,200,212.5,222.5,222.5,105,110,115,115,215,230,-240,230,567.5,120,Open,SBD,M,Raw
DQ,Orhan Bilican,1978,Belgium,119.67,320,335,,335,200,-212.5,-221,200,-320,-320,-320,,,120,Open,SBD,M,Raw
1,Steve Ringoot,1989,Belgium,144.98,322.5,335,,335,210,220,-222.5,220,322.5,-330,-330,322.5,877.5,120+,Open,SBD,M,Raw
2,Wesley Hall #1,1984,UK,130.49,300,-320,320,320,190,-197.5,-197.5,190,310,345,-367.5,345,855,120+,Open,SBD,M,Raw
3,Romuald Massé,1992,France,152.38,305,320,332.5,332.5,243,250.5,-255.5,250.5,270,-287.5,-287.5,270,853,120+,Open,SBD,M,Raw
4,Michail Loutsis,1984,Greece,130.28,250,270,280,280,170,185,195,195,250,270,-280,270,745,120+,Open,SBD,M,Raw
5,Johan Kerremans,1967,Belgium,135.5,260,275,-290,275,160,170,180,180,280,-322.5,,280,735,120+,Open,SBD,M,Raw
6,Jari Paajanen,1987,Finland,154.84,250,260,267.5,267.5,190,-200,-200,190,260,-275,275,275,732.5,120+,Open,SBD,M,Raw
7,Theodoros Salimkas,1974,Greece,152.6,155,165,175,175,125,132.5,137.5,137.5,185,202.5,-210,202.5,515,120+,Open,SBD,M,Raw
1,Chiara Galimberti,1994,Italy,44.82,95,105,110,110,65,70,75,75,110,122.5,130,130,315,47,Open,SBD,F,Single-ply
1,Andreea Vasilescu,1991,Finland,51.56,-122.5,-127.5,127.5,127.5,72.5,-77.5,-77.5,72.5,120,130,142.5,142.5,342.5,52,Open,SBD,F,Single-ply
2,Valentina Motta,1989,Italy,50.99,107.5,115,125,125,60,65,70,70,120,130,140,140,335,52,Open,SBD,F,Single-ply
3,Linzi Waite,1989,UK,51.43,127.5,-132.5,-132.5,127.5,72.5,77.5,-80,77.5,115,122.5,130,130,335,52,Open,SBD,F,Single-ply
4,Carine Stallaert,1963,Belgium,51.32,-112.5,117.5,120,120,60,65,67.5,67.5,115,130,-140,130,317.5,52,Open,SBD,F,Single-ply
1,Sabrina Mancini,1994,Italy,56.44,165,175,-185,175,92.5,102.5,-107.5,102.5,157.5,170,177.5,177.5,455,57,Open,SBD,F,Single-ply
2,Marlene Sabathy,1996,Austria,56.35,155,160,165,165,80,85,-90,85,135,142.5,-147.5,142.5,392.5,57,Open,SBD,F,Single-ply
3,Jennifer Heaysman,1990,Belgium,56.25,150,-157.5,157.5,157.5,-82.5,-85,85,85,115,122.5,130,130,372.5,57,Open,SBD,F,Single-ply
1,Lauren Elder,1989,UK,62.54,165,170,-175,170,-80,-80,80,80,175,185,193,193,443,63,Open,SBD,F,Single-ply
2,Anna-Eveliina Partanen,1988,Finland,62.76,160,170,175,175,110,115,120,120,135,142.5,147.5,147.5,442.5,63,Open,SBD,F,Single-ply
3,Anne Daineffe,1982,Belgium,61.98,160,-170,-170,160,90,95,100,100,160,167.5,-172.5,167.5,427.5,63,Open,SBD,F,Single-ply
4,Lucy Hart,1995,UK,60.74,155,160,165,165,-82.5,85,90,90,145,157.5,-172.5,157.5,412.5,63,Open,SBD,F,Single-ply
5,Kathleen Compagnie,1980,Belgium,62.6,115,122.5,,122.5,-95,95,-100,95,130,-135,-135,130,347.5,63,Open,SBD,F,Single-ply
1,Monika Kvam,1994,Norway,71.49,-192.5,-192.5,192.5,192.5,130,135,140,140,162.5,167.5,-170,167.5,500,72,Open,SBD,F,Single-ply
2,Marie Hauschild,1995,Germany,71.35,190,200,205,205,125,130,-135,130,160,-170,-170,160,495,72,Open,SBD,F,Single-ply
3,Michela Gubernati,1981,Italy,70.94,-182.5,-192.5,195,195,85,90,97.5,97.5,172.5,187.5,200,200,492.5,72,Open,SBD,F,Single-ply
4,Ines Kahrer,1996,Austria,68.79,185,195,200,200,107.5,112.5,117.5,117.5,165,172.5,-177.5,172.5,490,72,Open,SBD,F,Single-ply
5,Katja Broxtermann,1986,Germany,71.49,185,190,195,195,132.5,-137.5,-137.5,132.5,155,160,-165,160,487.5,72,Open,SBD,F,Single-ply
6,Maaike de Vries,1994,Netherlands,71.3,170,180,185,185,120,125,127.5,127.5,140,147.5,-150,147.5,460,72,Open,SBD,F,Single-ply
7,Rachel Steedman,1995,UK,71.43,160,-167.5,167.5,167.5,100,107.5,-115,107.5,135,142.5,145,145,420,72,Open,SBD,F,Single-ply
1,Ankie Timmers,1986,Netherlands,79.59,217.5,225,-230,225,170,175.5,178,178,212.5,222.5,-230,222.5,625.5,84,Open,SBD,F,Single-ply
2,Stine Hamre,1995,Norway,82.14,230,-240,-242.5,230,140,150,-157.5,150,200,-220,-220,200,580,84,Open,SBD,F,Single-ply
3,Iris Kensenhuis,1983,Netherlands,83.68,207.5,212.5,215,215,97.5,102.5,105,105,230,240,245,245,565,84,Open,SBD,F,Single-ply
4,Christie Civetta,1992,UK,83.99,-195,200,207.5,207.5,125,132.5,137.5,137.5,175,185,195,195,540,84,Open,SBD,F,Single-ply
5,Silvia Marostica,1995,Italy,75.02,190,205,215,215,115,120,-125,120,160,180,-200,180,515,84,Open,SBD,F,Single-ply
6,Valérie von Gleichen,1992,Germany,83.3,205,210,-215,210,105,-110,-110,105,182.5,190,195,195,510,84,Open,SBD,F,Single-ply
1,Kate Sweatman,1985,UK,126.03,220,-240,-240,220,147.5,-157.5,-170,147.5,160,180,-192.5,180,547.5,84+,Open,SBD,F,Single-ply
1,Rachele Randone,1985,Italy,46.53,102.5,107.5,112.5,112.5,50,52.5,55,55,140,147.5,151,151,318.5,47,Open,SBD,F,Raw
2,Ianthe van Belzen,1994,Netherlands,43.88,95,-100,100,100,60,62.5,65,65,112.5,117.5,-122.5,117.5,282.5,47,Open,SBD,F,Raw
3,Susana Gerrits,1983,Netherlands,46.64,97.5,100,-102.5,100,52.5,-55,55,55,107.5,115,120,120,275,47,Open,SBD,F,Raw
1,Shizuka Rico,1994,France,51.7,130,135,-138,135,70,75,-77.5,75,162.5,167.5,172.5,172.5,382.5,52,Open,SBD,F,Raw
2,Emma Goodwin,1987,UK,51.63,117.5,-125,125,125,62.5,-65,65,65,165,180,-192.5,180,370,52,Open,SBD,F,Raw
1,Laura Savolainen,1989,Sweden,56.64,122.5,127.5,132.5,132.5,95,100.5,103,103,160,167.5,172.5,172.5,408,57,Open,SBD,F,Raw
2,Catherine Smith,1995,UK,56.56,125,135,142.5,142.5,57.5,62.5,65,65,165,180,190,190,397.5,57,Open,SBD,F,Raw
3,Amy Dickson,1988,Ireland,56.32,112.5,-120,120,120,77.5,80,82.5,82.5,165.5,175,-180.5,175,377.5,57,Open,SBD,F,Raw
4,Alessia Leugio,1990,Italy,56.74,130,135,-140,135,75,77.5,-80,77.5,160,165,-167.5,165,377.5,57,Open,SBD,F,Raw
5,Benedetta Squillante,1995,Italy,56.16,125,130,-135,130,90,92.5,95,95,135,145,-157.5,145,370,57,Open,SBD,F,Raw
6,Fanny Rampon,1997,France,56.07,125,130,135,135,85,-90,-90,85,145,-152.5,-162.5,145,365,57,Open,SBD,F,Raw
7,Emily Finnern,2000,Germany,56.76,135,140,144,144,72.5,77.5,80,80,122.5,-130,130,130,354,57,Open,SBD,F,Raw
8,Annelies Van De Velde,2001,Belgium,55.7,80,87.5,90,90,52.5,55,60,60,105,-110,-110,105,255,57,Open,SBD,F,Raw
1,Grace Stilgoe,1989,UK,62.36,145,152.5,155,155,80,85,87.5,87.5,165,175,182.5,182.5,425,63,Open,SBD,F,Raw
2,Océane Regis,1996,France,61.63,-142.5,142.5,147.5,147.5,87.5,92.5,95,95,160,170,175,175,417.5,63,Open,SBD,F,Raw
3,Sonia Gonçalves Da Silva,1996,Germany,62.36,135,142.5,147.5,147.5,75,80,82.5,82.5,175,185,-195.5,185,415,63,Open,SBD,F,Raw
4,Jolien Dreesen,1994,Netherlands,61.36,152.5,-160,160,160,75,80,82.5,82.5,170,-177.5,-182.5,170,412.5,63,Open,SBD,F,Raw
5,Nellie Miettinen,1995,Sweden,62.58,140,145,150,150,72.5,80,82.5,82.5,162.5,-170,-170,162.5,395,63,Open,SBD,F,Raw
6,Arna Ösp Gunnarsdóttir,1995,Iceland,62.53,127.5,132.5,137.5,137.5,75,80,-82.5,80,165,172.5,175,175,392.5,63,Open,SBD,F,Raw
7,Joanne Coogan,1982,Ireland,61.94,112.5,-122.5,122.5,122.5,77.5,82.5,85,85,160,175,-182.5,175,382.5,63,Open,SBD,F,Raw
8,Kamilla Kolvig,1989,Norway,62.67,135,137.5,140,140,65,-67.5,67.5,67.5,165,170,175,175,382.5,63,Open,SBD,F,Raw
9,Katrine Nystad Kvitvær,1994,Norway,62.48,120,132.5,-137.5,132.5,75,80,-82.5,80,150,162.5,-167.5,162.5,375,63,Open,SBD,F,Raw
1,Olivia Särnbratt,1992,Sweden,70.68,165,170,-172.5,170,92.5,97.5,-100,97.5,180,187.5,-200,187.5,455,72,Open,SBD,F,Raw
2,Stine Liveroed,1992,Norway,71.8,-175.5,175.5,180.5,180.5,97.5,-102.5,102.5,102.5,170,-180,-180,170,453,72,Open,SBD,F,Raw
3,Amy Atkinson,1987,UK,68.31,160,-167.5,167.5,167.5,97.5,-100,-100,97.5,167.5,177.5,-190,177.5,442.5,72,Open,SBD,F,Raw
4,Emily Greenway,1994,UK,71.58,-160,160,167.5,167.5,75,80,82.5,82.5,167.5,177.5,187.5,187.5,437.5,72,Open,SBD,F,Raw
5,Verdiana Mineo,1991,Italy,71.08,145,160,165,165,80,82.5,85,85,155,165,-177.5,165,415,72,Open,SBD,F,Raw
6,Clare Patterson,1984,Ireland,70.71,-140,140,147.5,147.5,102,106.5,-110.5,106.5,140,147.5,155,155,409,72,Open,SBD,F,Raw
7,Malene Joensen,1995,Norway,68.8,-155,160,-167.5,160,82.5,87.5,-90,87.5,152.5,157.5,-160,157.5,405,72,Open,SBD,F,Raw
8,Lorena Gambaretto,1985,Italy,70.84,127.5,135,-140,135,70,72.5,75,75,175,187.5,192.5,192.5,402.5,72,Open,SBD,F,Raw
9,Janina Kokko,1997,Finland,71.61,125,132.5,-137.5,132.5,85,90,-95,90,135,142.5,-152.5,142.5,365,72,Open,SBD,F,Raw
1,Siri Anita Slettmyr,1984,Norway,83.62,162.5,170,172.5,172.5,97.5,102.5,107.5,107.5,190,200,205,205,485,84,Open,SBD,F,Raw
2,Paula Jacobsson,1992,Sweden,82.88,165,-175,175,175,87.5,90,-92.5,90,192.5,202.5,207.5,207.5,472.5,84,Open,SBD,F,Raw
3,Hira Teirney,1982,UK,83.11,162.5,167.5,-172.5,167.5,-80,80,-85,80,207.5,-218,218,218,465.5,84,Open,SBD,F,Raw
4,Julie Johansen,1992,Norway,82.96,172.5,177.5,182.5,182.5,92.5,97.5,-100,97.5,177.5,185,-187.5,185,465,84,Open,SBD,F,Raw
5,Elisa Bellini,1988,Italy,79.77,145,155,165,165,95,100,102.5,102.5,150,160,170,170,437.5,84,Open,SBD,F,Raw
6,Lea Schreiner,1995,Germany,82.66,-150,150,155,155,90,-95,-95,90,190,-197.5,-197.5,190,435,84,Open,SBD,F,Raw
7,Teanna Watts,1992,Ireland,82.38,-157.5,157.5,165,165,90,92.5,-95,92.5,160,172.5,-182.5,172.5,430,84,Open,SBD,F,Raw
8,Birgit Rós Becker,1989,Iceland,80.9,157.5,165,170,170,77.5,82.5,-85,82.5,155,162.5,170,170,422.5,84,Open,SBD,F,Raw
9,Lisa Heller,1992,Sweden,76.99,125,135,140,140,82.5,87.5,90,90,175,185,-192.5,185,415,84,Open,SBD,F,Raw
1,Ilrish Kensenhuis,1986,Netherlands,89.88,170,-177.5,177.5,177.5,85,90,-92.5,90,210,220,222.5,222.5,490,84+,Open,SBD,F,Raw
2,Leontine van Geffen,1986,Netherlands,126.06,180,190,192.5,192.5,85,90,95,95,192.5,202.5,-207.5,202.5,490,84+,Open,SBD,F,Raw
3,Madeleine Lundin-Heed,1992,Sweden,105.73,-175,177.5,185,185,115.5,121,-125.5,121,155,165,-185,165,471,84+,Open,SBD,F,Raw
4,Lauren Rooney,1990,Ireland,114.33,162.5,170,-177.5,170,80,82.5,85,85,150,160,165,165,420,84+,Open,SBD,F,Raw
5,Klomkliang Phattarapon Ye,1997,Belgium,87.39,135,140,150,150,72.5,-77.5,-77.5,72.5,155,162.5,-172.5,162.5,385,84+,Open,SBD,F,Raw
