Division,WeightClassKg,Place,Name,Team,BodyweightKg,Best3SquatKg,Best3BenchKg,Best3DeadliftKg,TotalKg,Equipment,Event,Sex
Boys,51.71,1,Jayden Crouch,Hico,50.8,127.01,45.36,117.93,290.3,Single-ply,SBD,M
Boys,51.71,DQ,Jamisan Pollock,Strawn,51.17,102.06,34.02,,,Single-ply,SBD,M
Boys,55.79,1,Trey Orsini,Strawn,55.16,113.4,54.43,124.74,292.57,Single-ply,SBD,M
Boys,55.79,2,Lawson Nairn,Millsap,55.43,97.52,47.63,106.59,251.74,Single-ply,SBD,M
Boys,55.79,DQ,Trenton Sizemore,Strawn,55.29,,,,,Single-ply,SBD,M
Boys,59.87,1,Luis Perez,Hamilton,58.15,151.95,79.38,170.1,401.43,Single-ply,SBD,M
Boys,59.87,2,Samson Tighe,Brock,56.56,117.93,81.65,149.69,349.27,Single-ply,SBD,M
Boys,59.87,3,Jonathan Lopez,Hillsboro,59.74,147.42,77.11,124.74,349.27,Single-ply,SBD,M
Boys,59.87,4,Kaden Bessent,Brownwood,59.87,129.27,79.38,136.08,344.73,Single-ply,SBD,M
Boys,59.87,5,Hoss Guthrie,Lometa,59.87,106.59,61.23,104.33,272.16,Single-ply,SBD,M
Boys,59.87,6,Jenesis Golden,Strawn,59.42,95.25,31.75,97.52,224.53,Single-ply,SBD,M
Boys,67.13,1,Seth Anderson,Bangs,67,197.31,108.86,206.38,512.56,Single-ply,SBD,M
Boys,67.13,2,Basey Mitchell,Millsap,66,176.9,79.38,183.7,439.98,Single-ply,SBD,M
Boys,67.13,3,Ricardo Martinez #2,Hillsboro,65.54,156.49,86.18,170.1,412.77,Single-ply,SBD,M
Boys,67.13,4,Caleb Roberts,Burnet,64.82,163.29,74.84,172.37,410.5,Single-ply,SBD,M
Boys,67.13,5,Major Bowden,Brownwood,66.27,151.95,86.18,167.83,405.97,Single-ply,SBD,M
Boys,67.13,6,Uriah King,Brownwood,65.59,151.95,92.99,142.88,387.82,Single-ply,SBD,M
Boys,67.13,7,Colton Mitchell,Jacksboro,64.95,161.03,72.57,136.08,369.68,Single-ply,SBD,M
Boys,67.13,8,Francisco Jaimes,Lometa,62.96,108.86,77.11,138.35,324.32,Single-ply,SBD,M
Boys,67.13,9,Donnie Smart,Lometa,64,102.06,72.57,131.54,306.17,Single-ply,SBD,M
Boys,67.13,10,Dj Smart,Lometa,66.95,106.59,70.31,115.67,292.57,Single-ply,SBD,M
Boys,67.13,DQ,Anthony Seider,Lometa,66.27,,,,,Single-ply,SBD,M
Boys,67.13,DQ,Myles Semas,Brock,65.05,163.29,81.65,,,Single-ply,SBD,M
Boys,74.84,1,Stuart Cortez,Hamilton,74.48,201.85,124.74,195.04,521.63,Single-ply,SBD,M
Boys,74.84,2,Auston McBroom,Millsap,74.75,174.63,97.52,181.44,453.59,Single-ply,SBD,M
Boys,74.84,3,Jett Golden,Strawn,73.8,154.22,90.72,149.69,394.63,Single-ply,SBD,M
Boys,74.84,4,Luis Acevedo,Lometa,74.84,124.74,63.5,147.42,335.66,Single-ply,SBD,M
Boys,74.84,DQ,Colby Henry,Lometa,73.84,,,,,Single-ply,SBD,M
Boys,74.84,DQ,Brandon Robinson,Bangs,73.21,174.63,,,,Single-ply,SBD,M
Boys,74.84,DQ,Gage Davis,Hico,73.35,,,,,Single-ply,SBD,M
Boys,82.1,1,Kyle Gault,Strawn,80.92,226.8,117.93,208.65,553.38,Single-ply,SBD,M
Boys,82.1,2,Lorenzo Garcia,Strawn,81.15,195.04,115.67,188.24,498.95,Single-ply,SBD,M
Boys,82.1,3,Jordan Mata,Hillsboro,80.06,181.44,120.2,181.44,483.08,Single-ply,SBD,M
Boys,82.1,4,Jason Long,Jacksboro,76.88,129.27,74.84,136.08,340.19,Single-ply,SBD,M
Boys,82.1,5,Brenden Taylor,Hico,77.34,127.01,68.04,138.35,333.39,Single-ply,SBD,M
Boys,82.1,DQ,Jordon Degellado,Meridian,79.97,185.97,104.33,,,Single-ply,SBD,M
Boys,89.81,1,Michael Flores,Hillsboro,86.64,233.6,142.88,185.97,562.45,Single-ply,SBD,M
Boys,89.81,2,Tristan Cummings,Brock,86.95,213.19,145.15,170.1,528.44,Single-ply,SBD,M
Boys,89.81,3,Hunter Lawrence,Bangs,85.73,204.12,92.99,201.85,498.95,Single-ply,SBD,M
Boys,89.81,4,Justice Baker,Strawn,86.64,147.42,104.33,145.15,396.89,Single-ply,SBD,M
Boys,89.81,5,Ignacio Felipe,Hico,88.9,142.88,102.06,136.08,381.02,Single-ply,SBD,M
Boys,89.81,DQ,Jake Holmes,Perrin-Whitt,84.82,167.83,129.27,,,Single-ply,SBD,M
Boys,89.81,DQ,Lukas Kesch,Jacksboro,82.42,,,,,Single-ply,SBD,M
Boys,89.81,DQ,Austin Guthrie,Jacksboro,82.69,188.24,,,,Single-ply,SBD,M
Boys,99.79,1,Adolph Medina,Ballinger,97.39,213.19,140.61,226.8,580.6,Single-ply,SBD,M
Boys,99.79,2,Cody Howard,Jacksboro,98.61,213.19,127.01,208.65,548.85,Single-ply,SBD,M
Boys,99.79,3,Caiden Vasquez,Jacksboro,96.89,226.8,106.59,201.85,535.24,Single-ply,SBD,M
Boys,99.79,4,Caleb Smith,Stephenville,92.62,197.31,129.27,206.38,532.97,Single-ply,SBD,M
Boys,99.79,5,Tanner Isom,Blanket,96.84,181.44,115.67,195.04,492.15,Single-ply,SBD,M
Boys,99.79,6,Gage Hodges,Perrin-Whitt,98.25,161.03,90.72,181.44,433.18,Single-ply,SBD,M
Boys,99.79,7,Christian Fuentez,Perrin-Whitt,92.67,154.22,90.72,181.44,426.38,Single-ply,SBD,M
Boys,99.79,8,Jacob Harvin,Hico,95.84,158.76,99.79,158.76,417.3,Single-ply,SBD,M
Boys,99.79,9,Brenden McKinney,Hico,93.21,145.15,74.84,158.76,378.75,Single-ply,SBD,M
Boys,99.79,10,Mario Morales #3,Blanket,94.44,145.15,86.18,147.42,378.75,Single-ply,SBD,M
Boys,109.77,1,Zac Hudgins,Burnet,107.59,249.48,158.76,233.6,641.83,Single-ply,SBD,M
Boys,109.77,2,Max Stava,Brock,104.78,215.46,163.29,240.4,619.15,Single-ply,SBD,M
Boys,109.77,3,Zeke Ibarra,Brownwood,106.64,215.46,151.95,213.19,580.6,Single-ply,SBD,M
Boys,109.77,4,Brad Robinson,Brownwood,109.09,226.8,136.08,192.78,555.65,Single-ply,SBD,M
Boys,109.77,5,Daniel Aguilar,Millsap,107.05,224.53,117.93,201.85,544.31,Single-ply,SBD,M
Boys,109.77,6,Zack Matzke,Brock,101.29,226.8,124.74,188.24,539.77,Single-ply,SBD,M
Boys,109.77,7,Arturo Guerrero,Millsap,106.78,215.46,120.2,181.44,517.1,Single-ply,SBD,M
Boys,109.77,8,Zack Shivers,Brock,107.14,204.12,120.2,181.44,505.76,Single-ply,SBD,M
Boys,109.77,9,Karson Zant,Hico,102.38,158.76,83.91,183.7,426.38,Single-ply,SBD,M
Boys,109.77,DQ,Donovan Brooks,Merkel,108.23,,,,,Single-ply,SBD,M
Boys,124.74,1,Astin Carr,Hamilton,112.58,244.94,167.83,197.31,610.08,Single-ply,SBD,M
Boys,124.74,2,Jahaziel Compeon,Hillsboro,121.97,231.33,136.08,204.12,571.53,Single-ply,SBD,M
Boys,124.74,DQ,Jayden Hostetter,Ballinger,119.29,217.72,122.47,,,Single-ply,SBD,M
Boys,124.74,DQ,Alex Kinzer,Brock,112.94,229.06,,,,Single-ply,SBD,M
Boys,124.74,DQ,Hayden Henry,Burnet,117.21,229.06,117.93,,,Single-ply,SBD,M
Boys,124.74+,1,Theo Bryant,Brownwood,125.1,283.5,147.42,229.06,659.98,Single-ply,SBD,M
Boys,124.74+,2,Seth Bynum-Graham,Hillsboro,178.22,244.94,138.35,204.12,587.4,Single-ply,SBD,M
Boys,124.74+,3,Nick Bourdelais,Millsap,127.01,226.8,127.01,226.8,580.6,Single-ply,SBD,M
Boys,124.74+,4,Jaxon O'Kelly,Merkel,137.76,235.87,136.08,208.65,580.6,Single-ply,SBD,M
Boys,124.74+,5,Cesar Espinoza,Strawn,127.01,136.08,92.99,147.42,376.48,Single-ply,SBD,M
Boys,124.74+,DQ,Mason Damron,Jacksboro,134.13,265.35,117.93,,,Single-ply,SBD,M
Boys,124.74+,DQ,Jake Knuppel,Crawford,135.99,249.48,111.13,,,Single-ply,SBD,M
