Name,BirthYear,WeightClassKg,BodyweightKg,Country,Best3SquatKg,Best3BenchKg,Best3DeadliftKg,TotalKg,Sex,Division,Event,Equipment,Place
John Maxwell,,52,50.2,UK,175,92.5,225,492.5,M,Open,SBD,Single-ply,1
Kari Ojalehto,1948,52,51.5,Finland,195,105,192.5,492.5,M,Open,SBD,Single-ply,2
Kari Ylijoki,1962,52,51.2,Finland,190,135,157.5,482.5,M,Open,SBD,Single-ply,3
Dušan Skirkanič,1961,52,51.7,Czechia,175,107.5,180,462.5,M,Open,SBD,Single-ply,4
Josef Fenzl,,52,51.8,Austria,140,75,160,375,M,Open,SBD,Single-ply,5
Johann Mandl,1948,52,51.6,Austria,125,67.5,160,352.5,M,Open,SBD,Single-ply,6
John Clay,,52,51.8,UK,,,,,M,Open,SBD,Single-ply,DQ
Joachim Mödl,1966,52,51.5,Germany,,,,,M,Open,SBD,Single-ply,DQ
Gerard McNamara #1,,56,55.3,Ireland,192.5,120,215,527.5,M,Open,SBD,Single-ply,1
Gary Simes,,56,55.2,UK,210,107.5,205,522.5,M,Open,SBD,Single-ply,2
Bernard Vincent,,56,55.6,France,177.5,110,220,507.5,M,Open,SBD,Single-ply,3
Marco de Vries,,56,55.7,Netherlands,182.5,102,205,490,M,Open,SBD,Single-ply,4
Fabio Ambrosin,1966,56,54,Italy,190,95,200,485,M,Open,SBD,Single-ply,5
Charlie Smith,,56,55.3,Netherlands,175,105,195,475,M,Open,SBD,Single-ply,6
Klemen Jaschinski,,56,55,Germany,160,107.5,180,447.5,M,Open,SBD,Single-ply,7
Franco Chiericini,,56,54.7,Italy,,,,,M,Open,SBD,Single-ply,DQ
Gerard Tromp,,60,59.6,Netherlands,245,135,220,600,M,Open,SBD,Single-ply,1
Lucien DeFaria,,60,59.2,France,185,122.5,260,567.5,M,Open,SBD,Single-ply,2
Ronny Celis,,60,58.8,Belgium,205,117.5,230,,M,Open,SBD,Single-ply,DD
Anton Mihok,1957,60,59.7,Czechia,195,132.5,220,547.5,M,Open,SBD,Single-ply,3
Jan-Tore Bredalen,,60,60,Norway,200,122.5,225,547.5,M,Open,SBD,Single-ply,4
Rafael Lopez,1958,60,59.3,Spain,195,117.5,230,542.5,M,Open,SBD,Single-ply,5
Günter Icks,1951,60,59.3,Germany,200,120,215,535,M,Open,SBD,Single-ply,6
Tom Warby,,60,59.3,Ireland,205,112.5,212.5,530,M,Open,SBD,Single-ply,7
Berndt Von Döllen,1960,60,59.3,Germany,190,125,175,490,M,Open,SBD,Single-ply,8
Eddy Pengelly,,67.5,67.4,UK,245,147.5,255,647.5,M,Open,SBD,Single-ply,1
Frank Van Wemmel,,67.5,66.2,Belgium,245,120,260,625,M,Open,SBD,Single-ply,2
Peter Lux,1960,67.5,65.2,Germany,220,145,230,595,M,Open,SBD,Single-ply,3
Maurice O'Connor,,67.5,67.2,Ireland,205,130,260,595,M,Open,SBD,Single-ply,4
Paul McCabe,,67.5,67.5,Ireland,200,117.5,220,537.5,M,Open,SBD,Single-ply,5
Jose Garcia,1964,67.5,66.5,Spain,175,135,220,530,M,Open,SBD,Single-ply,6
Josef Trnka,1959,67.5,67.2,Czechia,,,,,M,Open,SBD,Single-ply,DQ
Jarmo Virtanen,1963,75,75,Finland,300,175,333,807.5,M,Open,SBD,Single-ply,1
Eduardo Cruz Rubio,1954,75,74.1,Spain,277.9,147.5,280,705,M,Open,SBD,Single-ply,2
Kåre Lundgren,,75,74.7,Sweden,275,157.5,272.5,705,M,Open,SBD,Single-ply,3
Victor Okeke,,75,74.7,UK,255,135,307.5,697.5,M,Open,SBD,Single-ply,4
Frédéric Buttigieg,,75,74.1,France,252.5,150,275,677.5,M,Open,SBD,Single-ply,5
Harrie van den Brand,,75,74.7,Netherlands,255,142.5,270,667.5,M,Open,SBD,Single-ply,6
Francis Mezzamtte,,75,73.5,Belgium,250,135,280,665,M,Open,SBD,Single-ply,7
Pietro Andreatta,1947,75,74.2,Italy,255,130,255,640,M,Open,SBD,Single-ply,8
Gerhard Anton Mayer,1962,75,73.6,Austria,235,127.5,235,597.5,M,Open,SBD,Single-ply,9
Des Scott,,75,74.7,Ireland,185,100,230,515,M,Open,SBD,Single-ply,10
Raffaele Brasile,1946,82.5,81.9,Italy,302.5,167.5,312.5,782.5,M,Open,SBD,Single-ply,1
Harrru Malinen,1955,82.5,81.8,Finland,260,177.5,332.5,770,M,Open,SBD,Single-ply,2
Davide Cantoni,1964,82.5,81.5,Italy,312.5,150,300,762.5,M,Open,SBD,Single-ply,3
Knuth Johansson,,82.5,82.4,Norway,260,152.5,317.5,730,M,Open,SBD,Single-ply,5
Jón Gunnarsson,1959,82.5,82.2,Iceland,300,160,290,750,M,Open,SBD,Single-ply,4
Christer Jonasson,,82.5,82.4,Sweden,272.5,160,290,722.5,M,Open,SBD,Single-ply,6
Frank Schramm,1963,82.5,81,Germany,255,180,235,670,M,Open,SBD,Single-ply,7
Guy De Vriendt,,82.5,80.5,Belgium,260,135,260,655,M,Open,SBD,Single-ply,8
Doreev Dobrovoje,,82.5,82.5,Yugoslavia,230,165,260,655,M,Open,SBD,Single-ply,9
Fröde Gundersen #1,,82.5,81.5,Norway,200,145,260,605,M,Open,SBD,Single-ply,10
Edu Hernandez,1952,82.5,80.3,Spain,,,,,M,Open,SBD,Single-ply,DQ
Claudio Ardini,1953,90,88.4,Italy,280,227.5,315,822.5,M,Open,SBD,Single-ply,1
Yuha Hyttinen,1964,90,89.6,Finland,310,190,310,810,M,Open,SBD,Single-ply,2
Floreano Domenici,1954,90,88.5,Italy,290,190,310,790,M,Open,SBD,Single-ply,3
Ad Schenkels,,90,86.4,Netherlands,290,175,307.5,772.5,M,Open,SBD,Single-ply,4
Ove Hansen,,90,90,Norway,270,200,297.5,767.5,M,Open,SBD,Single-ply,5
Janus Schneider,,90,86.9,Netherlands,285,195,275,755,M,Open,SBD,Single-ply,6
Jon Berg,,90,89.5,Norway,255,195,275,725,M,Open,SBD,Single-ply,7
Jan Seghers,,90,87,Belgium,250,157.5,300,707.5,M,Open,SBD,Single-ply,8
Johann Leib,1961,90,86.7,Austria,265,165,245,675,M,Open,SBD,Single-ply,9
Aare Käppylä,1964,100,99.2,Finland,320,180,363,862.5,M,Open,SBD,Single-ply,1
Leif Wallander,,100,99.5,Sweden,300,190,320,810,M,Open,SBD,Single-ply,2
Ralph Farquharson,,100,99.6,UK,305,182.5,312.5,800,M,Open,SBD,Single-ply,3
Hennie Hijman,,100,98.6,Netherlands,320,187.5,290,797.5,M,Open,SBD,Single-ply,4
Gino Motagni,,100,94.4,Belgium,287.5,160,302.5,750,M,Open,SBD,Single-ply,5
Milan Gabrhel,1958,100,98.7,Czechia,290,190,270,750,M,Open,SBD,Single-ply,6
Anton Tucek,1966,100,93.5,Austria,285,170,270,725,M,Open,SBD,Single-ply,7
Josef Muss,1964,100,96.2,Austria,260,165,300,725,M,Open,SBD,Single-ply,8
Gavlilov Radovan,,100,98.9,Yugoslavia,250,170,250,670,M,Open,SBD,Single-ply,9
Andrew Fogart,,100,98.3,Ireland,230,117.5,265,612.5,M,Open,SBD,Single-ply,10
Hugo de Grauwe,,100,99.9,Belgium,,,,,M,Open,SBD,Single-ply,DQ
Arthur White,1951,110,109.3,UK,325,195,350,,M,Open,SBD,Single-ply,DD
Conny Nilsson,1955,110,107.5,Sweden,340,207.5,310,857.5,M,Open,SBD,Single-ply,1
Erik Johanssen,1938,110,109.1,Sweden,290,215,342.5,847.5,M,Open,SBD,Single-ply,2
Conny De Btois,1951,110,109.4,Germany,310,200,337.5,847.5,M,Open,SBD,Single-ply,3
Ruppert Moerth,1951,110,108.4,Austria,300,180,320,800,M,Open,SBD,Single-ply,4
Benjamin Oria,1950,110,108.9,Spain,270,167.5,340,777.5,M,Open,SBD,Single-ply,5
Hans Derynckx,1956,110,108.5,Belgium,290,162.5,290,742.5,M,Open,SBD,Single-ply,6
Jill Keane,1957,110,107.3,Ireland,270,195,215,680,M,Open,SBD,Single-ply,7
Snabjoern Adilis,1963,110,105.9,Iceland,,,,,M,Open,SBD,Single-ply,DQ
Sava Vasilijevski,1950,110,108,Yugoslavia,,,,,M,Open,SBD,Single-ply,DQ
Dirk Pessemier,1966,110,108.5,Belgium,245,130,,,M,Open,SBD,Single-ply,DQ
Leopold Krendl,1957,110,109.2,Austria,,,,,M,Open,SBD,Single-ply,DQ
Anders Eriksson,1959,125,123.7,Sweden,330,205,320,855,M,Open,SBD,Single-ply,1
Soeren Oldenborg,,125,120.4,Denmark,325,225,300,850,M,Open,SBD,Single-ply,2
Manfred Poschenrieder,1956,125,124.8,Germany,325,170,352.5,847.5,M,Open,SBD,Single-ply,3
Antonio Tacito,1958,125,118.7,Italy,320,205,312.5,837.5,M,Open,SBD,Single-ply,4
Joergen Lindblatt,1964,125,125,Sweden,310,217.5,300,827.5,M,Open,SBD,Single-ply,5
Karl Salislrl,,125,123.3,Austria,302.5,202.5,290,795,M,Open,SBD,Single-ply,6
Rudolf Küster,1955,125+,127.5,Germany,335,190,375,900,M,Open,SBD,Single-ply,1
Thomas Stenlund,1958,125+,139.8,Sweden,340,210,350,900,M,Open,SBD,Single-ply,2
Jean-Pierre Brulois,,125+,139.4,France,330,217.5,320,867.5,M,Open,SBD,Single-ply,3
Sonny Eriksson,1963,125+,127.5,Sweden,320,200,335,855,M,Open,SBD,Single-ply,4
John Mercer,1957,125+,129.3,UK,305,205,335,845,M,Open,SBD,Single-ply,5
Peter Tregloan,,125+,139.3,UK,300,195,335,830,M,Open,SBD,Single-ply,6
Enrique Soriano,1956,125+,144.2,Spain,300,165,305,770,M,Open,SBD,Single-ply,7
Wim Backeland,1963,125+,127.5,Belgium,290,175,260,725,M,Open,SBD,Single-ply,8
Tommy Olsen,,125+,140.1,Norway,320,220,,,M,Open,SBD,Single-ply,DQ
