Division,WeightClassKg,Place,Name,Team,BodyweightKg,Best3SquatKg,Best3BenchKg,Best3DeadliftKg,TotalKg,Equipment,Event,Sex
Boys,51.71,1,Danny Carrillo,Waxahachie,51.53,140.61,74.84,154.22,369.68,Single-ply,SBD,M
Boys,51.71,2,Oscar Yanez,Sulphur Springs,50.89,117.93,81.65,140.61,340.19,Single-ply,SBD,M
Boys,51.71,3,Jon'Khavien Bates,Longview,49.62,127.01,77.11,133.81,337.93,Single-ply,SBD,M
Boys,51.71,4,Milthon Torres,Nacogdoches,51.17,108.86,81.65,133.81,324.32,Single-ply,SBD,M
Boys,51.71,5,Jason Botkin,Corsicana,48.72,122.47,58.97,136.08,317.51,Single-ply,SBD,M
Boys,51.71,6,Ethan Peace,Waxahachie,50.08,104.33,47.63,113.4,265.35,Single-ply,SBD,M
Boys,51.71,7,Michael Harris,Waxahachie,51.71,90.72,61.23,113.4,265.35,Single-ply,SBD,M
Boys,51.71,8,Jacob Semler,Sulphur Springs,50.89,99.79,52.16,106.59,258.55,Single-ply,SBD,M
Boys,51.71,9,Alec Page,Tyler Lee,46.72,88.45,38.56,83.91,210.92,Single-ply,SBD,M
Boys,51.71,DQ,Gio Lozano,North Forney,49.53,92.99,,,,Single-ply,SBD,M
Boys,51.71,DQ,Jacob Gray,Longview Pine Tree,51.71,,,,,Single-ply,SBD,M
Boys,51.71,DQ,Preston Matlock,Tyler,48.17,,,,,Single-ply,SBD,M
Boys,55.79,1,Kain Gala,Hallsville,54.79,197.31,136.08,174.63,508.02,Single-ply,SBD,M
Boys,55.79,2,Bryan Rodriguez,Greenville,53.34,167.83,86.18,156.49,410.5,Single-ply,SBD,M
Boys,55.79,3,Richard Rodriguez,Whitehouse,55.61,154.22,83.91,158.76,396.89,Single-ply,SBD,M
Boys,55.79,4,Christian Charles,Ennis,55.43,136.08,88.45,170.1,394.63,Single-ply,SBD,M
Boys,55.79,5,Memphis Dorsey,Lindale,55.7,151.95,77.11,161.03,390.09,Single-ply,SBD,M
Boys,55.79,6,Genbard Lumino,Midlothian,54.88,147.42,70.31,163.29,381.02,Single-ply,SBD,M
Boys,55.79,7,Caden Hawkins,Hallsville,55.07,138.35,88.45,138.35,365.14,Single-ply,SBD,M
Boys,55.79,8,Daniel Irvin,Longview Pine Tree,55.16,131.54,79.38,142.88,353.8,Single-ply,SBD,M
Boys,55.79,9,Vann Rainer,Tyler Lee,55.79,138.35,58.97,136.08,333.39,Single-ply,SBD,M
Boys,55.79,10,Lukas Gill,Tyler Lee,55.34,129.27,72.57,127.01,328.85,Single-ply,SBD,M
Boys,55.79,11,Juan Botello,Red Oak,54.88,124.74,63.5,124.74,312.98,Single-ply,SBD,M
Boys,55.79,12,Mardreus Ward,Tyler,52.71,104.33,54.43,104.33,263.08,Single-ply,SBD,M
Boys,59.87,1,Jesus Reyes,Ennis,59.69,176.9,113.4,176.9,467.2,Single-ply,SBD,M
Boys,59.87,2,Dax Lott,Waxahachie,58.97,181.44,113.4,165.56,460.4,Single-ply,SBD,M
Boys,59.87,3,Jaiden Garrick,Lindale,59.06,179.17,92.99,185.97,458.13,Single-ply,SBD,M
Boys,59.87,4,Patrick Dishman,Huntsville,56.52,174.63,88.45,163.29,426.38,Single-ply,SBD,M
Boys,59.87,5,Dalton Serrato,Longview,59.87,165.56,81.65,161.03,408.23,Single-ply,SBD,M
Boys,59.87,6,Jonathan Martin,Forney,57.88,142.88,88.45,165.56,396.89,Single-ply,SBD,M
Boys,59.87,7,Jeremiah Sheffie,Tyler Lee,59.78,145.15,86.18,156.49,387.82,Single-ply,SBD,M
Boys,59.87,8,Caden Pickard,Longview Pine Tree,57.79,145.15,83.91,151.95,381.02,Single-ply,SBD,M
Boys,59.87,9,Wyatt Achey,Midlothian,59.15,149.69,65.77,147.42,362.87,Single-ply,SBD,M
Boys,59.87,10,Hunter Clemmons,Tyler Lee,59.24,117.93,54.43,149.69,322.05,Single-ply,SBD,M
Boys,59.87,11,Mario Carrasco,Whitehouse,58.51,104.33,79.38,131.54,315.25,Single-ply,SBD,M
Boys,59.87,12,Ben Neichlic,Red Oak,56.43,111.13,52.16,127.01,290.3,Single-ply,SBD,M
Boys,67.13,1,Deondre Brown,Corsicana,65.77,208.65,117.93,215.46,542.04,Single-ply,SBD,M
Boys,67.13,2,Jaden Taylor,Lindale,66.22,199.58,104.33,215.46,519.36,Single-ply,SBD,M
Boys,67.13,3,Orran Simmons,Longview Pine Tree,66.32,188.24,117.93,197.31,503.49,Single-ply,SBD,M
Boys,67.13,4,Keandre Nesbitt,Longview Pine Tree,66.86,181.44,104.33,195.04,480.81,Single-ply,SBD,M
Boys,67.13,5,Riley Angel,Midlothian,64.05,176.9,102.06,199.58,478.54,Single-ply,SBD,M
Boys,67.13,6,Jaden Basham,Waxahachie,64.77,181.44,106.59,185.97,474,Single-ply,SBD,M
Boys,67.13,7,Julian Fierros,Longview Pine Tree,66.32,174.63,115.67,181.44,471.74,Single-ply,SBD,M
Boys,67.13,8,Alejandro Vasquez,Greenville,63.96,192.78,95.25,181.44,469.47,Single-ply,SBD,M
Boys,67.13,9,Jesse Carillo,Sulphur Springs,65.95,170.1,115.67,174.63,460.4,Single-ply,SBD,M
Boys,67.13,10,Bryce Gregory,Tyler Lee,66.13,170.1,104.33,181.44,455.86,Single-ply,SBD,M
Boys,67.13,11,Gavin West,Forney,66.32,174.63,97.52,179.17,451.32,Single-ply,SBD,M
Boys,67.13,12,Akil Lewis,Forney,66.77,167.83,102.06,181.44,451.32,Single-ply,SBD,M
Boys,74.84,1,Nolan Haden,Ennis,69.94,272.16,154.22,229.06,655.44,Single-ply,SBD,M
Boys,74.84,2,Chaez Spurlock,Whitehouse,74.3,210.92,140.61,226.8,578.33,Single-ply,SBD,M
Boys,74.84,3,Gabriel Dexter,Forney,73.84,229.06,142.88,204.12,576.06,Single-ply,SBD,M
Boys,74.84,4,Jamichael Turman,Tyler Lee,71.21,231.33,136.08,195.04,562.45,Single-ply,SBD,M
Boys,74.84,5,Jaden Schroeder,Huntsville,70.03,210.92,113.4,233.6,557.92,Single-ply,SBD,M
Boys,74.84,6,Zavion Jackson,Greenville,74.57,224.53,120.2,192.78,537.51,Single-ply,SBD,M
Boys,74.84,7,D'Tyler Mason,Waxahachie,70.4,195.04,115.67,199.58,510.29,Single-ply,SBD,M
Boys,74.84,8,Malik Cannon,Longview,70.85,181.44,106.59,215.46,503.49,Single-ply,SBD,M
Boys,74.84,9,Quincy Johnson,Waxahachie,73.3,176.9,127.01,199.58,503.49,Single-ply,SBD,M
Boys,74.84,10,Cody McLaren,Huntsville,72.39,188.24,117.93,190.51,496.68,Single-ply,SBD,M
Boys,74.84,DQ,Jordan Martin,Whitehouse,72.48,,,,,Single-ply,SBD,M
Boys,74.84,DQ,Anthony Perez,North Forney,74.84,192.78,,,,Single-ply,SBD,M
Boys,82.1,1,Jayden Smith,Longview Pine Tree,79.65,260.82,131.54,235.87,628.23,Single-ply,SBD,M
Boys,82.1,2,Carson Bridges,Sulphur Springs,78.93,231.33,127.01,254.01,612.35,Single-ply,SBD,M
Boys,82.1,3,Jayton DeLeon,Midlothian,80.2,238.14,142.88,231.33,612.35,Single-ply,SBD,M
Boys,82.1,4,Dominique Felder,Hallsville,78.93,231.33,133.81,242.67,607.81,Single-ply,SBD,M
Boys,82.1,5,Brayden Bulman,Whitehouse,81.1,215.46,142.88,240.4,598.74,Single-ply,SBD,M
Boys,82.1,6,Giancarlos Belteton,Greenville,79.83,231.33,129.27,201.85,562.45,Single-ply,SBD,M
Boys,82.1,7,Leo Hernandez #2,Ennis,79.11,213.19,117.93,226.8,557.92,Single-ply,SBD,M
Boys,82.1,8,Christian Arthur,Lufkin,82.1,208.65,124.74,219.99,553.38,Single-ply,SBD,M
Boys,82.1,9,Jarred McLean,Tyler Lee,79.74,197.31,117.93,210.92,526.17,Single-ply,SBD,M
Boys,82.1,10,Jonathen Guerrero,Waxahachie,80.1,201.85,120.2,201.85,523.9,Single-ply,SBD,M
Boys,82.1,11,Greyson Burrus,Forney,78.56,190.51,106.59,181.44,478.54,Single-ply,SBD,M
Boys,82.1,DQ,Eric Dickson,Corsicana,77.84,,,,,Single-ply,SBD,M
Boys,89.81,1,Isaiah Nies,Ennis,83.01,292.57,170.1,267.62,730.28,Single-ply,SBD,M
Boys,89.81,2,Tucker Momon,Greenville,86.73,256.28,129.27,272.16,657.71,Single-ply,SBD,M
Boys,89.81,3,Kelpatrick Manning,Huntsville,89.36,249.48,156.49,233.6,639.57,Single-ply,SBD,M
Boys,89.81,4,Ethan Thornton,Lindale,87.72,244.94,140.61,251.74,637.3,Single-ply,SBD,M
Boys,89.81,5,George Greenway,Sulphur Springs,86.36,249.48,136.08,249.48,635.03,Single-ply,SBD,M
Boys,89.81,6,Deaundre Heath,Longview Pine Tree,88.09,235.87,133.81,208.65,578.33,Single-ply,SBD,M
Boys,89.81,7,Caden Davis,Sulphur Springs,82.37,204.12,145.15,213.19,562.45,Single-ply,SBD,M
Boys,89.81,8,Jordan Brown,Huntsville,88.09,208.65,136.08,210.92,555.65,Single-ply,SBD,M
Boys,89.81,9,Miles Tatum,Huntsville,84.1,208.65,124.74,217.72,551.11,Single-ply,SBD,M
Boys,89.81,10,Jonathan Woods,Mount Pleasant,88.45,219.99,127.01,201.85,548.85,Single-ply,SBD,M
Boys,89.81,11,Aaron Watson,Red Oak,87.36,192.78,129.27,204.12,526.17,Single-ply,SBD,M
Boys,89.81,12,Colton Munoz,Longview Pine Tree,84.28,185.97,127.01,210.92,523.9,Single-ply,SBD,M
Boys,99.79,1,Trestin Whitehead,Texarkana Texas,97.89,254.01,158.76,247.21,659.98,Single-ply,SBD,M
Boys,99.79,2,Simon Rico,Greenville,96.71,263.08,156.49,238.14,657.71,Single-ply,SBD,M
Boys,99.79,3,Nick Gregory,Lindale,99.25,249.48,151.95,256.28,657.71,Single-ply,SBD,M
Boys,99.79,4,Anthony Perales,Red Oak,93.17,249.48,142.88,229.06,621.42,Single-ply,SBD,M
Boys,99.79,5,Harry Waltis,Corsicana,95.07,238.14,131.54,247.21,616.89,Single-ply,SBD,M
Boys,99.79,6,Briceon Hayes,Huntsville,98.79,233.6,136.08,247.21,616.89,Single-ply,SBD,M
Boys,99.79,7,Justin Patton,Lufkin,98.88,254.01,127.01,235.87,616.89,Single-ply,SBD,M
Boys,99.79,8,Kadarian Asbell,Tyler,96.34,233.6,131.54,231.33,596.47,Single-ply,SBD,M
Boys,99.79,9,Kenneth Randall,Kaufman,97.79,231.33,117.93,244.94,594.21,Single-ply,SBD,M
Boys,99.79,10,Jt Cavender,Midlothian,95.16,219.99,129.27,242.67,591.94,Single-ply,SBD,M
Boys,99.79,11,Quay Burleigh,Nacogdoches,99.7,226.8,133.81,226.8,587.4,Single-ply,SBD,M
Boys,99.79,12,Jaeryn Green,Huntsville,94.08,217.72,136.08,226.8,580.6,Single-ply,SBD,M
Boys,99.79,13,Graham Burns,Forney,93.89,226.8,127.01,217.72,571.53,Single-ply,SBD,M
Boys,109.77,1,Brevin Randle,Marshall,103.15,263.08,149.69,263.08,675.85,Single-ply,SBD,M
Boys,109.77,2,James Sandifer,Lindale,107.05,263.08,140.61,260.82,664.51,Single-ply,SBD,M
Boys,109.77,3,Joseph Chavez,Waxahachie,105.14,256.28,167.83,231.33,655.44,Single-ply,SBD,M
Boys,109.77,4,George Lias,Mount Pleasant,107.14,283.5,138.35,226.8,648.64,Single-ply,SBD,M
Boys,109.77,5,Oscar Osorio,Greenville,108.32,244.94,167.83,233.6,646.37,Single-ply,SBD,M
Boys,109.77,6,Eliaser Tamayo,Huntsville,108.23,244.94,140.61,242.67,628.23,Single-ply,SBD,M
Boys,109.77,7,Joel Guerrero,Mount Pleasant,106.05,263.08,145.15,210.92,619.15,Single-ply,SBD,M
Boys,109.77,8,Jashon Pogue,Mount Pleasant,108.14,208.65,131.54,244.94,585.13,Single-ply,SBD,M
Boys,109.77,9,Jagger Ochoa,Lindale,109.13,238.14,117.93,229.06,585.13,Single-ply,SBD,M
Boys,109.77,10,Johnathan Housley,Whitehouse,103.69,208.65,138.35,217.72,564.72,Single-ply,SBD,M
Boys,109.77,11,Clifford Funderburk,North Forney,107.14,215.46,111.13,235.87,562.45,Single-ply,SBD,M
Boys,109.77,12,Zyaun Jones,Red Oak,106.23,204.12,142.88,204.12,551.11,Single-ply,SBD,M
Boys,124.74,1,Dillon Brooks,Huntsville,123.29,265.35,163.29,281.23,709.87,Single-ply,SBD,M
Boys,124.74,2,Darius Trimble,Whitehouse,116.66,267.62,163.29,260.82,691.73,Single-ply,SBD,M
Boys,124.74,3,Keith Burkes,Longview Pine Tree,124.38,290.3,147.42,244.94,682.66,Single-ply,SBD,M
Boys,124.74,4,Zykee Allen,Lufkin,119.84,258.55,158.76,263.08,680.39,Single-ply,SBD,M
Boys,124.74,5,Jesse Hamelinck,Lindale,123.92,278.96,156.49,242.67,678.12,Single-ply,SBD,M
Boys,124.74,6,Jace Phillips #1,Lindale,120.75,274.42,142.88,226.8,644.1,Single-ply,SBD,M
Boys,124.74,7,Kenny Castro,Corsicana,119.02,226.8,151.95,226.8,605.55,Single-ply,SBD,M
Boys,124.74,8,Denton Ross,Waxahachie,119.75,247.21,138.35,215.46,601.01,Single-ply,SBD,M
Boys,124.74,9,Kobie Vasquez,Ennis,118.48,226.8,127.01,226.8,580.6,Single-ply,SBD,M
Boys,124.74,10,Alejandro Moreno,Waxahachie,110.59,206.38,133.81,215.46,555.65,Single-ply,SBD,M
Boys,124.74,DQ,Mike Jones #7,Nacogdoches,112.31,249.48,127.01,,,Single-ply,SBD,M
Boys,124.74+,1,Carl Williams,Lufkin,161.84,319.78,183.7,310.71,814.2,Single-ply,SBD,M
Boys,124.74+,2,Brandon Bobino,Huntsville,165.47,319.78,190.51,244.94,755.23,Single-ply,SBD,M
Boys,124.74+,3,Matthew Davis,Lindale,178.9,317.51,154.22,254.01,725.75,Single-ply,SBD,M
Boys,124.74+,4,Duane Johnson,Midlothian,137.08,272.16,183.7,249.48,705.34,Single-ply,SBD,M
Boys,124.74+,5,David Mejia,Huntsville,138.44,265.35,185.97,219.99,671.32,Single-ply,SBD,M
Boys,124.74+,6,Christian Hoold,Marshall,139.71,272.16,147.42,244.94,664.51,Single-ply,SBD,M
Boys,124.74+,7,Brayshun Parish,Corsicana,128.46,285.76,142.88,233.6,662.24,Single-ply,SBD,M
Boys,124.74+,8,Marshal Hodges,Midlothian,129.55,249.48,158.76,249.48,657.71,Single-ply,SBD,M
Boys,124.74+,9,Atyias Casteel,Huntsville,129.82,267.62,167.83,215.46,650.91,Single-ply,SBD,M
Boys,124.74+,10,Cade Crawford,Forney,135.81,292.57,149.69,192.78,635.03,Single-ply,SBD,M
Boys,124.74+,DQ,Derrick Rigsby,Huntsville,137.26,,,,,Single-ply,SBD,M
Boys,124.74+,DQ,Mike Glass,Hallsville,133.27,,,,,Single-ply,SBD,M
