Division,WeightClassKg,Place,Name,Team,BodyweightKg,Best3SquatKg,Best3BenchKg,Best3DeadliftKg,TotalKg,Equipment,Event,Sex,BirthDate
Boys,51.71,1,Colby Plasterer,Ore City,50.03,113.4,68.04,124.74,306.17,Single-ply,SBD,M,
Boys,51.71,2,Avery Whitlow,Atlanta,48.9,106.59,61.23,115.67,283.5,Single-ply,SBD,M,
Boys,51.71,3,Landon Caudle,Maud,47.81,70.31,49.9,90.72,210.92,Single-ply,SBD,M,
Boys,55.79,1,Kadin Daniels,Maud,55.61,127.01,81.65,149.69,358.34,Single-ply,SBD,M,
Boys,55.79,2,Lane Davis,Mount Pleasant Chapel Hill,54.88,129.27,72.57,133.81,335.66,Single-ply,SBD,M,
Boys,55.79,3,Jared Bickham,Maud,55.52,131.54,58.97,127.01,317.51,Single-ply,SBD,M,
Boys,55.79,4,James Toal,Waskom,54.88,111.13,58.97,124.74,294.84,Single-ply,SBD,M,
Boys,59.87,1,Gavin Rhea,Simms Bowie,59.42,145.15,81.65,147.42,374.21,Single-ply,SBD,M,
Boys,59.87,2,Mason Windham,Redwater,59.87,113.4,68.04,140.61,322.05,Single-ply,SBD,M,
Boys,59.87,3,Jason Mullins,Detroit,58.79,113.4,77.11,127.01,317.51,Single-ply,SBD,M,
Boys,59.87,DQ,Karson Bynum,Linden-Kildare,59.78,,,,,Single-ply,SBD,M,
Boys,59.87,DQ,Elijah Webster,Queen City,56.7,,,,,Single-ply,SBD,M,
Boys,67.13,1,Roman Roberts,Redwater,67.13,185.97,99.79,195.04,480.81,Single-ply,SBD,M,
Boys,67.13,2,Claude Scales,Detroit,67.13,172.37,90.72,192.78,455.86,Single-ply,SBD,M,
Boys,67.13,3,Vincent Miller,Gladewater Union Grove,66.86,183.7,111.13,158.76,453.59,Single-ply,SBD,M,
Boys,67.13,4,Camden Ward,Gladewater Sabine,65.59,170.1,97.52,172.37,439.98,Single-ply,SBD,M,
Boys,67.13,5,Juan Munoz,Quinlan Ford,66.86,181.44,88.45,158.76,428.64,Single-ply,SBD,M,
Boys,67.13,6,Nathan Huckabay,Gladewater Union Grove,65.14,145.15,97.52,158.76,401.43,Single-ply,SBD,M,
Boys,67.13,7,Tristin Lee,Maud,66.77,136.08,79.38,138.35,353.8,Single-ply,SBD,M,
Boys,67.13,8,Cameron Aguilar,Gladewater Union Grove,65.32,113.4,83.91,127.01,324.32,Single-ply,SBD,M,
Boys,74.84,1,Devin Walters,Mount Pleasant Chapel Hill,74.3,215.46,133.81,197.31,546.58,Single-ply,SBD,M,
Boys,74.84,2,Paul Leal,De Kalb,74.84,197.31,122.47,190.51,510.29,Single-ply,SBD,M,
Boys,74.84,3,Alec Morris,Gladewater Sabine,70.31,204.12,129.27,174.63,508.02,Single-ply,SBD,M,
Boys,74.84,4,Contreal Juarez,Ladonia Fannindel,74.75,158.76,97.52,217.72,474,Single-ply,SBD,M,
Boys,74.84,5,Cruz Hernandez,De Kalb,69.76,188.24,102.06,174.63,464.93,Single-ply,SBD,M,
Boys,74.84,6,Austin Terry,Queen City,72.57,185.97,90.72,167.83,444.52,Single-ply,SBD,M,
Boys,74.84,7,Blake Moore,Gladewater Union Grove,74.84,154.22,106.59,163.29,424.11,Single-ply,SBD,M,
Boys,74.84,8,Joe Mederos,Quinlan Ford,73.75,145.15,88.45,179.17,412.77,Single-ply,SBD,M,
Boys,74.84,9,Carter Smith,Gladewater Union Grove,70.4,151.95,97.52,154.22,403.7,Single-ply,SBD,M,
Boys,74.84,DQ,Logan Shelton,Atlanta,74.57,195.04,104.33,,,Single-ply,SBD,M,
Boys,82.1,1,Dustin Newman,Mount Pleasant Chapel Hill,81.19,272.16,142.88,233.6,648.64,Single-ply,SBD,M,
Boys,82.1,2,Jordan Stiger,Atlanta,79.92,204.12,113.4,210.92,528.44,Single-ply,SBD,M,
Boys,82.1,3,Ahmajay Carter,Texarkana Liberty-Eylau,77.93,192.78,124.74,201.85,519.36,Single-ply,SBD,M,
Boys,82.1,4,Jaret Allen,Lindale,81.65,192.78,106.59,215.46,514.83,Single-ply,SBD,M,
Boys,82.1,5,Dalton Daniel,New Boston,79.92,235.87,113.4,154.22,503.49,Single-ply,SBD,M,
Boys,82.1,6,Aaron Carillo,Quinlan Ford,77.2,199.58,117.93,181.44,498.95,Single-ply,SBD,M,
Boys,82.1,7,Courtlyn Crabtree,Texarkana Liberty-Eylau,76.93,163.29,102.06,170.1,435.45,Single-ply,SBD,M,
Boys,82.1,8,Parker Key,Jefferson,80.83,142.88,83.91,163.29,390.09,Single-ply,SBD,M,
Boys,89.81,1,Kole Dooley,De Kalb,88.27,226.8,127.01,199.58,553.38,Single-ply,SBD,M,
Boys,89.81,2,Omarr Webber,Lindale,88.36,226.8,113.4,208.65,548.85,Single-ply,SBD,M,
Boys,89.81,3,Easton Minter,Redwater,87,217.72,127.01,185.97,530.7,Single-ply,SBD,M,
Boys,89.81,4,Demitri Coles,Texarkana Texas,85.28,208.65,102.06,204.12,514.83,Single-ply,SBD,M,
Boys,89.81,5,Elias Elizondo,Mount Pleasant,87.91,192.78,92.99,199.58,485.34,Single-ply,SBD,M,
Boys,89.81,6,Tyler Rodgers,Gladewater Union Grove,88.9,190.51,104.33,158.76,453.59,Single-ply,SBD,M,
Boys,89.81,7,Jake Lewis,Tyler All Saints Episcopal School,86.55,151.95,104.33,172.37,428.64,Single-ply,SBD,M,
Boys,89.81,8,James Gilmore,Omaha Pewitt,85.64,156.49,102.06,163.29,421.84,Single-ply,SBD,M,
Boys,89.81,9,Dustyn Rose,Tyler All Saints Episcopal School,89.81,167.83,77.11,172.37,417.3,Single-ply,SBD,M,
Boys,89.81,DQ,Jarmarius Burris,Texarkana Liberty-Eylau,83.46,,,,,Single-ply,SBD,M,
Boys,89.81,DQ,Coltin Reed,Gladewater Sabine,89.81,,,,,Single-ply,SBD,M,
Boys,99.79,1,Trey Adams,Atlanta,93.71,244.94,154.22,226.8,625.96,Single-ply,SBD,M,
Boys,99.79,2,Kei'Untray Hawkins,Omaha Pewitt,92.26,226.8,124.74,238.14,589.67,Single-ply,SBD,M,
Boys,99.79,3,Connor Samples,Atlanta,94.35,217.72,136.08,190.51,544.31,Single-ply,SBD,M,
Boys,99.79,4,Clay Fant,Atlanta,97.52,208.65,131.54,204.12,544.31,Single-ply,SBD,M,
Boys,99.79,5,Ty Blizzard,Atlanta,92.9,192.78,145.15,204.12,542.04,Single-ply,SBD,M,
Boys,99.79,6,Alex Sinclair,Tyler All Saints Episcopal School,93.53,183.7,117.93,208.65,510.29,Single-ply,SBD,M,
Boys,99.79,7,Detrich Byrd,Waskom,99.79,199.58,124.74,176.9,501.22,Single-ply,SBD,M,
Boys,99.79,8,Nick Parker,Redwater,94.62,181.44,127.01,185.97,494.42,Single-ply,SBD,M,
Boys,99.79,9,Brice Hart,Gladewater Union Grove,91.17,174.63,129.27,183.7,487.61,Single-ply,SBD,M,
Boys,99.79,10,Reed Cooper,Gladewater Union Grove,96.25,183.7,102.06,176.9,462.66,Single-ply,SBD,M,
Boys,99.79,11,Branden Dillehay,Ladonia Fannindel,97.07,133.81,83.91,172.37,390.09,Single-ply,SBD,M,
Boys,99.79,12,Toby Childress,Ladonia Fannindel,99.61,102.06,79.38,149.69,331.12,Single-ply,SBD,M,
Boys,99.79,DQ,Brad Parson,Detroit,95.07,208.65,142.88,,,Single-ply,SBD,M,
Boys,99.79,DQ,Jawad Hussein,Redwater,97.07,,,,,Single-ply,SBD,M,
Boys,109.77,1,Trestin Whitehead,Texarkana Texas,100.15,263.08,167.83,229.06,659.98,Single-ply,SBD,M,
Boys,109.77,2,Maleik Riley,Texarkana Liberty-Eylau,104.05,219.99,127.01,229.06,576.06,Single-ply,SBD,M,
Boys,109.77,3,Tanor Mines,Omaha Pewitt,100.97,226.8,129.27,192.78,548.85,Single-ply,SBD,M,
Boys,109.77,4,Hussein Hussein,Redwater,101.51,226.8,108.86,197.31,532.97,Single-ply,SBD,M,
Boys,109.77,5,Tyler Cherry,Jefferson,109.77,181.44,111.13,181.44,474,Single-ply,SBD,M,
Boys,109.77,DQ,Justin Lance,Queen City,108.41,254.01,,,,Single-ply,SBD,M,
Boys,124.74,1,Aidyn Hunter,Texarkana Texas,124.74,272.16,129.27,217.72,619.15,Single-ply,SBD,M,
Boys,124.74,2,Brandon Childs,Texarkana Texas,115.12,242.67,138.35,226.8,607.81,Single-ply,SBD,M,
Boys,124.74,3,Luke Sandifer,Lindale,123.1,233.6,136.08,229.06,598.74,Single-ply,SBD,M,
Boys,124.74,4,Jaden Wells,Atlanta,119.75,235.87,145.15,215.46,596.47,Single-ply,SBD,M,
Boys,124.74,5,James Brandon,Quinlan Ford,115.3,249.48,111.13,219.99,580.6,Single-ply,SBD,M,
Boys,124.74,6,Jacob Kimbrough,Longview Spring Hill,111.77,219.99,127.01,219.99,566.99,Single-ply,SBD,M,
Boys,124.74,7,Jesus Gonzalez,Mount Pleasant,113.76,210.92,129.27,224.53,564.72,Single-ply,SBD,M,
Boys,124.74,8,Gabriel Dials,Texarkana Liberty-Eylau,124.74,204.12,138.35,222.26,564.72,Single-ply,SBD,M,
Boys,124.74,9,David Ardinger,Texarkana Liberty-Eylau,118.39,222.26,120.2,213.19,555.65,Single-ply,SBD,M,
Boys,124.74,10,Christian Surratt,Texarkana Texas,118.39,217.72,124.74,192.78,535.24,Single-ply,SBD,M,
Boys,124.74,11,Landon Liles,Linden-Kildare,122.56,204.12,129.27,181.44,514.83,Single-ply,SBD,M,
Boys,124.74,12,Jacari Moseley,Jefferson,113.31,142.88,124.74,226.8,494.42,Single-ply,SBD,M,
Boys,124.74,13,Hayden Harrell,Texarkana Texas,111.58,174.63,117.93,197.31,489.88,Single-ply,SBD,M,
Boys,124.74,14,Ryan Caperton,Omaha Pewitt,115.67,154.22,102.06,190.51,446.79,Single-ply,SBD,M,
Boys,124.74+,1,Taron Satchell,Marshall,133.54,249.48,140.61,238.14,628.23,Single-ply,SBD,M,
Boys,124.74+,2,Karston Williams,Carthage,158.21,242.67,140.61,233.6,616.89,Single-ply,SBD,M,
Boys,124.74+,3,Rodoflo Fierros,Gladewater Sabine,140.25,249.48,156.49,192.78,598.74,Single-ply,SBD,M,
Boys,124.74+,4,Jason Murphy,Texarkana Liberty-Eylau,146.96,254.01,136.08,204.12,594.21,Single-ply,SBD,M,
Boys,124.74+,5,Joshua Wright,Texarkana Liberty-Eylau,154.22,204.12,140.61,222.26,566.99,Single-ply,SBD,M,
Boys,124.74+,6,Josh Herrera,Mount Pleasant,142.88,254.01,113.4,192.78,560.19,Single-ply,SBD,M,
Boys,124.74+,7,Breoski Warren,Texarkana Texas,159.94,229.06,124.74,181.44,535.24,Single-ply,SBD,M,
Boys,124.74+,8,Laynce Welch,Waskom,127.46,213.19,97.52,172.37,483.08,Single-ply,SBD,M,
Boys,124.74+,9,Carson Harper,Jefferson,154.22,172.37,102.06,142.88,417.3,Single-ply,SBD,M,
Boys,124.74+,DQ,Tyler Welborn,Mount Pleasant,154.67,224.53,,,,Single-ply,SBD,M,
