WeightClassKg,Name,State,Age,BodyweightKg,Squat1Kg,Squat2Kg,Squat3Kg,Best3SquatKg,Bench1Kg,Bench2Kg,Bench3Kg,Best3BenchKg,Deadlift1Kg,Deadlift2Kg,Deadlift3Kg,Best3DeadliftKg,TotalKg,Sex,Equipment,Event,Place,Division
52,Ervin Gainer Sr,IN,36,51.6,192.5,-203,203,203,-125,125,-130,125,-220,220,230,230,558,M,Single-ply,SBD,1,M-O
56,Damarrio Holloway,LA,22,56,192.5,210,215,215,107.5,-112.5,120,120,235,-252.5,-252.5,235,570,M,Single-ply,SBD,1,M-O
56,Peter Wong,MN,24,55.8,185,195,197.5,197.5,142.5,-150,-150,142.5,187.5,197.5,-205,197.5,537.5,M,Single-ply,SBD,2,M-O
56,Michael Hafenbrack,NE,18,55.2,155,170,182.5,182.5,95,102.5,108,108,185,195,-197.5,195,485.5,M,Single-ply,SBD,3,M-O
56,Sam Meadows,IN,46,55.9,-155,155,160,160,107.5,112.5,-115,112.5,197.5,210,-215,210,482.5,M,Single-ply,SBD,4,M-O
60,Hennis Washington,FL,33,59.5,230,242.5,247.5,247.5,135,142.5,145,145,225,230,232.5,232.5,625,M,Single-ply,SBD,1,M-O
60,Trey Cunningham,LA,24,59.9,205,220,227.5,227.5,120,130,-135,130,205,222.5,230,230,587.5,M,Single-ply,SBD,2,M-O
60,James Kavarnos,PA,47,58.3,135,142.5,150,150,95,97.5,100,100,160,175,-182.5,175,425,M,Single-ply,SBD,3,M-O
67.5,Scott Layman,CA,32,67.2,250,-260,260,260,165,-170,-170,165,230,240,-245,240,665,M,Single-ply,SBD,1,M-O
67.5,Greg Simmons #2,IN,38,67.1,235,245,250,250,152.5,157.5,162.5,162.5,237.5,250,-257.5,250,662.5,M,Single-ply,SBD,2,M-O
67.5,Keith Scisney,CO,37,66.9,237.5,-255,255,255,137.5,150,157.5,157.5,217.5,237.5,-252.5,237.5,650,M,Single-ply,SBD,3,M-O
67.5,Greg Page,OH,40,67.3,-237.5,237.5,-250,237.5,150,-155,-157.5,150,237.5,262.5,-280,262.5,650,M,Single-ply,SBD,4,M-O
67.5,Vincent Niediliwka,MI,17,66.2,215,230,235,235,142.5,150,-155,150,227.5,242.5,255,255,640,M,Single-ply,SBD,5,M-O
67.5,Paul Wong,MN,26,67.3,215,-230,-230,215,175,-182.5,-182.5,175,227.5,-235,-235,227.5,617.5,M,Single-ply,SBD,6,M-O
67.5,Lance Slaughter,CA,40,67.3,200,210,-217.5,210,-175,175,-182.5,175,200,210,-215,210,595,M,Single-ply,SBD,7,M-O
75,Wade Hooper,TX,32,74.8,307.5,317.5,330,330,202.5,-210,-210,202.5,252.5,272.5,-287.5,272.5,805,M,Single-ply,SBD,1,M-O
75,Michael Macri,NY,33,74.3,257.5,265,-272.5,265,152.5,-155,155,155,257.5,272.5,277.5,277.5,697.5,M,Single-ply,SBD,2,M-O
75,Sean DiCataldo,RI,35,74.6,237.5,-250,250,250,147.5,155,-160,155,255,262.5,272.5,272.5,677.5,M,Single-ply,SBD,3,M-O
75,David Bracken,NM,39,74.6,250,262.5,-267.5,262.5,155,170,-182.5,170,227.5,237.5,242.5,242.5,675,M,Single-ply,SBD,4,M-O
75,Kenny Davis,NJ,34,74.6,217.5,230,-237.5,230,165,-175,-177.5,165,-245,257.5,-265,257.5,652.5,M,Single-ply,SBD,5,M-O
75,Devin Cagnolatti,LA,30,74.7,210,220,227.5,227.5,172.5,-177.5,177.5,177.5,215,227.5,-245,227.5,632.5,M,Single-ply,SBD,6,M-O
75,Pat Keenan,OH,36,74.6,227.5,240,247.5,247.5,145,-155,-155,145,217.5,225,232.5,232.5,625,M,Single-ply,SBD,7,M-O
75,Eriek Nickson,IN,28,74.4,-262.5,262.5,275,275,-170,-170,-170,,,,,,,M,Single-ply,SBD,DQ,M-O
75,Ed Bridges,IL,38,75,-277.5,-280,-280,,,,,,,,,,,M,Single-ply,SBD,DQ,M-O
82.5,Rich Salvagni,IN,30,81.8,-287.5,-287.5,287.5,287.5,215,230,-240.5,230,250,262.5,-272.5,262.5,780,M,Single-ply,SBD,1,M-O
82.5,Josh Decker,MI,24,81.2,-265,265,277.5,277.5,182.5,192.5,-195,192.5,282.5,-297.5,297.5,297.5,767.5,M,Single-ply,SBD,2,M-O
82.5,Larry Maile,AK,45,82.3,250,265,-275,265,182.5,197.5,-205,197.5,245,260,265,265,727.5,M,Single-ply,SBD,3,M-O
82.5,James Benemerito,NJ,34,80,237.5,252.5,-262.5,252.5,185,195,-202.5,195,237.5,262.5,-280,262.5,710,M,Single-ply,SBD,4,M-O
82.5,Tony Reid,MN,31,80.5,230,-242.5,-242.5,230,170,180,-185,180,260,270,-277.5,270,680,M,Single-ply,SBD,5,M-O
82.5,Travis Pardue,NC,32,81.6,205,227.5,-242.5,227.5,145,165,-172.5,165,245,-265,265,265,657.5,M,Single-ply,SBD,6,M-O
82.5,Phil Gutwein,IN,29,79.4,-227.5,232.5,-245,232.5,-155,-155,-155,,,,,,,M,Single-ply,SBD,DQ,M-O
82.5,Victor Voinovich Jr,OH,32,81.4,240,250,-262.5,250,-177.5,-177.5,-177.5,,,,,,,M,Single-ply,SBD,DQ,M-O
82.5,Phil Harrington,NC,30,82.4,282.5,-295,295,295,-187.5,-187.5,-187.5,,,,,,,M,Single-ply,SBD,DQ,M-O
82.5,Marcus Brandon,GA,28,82.5,-290,-290,-290,,,,,,,,,,,M,Single-ply,SBD,DQ,M-O
90,Ray Benemerito,NJ,36,89.7,315,325,332.5,332.5,-220,-220,220,220,295,320,-327.5,320,872.5,M,Single-ply,SBD,1,M-O
90,Greg Buffington,CA,41,89.6,245,265,272.5,272.5,-185,185,192.5,192.5,245,260,272.5,272.5,737.5,M,Single-ply,SBD,2,M-O
90,Michael Campbell,RI,20,89,245,257.5,265,265,167.5,180,182.5,182.5,242.5,255,265,265,712.5,M,Single-ply,SBD,3,M-O
90,Todd Shelton,NC,34,88.5,227.5,-235,235,235,-182.5,182.5,-185,182.5,-275,287.5,-295,287.5,705,M,Single-ply,SBD,4,M-O
90,Billy Williams,NJ,28,86.3,250,-265,265,265,-185,-185,-185,,,,,,,M,Single-ply,SBD,DQ,M-O
90,Jesse Soule,MI,27,87,-227.5,-227.5,-227.5,,,,,,,,,,,M,Single-ply,SBD,DQ,M-O
90,Greg Jones #1,GA,42,89.5,-292.5,-292.5,-292.5,,,,,,,,,,,M,Single-ply,SBD,DQ,M-O
100,Charr Gahagan,CA,27,98.7,297.5,312.5,322.5,322.5,-195,200,207.5,207.5,330,350,362.5,362.5,892.5,M,Single-ply,SBD,1,M-O
100,Nick Tylutki,MN,24,97.9,310,330,340,340,202.5,207.5,-212.5,207.5,320,-340,342.5,342.5,890,M,Single-ply,SBD,2,M-O
100,Anthony Succarotte,DE,38,99.6,295,-305,305,305,250,263,-267.5,263,297.5,-312.5,315,315,883,M,Single-ply,SBD,3,M-O
100,Tim Mcfarland,WI,30,98.8,305,-317.5,317.5,317.5,185,197.5,205,205,272.5,282.5,-287.5,282.5,805,M,Single-ply,SBD,4,M-O
100,Jason Burnell,CA,38,97.1,297.5,-317.5,-327.5,297.5,180,185,-190,185,267.5,287.5,-307.5,287.5,770,M,Single-ply,SBD,5,M-O
100,Tom Hines,MN,31,97.6,295,310,317.5,317.5,205,-217.5,-217.5,205,25,-27.5,,25,547.5,M,Single-ply,SBD,6,M-O
100,Ryan Stills,WI,26,97.6,300,317.5,-325,317.5,-192.5,-192.5,-192.5,,,,,,,M,Single-ply,SBD,DQ,M-O
100,Jason Shoopman,IN,31,98.6,-275,-275,-275,,,,,,,,,,,M,Single-ply,SBD,DQ,M-O
110,Anthony Harris #1,VA,38,108,335,355,-367.5,355,215,227.5,235,235,272.5,320,325,325,915,M,Single-ply,SBD,1,M-O
110,Kevin Stewart,WA,40,109.5,350,-357.5,-357.5,350,237.5,250,255,255,310,-320,-320,310,915,M,Single-ply,SBD,2,M-O
110,Steve Mann,NY,27,109.9,315,340,347.5,347.5,227.5,237.5,245,245,265,285,-295,285,877.5,M,Single-ply,SBD,3,M-O
110,Angelo Poulich,PA,25,106.5,-295,295,310,310,210,-227.5,-227.5,210,292.5,310,320,320,840,M,Single-ply,SBD,4,M-O
110,Shane Newark,OH,24,109.9,280,292.5,302.5,302.5,232.5,-240,-240,232.5,240,255,-265,255,790,M,Single-ply,SBD,5,M-O
110,Mitch Edelstein,MN,41,100.01,245,255,-260,255,172.5,180,182.5,182.5,260,272.5,-275,272.5,710,M,Single-ply,SBD,6,M-O
110,Mike O'Donnell,IN,26,109.6,-305,305,330,330,-197.5,-197.5,-197.5,,,,,,,M,Single-ply,SBD,DQ,M-O
110,Jon Magendie,LA,30,110,-270,-270,-270,,,,,,,,,,,M,Single-ply,SBD,DQ,M-O
125,Tony Cardella,TX,26,123.8,352.5,365,370,370,237.5,250,-255,250,320,-337,337.5,337.5,957.5,M,Single-ply,SBD,1,M-O
125,Scott Lade,WI,34,124.7,340,360,370,370,290,300,-305,300,280,-287.5,-287.5,280,950,M,Single-ply,SBD,2,M-O
125,Willie Croner,DE,39,123.6,367.5,385,-400,385,215,230,235,235,-322.5,322.5,-330,322.5,942.5,M,Single-ply,SBD,3,M-O
125,Greg Wagner,MN,31,123.6,357.5,377.5,387.5,387.5,247.5,257.5,-262.5,257.5,295,-312.5,-312.5,295,940,M,Single-ply,SBD,4,M-O
125,Ryan Goldin,GA,26,122.7,342.5,360,-372.5,360,252.5,-265,267.5,267.5,287.5,305,-315,305,932.5,M,Single-ply,SBD,5,M-O
125,Sean Culnan,NY,35,124.4,307.5,325,330,330,-235,-235,235,235,322.5,342.5,-367.5,342.5,907.5,M,Single-ply,SBD,6,M-O
125,Brad Madvig,MN,28,123.3,305,-320,322.5,322.5,212.5,222.5,232.5,232.5,300,315,325,325,880,M,Single-ply,SBD,7,M-O
125,Richard Kahle,NM,28,121.5,340,355,-370,355,205,217.5,-227.5,217.5,295,-317.5,,295,867.5,M,Single-ply,SBD,8,M-O
125,Cory Ferrell,DE,33,123,320,332.5,342.5,342.5,-182.5,182.5,-192.5,182.5,322.5,340,-352.5,340,865,M,Single-ply,SBD,9,M-O
125,Scott Ward,WI,34,123.1,305,320,-327.5,320,-227.5,-235,235,235,275,295,-307.5,295,850,M,Single-ply,SBD,10,M-O
125,Kenneth Howard,NY,37,119.6,310,-330,-330,310,-170,170,-180,170,335,347.5,-362.5,347.5,827.5,M,Single-ply,SBD,11,M-O
125,Patrick Anderson,GA,32,120.2,275,310,-320,310,210,-220,220,220,272.5,287.5,-300,287.5,817.5,M,Single-ply,SBD,12,M-O
125,Scott Cartwright,CA,33,123.1,287.5,312.5,325,325,215,230,-237.5,230,235,262.5,-272.5,262.5,817.5,M,Single-ply,SBD,13,M-O
125,Bill Collins,WY,42,122.4,272.5,290,-295,290,215,-227.5,227.5,227.5,-272.5,272.5,290,290,807.5,M,Single-ply,SBD,14,M-O
125,Scott Schoen,WI,33,122.4,265,282.5,-290,282.5,-210,210,-217.5,210,295,312.5,-325,312.5,805,M,Single-ply,SBD,15,M-O
125,Rich Edinger,ND,35,124.6,290,-302.5,302.5,302.5,-195,195,-202.5,195,272.5,290,292.5,292.5,790,M,Single-ply,SBD,16,M-O
125,Michael Hartle,IN,35,123.6,275,287.5,-290,287.5,232.5,240,-245,240,250,260,-272.5,260,787.5,M,Single-ply,SBD,17,M-O
125,Dean Reece,OR,38,123.5,300,320,-332.5,320,197.5,-202.5,-202.5,197.5,235,-250,-250,235,752.5,M,Single-ply,SBD,18,M-O
125,Deron Rogers,TN,38,123.8,310,-325,-325,310,175,-190,190,190,-290,-290,-290,,500,M,Single-ply,SBD,19,M-O
125+,Brian Siders,WV,24,148.9,380,397.5,412.5,412.5,290,305,-317.5,305,350,365,-367.5,365,1082.5,M,Single-ply,SBD,1,M-O
125+,Brad Gillingham,MN,37,148.7,370,385,392.5,392.5,265,272.5,277.5,277.5,340,355,367.5,367.5,1037.5,M,Single-ply,SBD,2,M-O
125+,Jeff Lewis #1,MO,32,242.4,350,372.5,385,385,270,285,295,295,312.5,-332.5,-347.5,312.5,992.5,M,Single-ply,SBD,3,M-O
125+,Dennis Hulslander,PA,31,144.9,-337.5,-337.5,357.5,357.5,242.5,250,-255,250,310,320,327.5,327.5,935,M,Single-ply,SBD,4,M-O
125+,Lance Karabel,IL,30,148.7,342.5,362.5,372.5,372.5,247.5,-270,-270,247.5,302.5,315,-325,315,935,M,Single-ply,SBD,5,M-O
125+,Jason Christus,WI,23,155.3,330,352.5,-365,352.5,267.5,275,-280,275,275,287.5,-295,287.5,915,M,Single-ply,SBD,6,M-O
125+,Paul Fletcher,LA,41,131.9,320,337.5,350,350,200,215,-227.5,215,307.5,322.5,-330,322.5,887.5,M,Single-ply,SBD,7,M-O
125+,Mike Anderson,GA,36,138.9,340,365,-385,365,215,222.5,-227.5,222.5,287.5,-305,-305,287.5,875,M,Single-ply,SBD,8,M-O
125+,Greg Collins,MN,24,149.4,-307.5,320,327.5,327.5,210,-220,220,220,295,307.5,-317.5,307.5,855,M,Single-ply,SBD,9,M-O
125+,Michael D'Amore,PA,33,141,240,252.5,265,265,177.5,187.5,-195,187.5,235,250,262.5,262.5,715,M,Single-ply,SBD,10,M-O
125+,Daniel Gaudreau,CO,42,167.8,100,-325,-325,100,-265,265,-272.5,265,100,-365,-365,100,465,M,Single-ply,SBD,11,M-O
125+,Brian Laudadio,NY,32,151.7,-332.5,-340,-340,,,,,,,,,,,M,Single-ply,SBD,DQ,M-O
,Bijan Ahmadzadeh,PA,18,,,,,,,,,,,,,,,M,Single-ply,SBD,DQ,M-O
,Ernie Surell,TX,55,,,,,,,,,,,,,,,M,Single-ply,SBD,DQ,M-O
,Mike Mastrean,PA,32,,,,,,,,,,,,,,,M,Single-ply,SBD,DQ,M-O
,Aaron Wolfe,HI,32,,,,,,,,,,,,,,,M,Single-ply,SBD,DQ,M-O
,Keith Kanemoto,CA,44,,,,,,,,,,,,,,,M,Single-ply,SBD,DQ,M-O
,Allen Whigham,MA,28,,,,,,,,,,,,,,,M,Single-ply,SBD,DQ,M-O
