Division,WeightClassKg,Place,Name,Team,BodyweightKg,Best3SquatKg,Best3BenchKg,Best3DeadliftKg,TotalKg,Equipment,Event,Sex,BirthDate
Boys,51.71,1,Tommy Hession,College Station,51.35,165.56,72.57,170.1,408.23,Single-ply,SBD,M,
Boys,51.71,2,Robert Lewellan,Chilton,46.72,104.33,61.23,120.2,285.76,Single-ply,SBD,M,
Boys,51.71,3,Abizai Reyes,Nacogdoches,51.71,102.06,47.63,117.93,267.62,Single-ply,SBD,M,
Boys,51.71,4,Arlen Lewis,Shepherd,45.63,92.99,47.63,92.99,233.6,Single-ply,SBD,M,
Boys,55.79,1,Caleb Burleson,College Station,55.79,158.76,106.59,149.69,415.04,Single-ply,SBD,M,
Boys,55.79,2,Ricky Regalado,Warren,54.88,127.01,113.4,149.69,390.09,Single-ply,SBD,M,
Boys,55.79,3,Wilfredo Sanchez,Shepherd,54.25,117.93,70.31,122.47,310.71,Single-ply,SBD,M,
Boys,55.79,4,Alfonso Davis,Elkhart,53.89,106.59,47.63,113.4,267.62,Single-ply,SBD,M,
Boys,59.87,1,Hd Green,Shepherd,58.97,145.15,70.31,161.03,376.48,Single-ply,SBD,M,
Boys,59.87,2,Walker Windt,Shepherd,59.87,145.15,74.84,154.22,374.21,Single-ply,SBD,M,
Boys,59.87,3,Aidan Weeks,Shepherd,58.97,129.27,61.23,142.88,333.39,Single-ply,SBD,M,
Boys,59.87,4,Jacob Stephens,Nacogdoches,59.15,120.2,68.04,138.35,326.59,Single-ply,SBD,M,
Boys,67.13,1,Nate Harrison,Shepherd,66.59,190.51,88.45,170.1,449.06,Single-ply,SBD,M,
Boys,67.13,2,Ja'Khiyron Whitaker,Nacogdoches,64.68,158.76,83.91,199.58,442.25,Single-ply,SBD,M,
Boys,67.13,3,Zach Novosad,Willis,65.68,142.88,92.99,156.49,392.36,Single-ply,SBD,M,
Boys,67.13,4,Scott Jones,Warren,64.59,115.67,79.38,154.22,349.27,Single-ply,SBD,M,
Boys,67.13,5,Hayden Emery,Kountze,65.77,154.22,92.99,92.99,340.19,Single-ply,SBD,M,
Boys,67.13,DQ,Justan Stanley,Kountze,63.5,,,,,Single-ply,SBD,M,
Boys,67.13,DQ,Trey Goodman,Trinity,67.13,222.26,131.54,,,Single-ply,SBD,M,
Boys,67.13,DQ,Landon Thomas,Elkhart,61.14,154.22,,,,Single-ply,SBD,M,
Boys,74.84,1,Ethan Hall,College Station,67.68,204.12,102.06,195.04,501.22,Single-ply,SBD,M,
Boys,74.84,2,Zha'Mauryon Lofton,College Station,74.84,204.12,92.99,204.12,501.22,Single-ply,SBD,M,
Boys,74.84,3,Kash Ricter,College Station,74.12,204.12,102.06,181.44,487.61,Single-ply,SBD,M,
Boys,74.84,4,Braylon Ratcliff,Nacogdoches,74.84,176.9,111.13,188.24,476.27,Single-ply,SBD,M,
Boys,74.84,5,Tony Solano,Warren,67.68,176.9,90.72,188.24,455.86,Single-ply,SBD,M,
Boys,74.84,6,Logan Tressler,Warren,70.03,156.49,99.79,151.95,408.23,Single-ply,SBD,M,
Boys,74.84,7,Aston Chandler,Chilton,72.12,142.88,90.72,140.61,374.21,Single-ply,SBD,M,
Boys,74.84,DQ,Dorian Jones,Warren,72.67,161.03,,,,Single-ply,SBD,M,
Boys,74.84,DQ,Ely Whisenant,Kountze,72.76,,,,,Single-ply,SBD,M,
Boys,82.1,1,Miguel Ruiz,Trinity,82.1,204.12,117.93,206.38,528.44,Single-ply,SBD,M,
Boys,82.1,2,Kadarius Goodall,Trinity,81.92,213.19,102.06,188.24,503.49,Single-ply,SBD,M,
Boys,82.1,3,Fabian Marquez,Elkhart,82.01,195.04,117.93,190.51,503.49,Single-ply,SBD,M,
Boys,82.1,4,Robert Perez,Kountze,80.1,185.97,102.06,181.44,469.47,Single-ply,SBD,M,
Boys,82.1,5,Miguel Barron,Chilton,81.19,156.49,92.99,161.03,410.5,Single-ply,SBD,M,
Boys,82.1,6,William Emmel,Overton,75.57,136.08,83.91,174.63,394.63,Single-ply,SBD,M,
Boys,82.1,DQ,Dauson Venable,Kountze,82.1,,,,,Single-ply,SBD,M,
Boys,89.81,1,Zach Chance,Shepherd,87.36,210.92,117.93,213.19,542.04,Single-ply,SBD,M,
Boys,89.81,2,William Pelts,Warren,87.09,206.38,108.86,195.04,510.29,Single-ply,SBD,M,
Boys,89.81,3,Caiden Yarbrough,Shepherd,86.82,197.31,108.86,179.17,485.34,Single-ply,SBD,M,
Boys,89.81,4,Kory Ford,Willis,88.81,158.76,97.52,165.56,421.84,Single-ply,SBD,M,
Boys,89.81,5,Landon Parsley,Willis,88.9,149.69,88.45,165.56,403.7,Single-ply,SBD,M,
Boys,99.79,1,Payton Blair,College Station,94.53,226.8,145.15,219.99,591.94,Single-ply,SBD,M,
Boys,99.79,2,Keshon Mayers,Huntsville,92.08,244.94,133.81,204.12,582.87,Single-ply,SBD,M,
Boys,99.79,3,Bryce Smith,Trinity,91.53,215.46,111.13,206.38,532.97,Single-ply,SBD,M,
Boys,99.79,4,Calvin Simmons,Huntsville,97.7,195.04,111.13,208.65,514.83,Single-ply,SBD,M,
Boys,99.79,5,Andy Parker,Willis,99.79,183.7,138.35,192.78,514.83,Single-ply,SBD,M,
Boys,99.79,6,Mason Walters,Shepherd,99.61,199.58,133.81,176.9,510.29,Single-ply,SBD,M,
Boys,99.79,7,Nundai ZaZueta,Chilton,97.89,181.44,95.25,190.51,467.2,Single-ply,SBD,M,
Boys,109.77,1,Luke Miles,College Station,107.95,272.16,170.1,272.16,714.41,Single-ply,SBD,M,
Boys,109.77,2,Hayden Goodlett,College Station,109.32,267.62,181.44,249.48,698.53,Single-ply,SBD,M,
Boys,109.77,3,Jermiah Juarez,Warren,105.69,240.4,136.08,235.87,612.35,Single-ply,SBD,M,
Boys,109.77,4,Jacob Nugent,Elkhart,109.04,238.14,127.01,215.46,580.6,Single-ply,SBD,M,
Boys,109.77,5,Stacey Whitaker,Nacogdoches,103.87,233.6,145.15,192.78,571.53,Single-ply,SBD,M,
Boys,109.77,6,KJ Hawkins,Frankston,101.97,226.8,124.74,204.12,555.65,Single-ply,SBD,M,
Boys,109.77,7,Sean Calkin,Willis,103.24,231.33,88.45,204.12,523.9,Single-ply,SBD,M,
Boys,109.77,8,Jackson Ellingburg,Shepherd,108.77,181.44,95.25,204.12,480.81,Single-ply,SBD,M,
Boys,109.77,9,D'Artagnan Gomez,Overton,103.33,136.08,90.72,154.22,381.02,Single-ply,SBD,M,
Boys,124.74,1,Kyler Loftin,Warren,112.22,317.51,174.63,272.16,764.3,Single-ply,SBD,M,
Boys,124.74,2,Zach Rogers,Willis,123.83,272.16,115.67,215.46,603.28,Single-ply,SBD,M,
Boys,124.74,3,Elis Caceres,Trinity,117.48,240.4,106.59,224.53,571.53,Single-ply,SBD,M,
Boys,124.74,4,Johnny McHenry,Willis,114.31,238.14,113.4,183.7,535.24,Single-ply,SBD,M,
Boys,124.74,DQ,Jose Cruz,Huntsville,112.94,,,,,Single-ply,SBD,M,
Boys,124.74,DQ,Dylan Dalahite,Kountze,123.1,,,,,Single-ply,SBD,M,
Boys,124.74+,1,Jo'Vaughn Holmes,College Station,137.89,317.51,151.95,208.65,678.12,Single-ply,SBD,M,
Boys,124.74+,2,Jason Lazaro,Overton,132,254.01,127.01,215.46,596.47,Single-ply,SBD,M,
Boys,124.74+,3,Le To,Willis,140.16,226.8,122.47,192.78,542.04,Single-ply,SBD,M,
Boys,124.74+,4,Treven Wright,Overton,127.91,197.31,102.06,170.1,469.47,Single-ply,SBD,M,
Boys,124.74+,DQ,Ed Bobino,Huntsville,136.53,276.69,,,,Single-ply,SBD,M,
Boys,124.74+,DQ,Rashaad Wynn,Willis,144.61,,,,,Single-ply,SBD,M,
Boys,,NS,Jace Halbaedier,Willis,,,,,,Single-ply,SBD,M,
Boys,,NS,Colin Simmons,Willis,,,,,,Single-ply,SBD,M,
Boys,,NS,Eric Gilbert,Willis,,,,,,Single-ply,SBD,M,
Boys,,NS,Will Faulkner,Trinity,,,,,,Single-ply,SBD,M,
Boys,,NS,Matthew Quiroz,Ferris,,,,,,Single-ply,SBD,M,
Boys,,NS,Quaterian Riles,Huntsville,,,,,,Single-ply,SBD,M,
Boys,,NS,Sebastian Patterson,Huntsville,,,,,,Single-ply,SBD,M,
Boys,,NS,Tyrell Gardner,Nacogdoches,,,,,,Single-ply,SBD,M,
Boys,,NS,Kamazjay Deckard,Nacogdoches,,,,,,Single-ply,SBD,M,
Boys,,NS,Tyler Christensen,College Station,,,,,,Single-ply,SBD,M,
Boys,,NS,Raul Cazares,Elkhart,,,,,,Single-ply,SBD,M,
Boys,,NS,Camden Sellers,Elkhart,,,,,,Single-ply,SBD,M,
Boys,,NS,Dacota Walker,Elkhart,,,,,,Single-ply,SBD,M,
Boys,,NS,Cody Carpenter,Elkhart,,,,,,Single-ply,SBD,M,
Boys,,NS,Max Lara,Elkhart,,,,,,Single-ply,SBD,M,
Boys,,NS,Avery Starr,Elkhart,,,,,,Single-ply,SBD,M,
Boys,,NS,Angelo Lewellan,Chilton,,,,,,Single-ply,SBD,M,
Boys,,NS,Luis Fernandez,Chilton,,,,,,Single-ply,SBD,M,
Boys,,NS,Cw Sievertson,Shepherd,,,,,,Single-ply,SBD,M,
Boys,,NS,Bradley Pierece,Overton,,,,,,Single-ply,SBD,M,
Boys,,NS,Trayson Wright,Overton,,,,,,Single-ply,SBD,M,
Boys,,NS,Rueben Andrade,Chilton,,,,,,Single-ply,SBD,M,
Boys,,NS,Juan Andrade,Chilton,,,,,,Single-ply,SBD,M,
Boys,,NS,Mark Pinon,Chilton,,,,,,Single-ply,SBD,M,
Boys,,NS,Jose Gonzales,Chilton,,,,,,Single-ply,SBD,M,
