Name,Division,Equipment,WeightClassKg,Event,Best3SquatKg,Best3BenchKg,Best3DeadliftKg,TotalKg,Sex,Place,Age,Squat1Kg,Squat2Kg,Squat3Kg,Bench1Kg,Bench2Kg,Bench3Kg,Deadlift1Kg,Deadlift2Kg,Deadlift3Kg
Kerry Lewis,Submasters,Raw,67.5,SBD,99.79,52.16,131.54,283.5,F,1,,,,,,,,,,
Jaclyn Do,Open,Raw,52,SBD,113.4,49.9,113.4,276.69,F,1,,,,,,,,,,
Charity Rogers,Masters 40-44,Wraps,56,SBD,127.01,74.84,142.88,344.73,F,1,,,,,,,,,,
Christian Sanchez,Teenage 13-15,Wraps,67.5,SBD,90.72,45.36,92.99,229.06,M,1,,,,,,,,,,
Zach Gardner,Teenage 16-17,Wraps,118,SBD,158.76,104.33,181.44,444.52,M,1,,,,,,,,,,
Trystan Oakley,Teenage 18-19,Raw,90,SBD,213.19,158.76,251.74,623.69,M,1,19,195.05,213.19,-217.73,147.42,-158.76,158.76,240.40,251.74,-263.09
Noah Brooks,Teenage 18-19,Wraps,90,SBD,210.92,138.35,229.06,578.33,M,1,,,,,,,,,,
Julio Garcia,Open,Wraps,56,SBD,158.76,115.67,181.44,455.86,M,1,,,,,,,,,,
Kiere Marshall,Open,Wraps,75,SBD,192.78,122.47,226.8,542.04,M,1,,,,,,,,,,
Sean Softley,Masters 50-54,Wraps,90,SBD,138.35,99.79,170.1,408.23,M,1,,,,,,,,,,
Michael Reed,Masters 65-69,Raw,90,SBD,120.2,83.91,161.03,365.14,M,1,,,,,,,,,,
Dan Smith,Masters 70-74,Raw,90,SBD,72.57,81.65,90.72,244.94,M,1,,,,,,,,,,
Phillip Boyett,Masters 40-44,Wraps,100,SBD,181.44,167.83,269.89,619.15,M,1,,,,,,,,,,
Ben Hooten,Masters 60-64,Wraps,100,SBD,147.42,86.18,176.9,410.5,M,1,,,,,,,,,,
Jeremiah Johnson #1,Submasters,Wraps,118,SBD,294.84,226.8,294.84,816.47,M,1,,,,,,,,,,
David Williams,Juniors,Raw,118,SBD,249.48,158.76,290.3,698.53,M,1,,,,,,,,,,
Matthew Sheeron,Special Olympics,Wraps,100,SBD,165.56,136.08,149.69,451.32,M,1,,,,,,,,,,
Isaac Bolton,Special Olympics,Raw,75,BD,,47.63,77.11,124.74,M,1,,,,,,,,,,
Zack Turney,Open,Raw,60,BD,,90.72,158.76,249.48,M,1,,,,,,,,,,
Mason Freeman,Juniors,Raw,82.5,BD,,154.22,263.08,417.3,M,1,,,,,,,,,,
Roger Walters,Masters 50-54,Raw,110,B,,183.7,,183.7,M,1,,,,,,,,,,
Roger Walters,Masters 50-54,Raw,110,BD,,183.7,272.16,455.86,M,1,,,,,,,,,,
James Ludwig,Open,Single-ply,100,BD,,188.24,217.72,405.97,M,1,,,,,,,,,,
Cannon Hall,Open,Raw,110,BD,,165.56,299.37,464.93,M,1,,,,,,,,,,
Leon McLean,Masters 70-74,Raw,100,B,,127.01,,127.01,M,1,,,,,,,,,,
Ken Jordan,Masters 70-74,Raw,90,D,,,115.67,115.67,M,1,,,,,,,,,,
Misty Sawyer,Teenage 13-15,Wraps,67.5,S,108.86,,,108.86,F,1,,,,,,,,,,
