Place,Name,Division,Equipment,Event,BirthDate,BirthYear,Age,Sex,BodyweightKg,WeightClassKg,Squat1Kg,Squat2Kg,Squat3Kg,Best3SquatKg,Bench1Kg,Bench2Kg,Bench3Kg,Best3BenchKg,Deadlift1Kg,Deadlift2Kg,Deadlift3Kg,Best3DeadliftKg,TotalKg
1,Stéphanie Legard,Open,Single-ply,SBD,,1981,37,F,46.39,47,145,150,152.5,152.5,75,80,85,85,135,142.5,-145,142.5,380
1,Mélodie Anthouard,Open,Single-ply,SBD,,1988,30,F,56.42,57,160,-167.5,167.5,167.5,126,130,-132,130,155,162.5,-168,162.5,460
2,Caroline Suné,Open,Single-ply,SBD,,1985,33,F,56.3,57,170,-175,-175,170,95,100,102.5,102.5,165,-172.5,-172.5,165,437.5
1,Véronique Descours,Masters 1,Single-ply,SBD,,1971,47,F,56.57,57,107.5,115,125,125,82.5,90,-95,90,130,145,-155,145,360
2,Sabine Mouchet,Masters 1,Single-ply,SBD,,1976,42,F,53.25,57,90,100,105,105,50,55,57.5,57.5,125,135,140,140,302.5
1,Nina Le Blevenec,Masters 1,Single-ply,SBD,,1972,46,F,58.79,63,135,145,150,150,62.5,67.5,-70,67.5,155,165,-170.5,165,382.5
1,Sylvie Benlabili,Masters 1,Single-ply,SBD,,1977,41,F,81.59,84,110,120,125,125,72.5,77.5,80,80,140,150,155,155,360
1,Nathalie Feraud,Masters 2,Single-ply,SBD,,1967,51,F,50.37,52,115,122.5,127.5,127.5,77.5,82.5,-87.5,82.5,130,137.5,140,140,350
1,Marie-France Cabos,Masters 2,Single-ply,SBD,,1967,51,F,56.96,57,132.5,137.5,140,140,85,90,92.5,92.5,140,145,-147.5,145,377.5
2,Lydie Grouet Molling,Masters 2,Single-ply,SBD,,1960,58,F,56.48,57,110,115,-120,115,75,-77.5,,75,120,127.5,132.5,132.5,322.5
1,Marie Thérèse Jallais,Masters 3,Single-ply,SBD,,1957,61,F,50.25,52,80,-85,87.5,87.5,-50,50,,50,97.5,102.5,-107.5,102.5,240
1,Edith Guennec,Masters 3,Single-ply,SBD,,1956,62,F,56.21,57,95,100,-105,100,60,-65,-65,60,-160,160,-170.5,160,320
2,Martine Parfait,Masters 3,Single-ply,SBD,,1957,61,F,55.94,57,92.5,97.5,-102.5,97.5,60,-65,65,65,120,125,-130,125,287.5
1,Maryse Lerche,Masters 3,Single-ply,SBD,,1949,69,F,62.65,63,80,87.5,-92.5,87.5,57.5,62.5,65,65,100,110,-115,110,262.5
1,Maryse Malicot,Masters 4,Single-ply,SBD,,1946,72,F,53.3,57,85,90,-95,90,42.5,45,-47.5,45,85,90,95,95,230
1,Hassan El Belghiti,Open,Single-ply,SBD,,1975,43,M,69.45,74,290,302.5,-307.5,302.5,170,175,-180,175,300,315,-322.5,315,792.5
1,Antoni Mastrolorenzo,Open,Single-ply,SBD,,1982,36,M,74.66,83,290,302.5,-310,302.5,205,-212.5,-212.5,205,255,270,-280,270,777.5
DQ,Nicolas Fafournoux,Open,Single-ply,SBD,,1983,35,M,92.05,93,-260,-270,270,270,-185,-185,-185,,265,275,-280,275,
1,Allan Grenier,Open,Single-ply,SBD,,1990,28,M,105,105,340,355,362.5,362.5,275,301,,301,275,290,302.5,302.5,966
1,Sofiane Belkesir,Open,Single-ply,SBD,,1984,34,M,110.23,120,380,-403,-403,380,270,-277.5,-277.5,270,330,350,-370,350,1000
DQ,Ugo Masarotti,Open,Single-ply,SBD,,1987,31,M,125.15,120+,-382.5,-403,-405,,165,175,,175,-250,270,-300,270,
1,Benoit Angin,Masters 1,Single-ply,SBD,,1974,44,M,58.59,59,150,160,-170,160,90,100,107.5,107.5,120,140,-147.5,140,407.5
1,Thierry Lauilhe,Masters 1,Single-ply,SBD,,1969,49,M,73.1,74,200,-210,-210,200,140,145,150,150,190,200,210,210,560
1,Cyril Rocca,Masters 1,Single-ply,SBD,,1974,44,M,81.72,83,235,250,-255,250,115,120,-125,120,240,-252.5,-252.5,240,610
2,Mickael Colmard,Masters 1,Single-ply,SBD,,1971,47,M,82.81,83,200,-212.5,215,215,172.5,182.5,-198,182.5,-200,207.5,-215,207.5,605
3,Stéphane Barataud,Masters 1,Single-ply,SBD,,1969,49,M,80.31,83,232.5,-240,-242.5,232.5,140,145,-147.5,145,210,217.5,222.5,222.5,600
4,Tony Roche,Masters 1,Single-ply,SBD,,1972,46,M,82.21,83,182.5,-202.5,-202.5,182.5,132.5,-140,140,140,210,225,,225,547.5
1,Daniel Pires,Masters 1,Single-ply,SBD,,1971,47,M,91.08,93,190,200,215,215,190,200,-205,200,220,230,235,235,650
2,Fabrice Leriche,Masters 1,Single-ply,SBD,,1970,48,M,91.76,93,235,245,252.5,252.5,125,-127.5,127.5,127.5,225,242.5,247.5,247.5,627.5
DQ,Yann Paulet,Masters 1,Single-ply,SBD,,1975,43,M,152.4,120+,-230,,,,-190,,,,-260,,,,
1,Philippe Courtois,Masters 2,Single-ply,SBD,,1964,54,M,72.44,74,-170,170,-180,170,125,-130,130,130,200,210,215,215,515
2,Bruno Bastien,Masters 2,Single-ply,SBD,,1965,53,M,73.3,74,160,-165,-165,160,140,150,-158,150,170,180,-205,180,490
DQ,Christophe Cherel,Masters 2,Single-ply,SBD,,1967,51,M,73,74,192.5,200,-205,200,-107.5,-107.5,-107.5,,-212.5,,,,
1,Fabrice Bertin,Masters 2,Single-ply,SBD,,1967,51,M,83,83,235,245,-256,245,210,220,225,225,-200,200,212.5,212.5,682.5
2,Philippe Pasquier,Masters 2,Single-ply,SBD,,1967,51,M,82.83,83,230,245,-256,245,145,150,155,155,230,-250,-250,230,630
3,Georges Mingot,Masters 2,Single-ply,SBD,,1964,54,M,81.87,83,215,222.5,227.5,227.5,167.5,-172.5,172.5,172.5,-207.5,210,217.5,217.5,617.5
1,Bruno Delepaut,Masters 2,Single-ply,SBD,,1964,54,M,89.53,93,215,220,225,225,150,-160,-160,150,200,210,-220,210,585
1,Michel Logli,Masters 2,Single-ply,SBD,,1966,52,M,103.11,105,250,260,-270,260,-210,230,-235,230,230,250,-267.5,250,740
2,Pascal Merlier,Masters 2,Single-ply,SBD,,1959,59,M,101.24,105,220,235,245,245,-200,-220,220,220,210,235,-245,235,700
1,Richard Hocquard,Masters 2,Single-ply,SBD,,1968,50,M,117.97,120,235,265,-275,265,175,187.5,-195,187.5,255,267.5,-282.5,267.5,720
1,Tony Chard,Masters 2,Single-ply,SBD,,1968,50,M,126.15,120+,230,250,-270,250,-190,190,200,200,250,-270,270,270,720
1,Georges Auberval,Masters 3,Single-ply,SBD,,1956,62,M,64.3,66,150,160,170,170,60,65,70,70,170,180,-190,180,420
DQ,Alain Cuvelier,Masters 3,Single-ply,SBD,,1953,65,M,64.36,66,-165,-165,-165,,105,110,-115,110,180,192.5,205,205,
1,Claude Couturier,Masters 3,Single-ply,SBD,,1952,66,M,73.28,74,195,-205,-205,195,122.5,127.5,-130,127.5,190,-200,200,200,522.5
2,Patrick Malenfant,Masters 3,Single-ply,SBD,,1958,60,M,73.13,74,150,160,165,165,120,125,-127.5,125,150,165,-175,165,455
1,Dominique Mouchet,Masters 3,Single-ply,SBD,,1955,63,M,81.13,83,190,-200,-200,190,90,97.5,102.5,102.5,190,200,-207.5,200,492.5
1,Patrick Mathias,Masters 3,Single-ply,SBD,,1957,61,M,90.42,93,185,205,220,220,135,145,-150,145,185,200,215,215,580
1,Jean Michel Mattera,Masters 3,Single-ply,SBD,,1956,62,M,94.2,105,-190,190,-207.5,190,-130,-130,130,130,200,220,235,235,555
2,Jean-Paul Belmas,Masters 3,Single-ply,SBD,,1949,69,M,100.62,105,180,190,,190,100,107.5,,107.5,190,212.5,,212.5,510
1,Marcel Nivault,Masters 4,Single-ply,SBD,,1933,85,M,62.05,66,100,110,120,120,37.5,40,-42.5,40,140,150,160,160,320
1,Jacques Beauverger,Masters 4,Single-ply,SBD,,1946,72,M,70.72,74,125,135,-145,135,85,-90,,85,160,170,-180,170,390
1,Christian Buchs,Masters 4,Single-ply,SBD,,1947,71,M,94.98,105,200,-210,-215,200,90,-100,,90,200,220,,220,510
1,Audrey Mingot,Open,Single-ply,B,,1993,25,F,51.62,52,,,,,75,-80,-80,75,,,,,75
1,Mélodie Anthouard,Open,Single-ply,B,,1988,30,F,56.45,57,,,,,117.5,-120,126.5,126.5,,,,,126.5
1,Christelle Maniez,Open,Single-ply,B,,1985,33,F,63.1,72,,,,,115,122.5,125,125,,,,,125
1,Béatrice Russic,Masters 1,Single-ply,B,,1969,49,F,51.99,52,,,,,75,77.5,-80,77.5,,,,,77.5
2,Géraldine Verlaine,Masters 1,Single-ply,B,,1970,48,F,51.82,52,,,,,70,75,-77.5,75,,,,,75
1,Sylvie Mingot,Masters 1,Single-ply,B,,1969,49,F,55.34,57,,,,,105,115,-120.5,115,,,,,115
1,Véronique Descours,Masters 1,Single-ply,B,,1971,47,F,57.05,63,,,,,-85,85,-95,85,,,,,85
1,Stéphanie Bastien,Masters 1,Single-ply,B,,1974,44,F,82.49,84,,,,,115,123.5,130,130,,,,,130
1,Nathalie Feraud,Masters 2,Single-ply,B,,1967,51,F,50.51,52,,,,,77.5,82.5,85,85,,,,,85
2,Brigitte Landon,Masters 2,Single-ply,B,,1961,57,F,48.98,52,,,,,67.5,70,-72.5,70,,,,,70
1,Marie-France Cabos,Masters 2,Single-ply,B,,1967,51,F,56.49,57,,,,,85,90,-92.5,90,,,,,90
2,Lydie Grouet Molling,Masters 2,Single-ply,B,,1960,58,F,56.48,57,,,,,72.5,,,72.5,,,,,72.5
3,Brigitte Dousset,Masters 2,Single-ply,B,,1963,55,F,55.31,57,,,,,60,62.5,-65,62.5,,,,,62.5
DQ,Sophie Angenot,Masters 2,Single-ply,B,,1966,52,F,61.25,63,,,,,-85,-85,-87.5,,,,,,
1,Patricia Maciejewski,Masters 2,Single-ply,B,,1961,57,F,64.07,72,,,,,92.5,98.5,-100,98.5,,,,,98.5
2,Aline Leroy,Masters 2,Single-ply,B,,1962,56,F,71.24,72,,,,,65,75,-77.5,75,,,,,75
1,Nathalie Gransard,Masters 2,Single-ply,B,,1964,54,F,89.63,84+,,,,,102.5,-107.5,-107.5,102.5,,,,,102.5
1,Martine Roche,Masters 3,Single-ply,B,,1956,62,F,46.62,47,,,,,62.5,65,-67.5,65,,,,,65
1,Martine Parfait,Masters 3,Single-ply,B,,1957,61,F,56.22,57,,,,,60,66,67,67,,,,,67
1,Maryse Lerche,Masters 3,Single-ply,B,,1949,69,F,61.43,63,,,,,57.5,60,62.5,62.5,,,,,62.5
1,Evelyne Herbin,Masters 3,Single-ply,B,,1956,62,F,64.75,72,,,,,80,86,87.5,87.5,,,,,87.5
1,Françoise Heligon,Masters 4,Single-ply,B,,1943,75,F,54.87,57,,,,,57.5,-62.5,-62.5,57.5,,,,,57.5
DQ,Virgilio Manuel,Open,Single-ply,B,,1990,28,M,64.89,66,,,,,-210,-210,-210,,,,,,
1,Matthias Nardoux,Open,Single-ply,B,,1986,32,M,78.83,83,,,,,185,190,-195,190,,,,,190
DQ,Dimitri Debaisieux,Open,Single-ply,B,,1980,38,M,91.23,93,,,,,-200,-200,-207.5,,,,,,
1,Allan Grenier,Open,Single-ply,B,,1990,28,M,104.96,105,,,,,280,-300,-300,280,,,,,280
2,Jason Fretard,Open,Single-ply,B,,1995,22,M,103.81,105,,,,,-240,240,-250,240,,,,,240
1,Rénald Bastien,Masters 1,Single-ply,B,,1973,45,M,73.49,74,,,,,-160,170,-180,170,,,,,170
2,Grégory Pulido,Masters 1,Single-ply,B,,1977,41,M,69.37,74,,,,,155,162.5,165,165,,,,,165
3,Najah Barkallah,Masters 1,Single-ply,B,,1972,46,M,73.15,74,,,,,165,-170,-170,165,,,,,165
1,Cyril Pinguet,Masters 1,Single-ply,B,,1972,46,M,82.36,83,,,,,215,225,235,235,,,,,235
2,Mickael Colmard,Masters 1,Single-ply,B,,1971,47,M,82.17,83,,,,,175,182.5,187.5,187.5,,,,,187.5
3,Lionel Suc,Masters 1,Single-ply,B,,1975,43,M,81.5,83,,,,,175,180,182.5,182.5,,,,,182.5
DQ,Stéphane Brechet,Masters 1,Single-ply,B,,1972,46,M,83,83,,,,,-172.5,-172.5,-172.5,,,,,,
1,Daniel Pires,Masters 1,Single-ply,B,,1971,47,M,91.22,93,,,,,190,202.5,207.5,207.5,,,,,207.5
2,Sylvain Frumence,Masters 1,Single-ply,B,,1974,44,M,89.72,93,,,,,170,-180,180,180,,,,,180
1,Frédéric Beyon,Masters 1,Single-ply,B,,1975,43,M,101.97,105,,,,,-240,-240,240,240,,,,,240
2,Redda Haddou,Masters 1,Single-ply,B,,1978,40,M,100.1,105,,,,,-200,210,-235,210,,,,,210
1,Charles Duval,Masters 1,Single-ply,B,,1972,46,M,118.89,120,,,,,-260,260,-265,260,,,,,260
2,Mourad Benkissous,Masters 1,Single-ply,B,,1973,45,M,112.9,120,,,,,235,-242.5,242.5,242.5,,,,,242.5
3,Thierry Vieira,Masters 1,Single-ply,B,,1971,47,M,118.57,120,,,,,220,-230,-237.5,220,,,,,220
4,Arnaud Clavier,Masters 1,Single-ply,B,,1975,43,M,111.03,120,,,,,-217.5,217.5,-222.5,217.5,,,,,217.5
DQ,Gilbert Bier,Masters 1,Single-ply,B,,1970,48,M,115.46,120,,,,,-255,-255,-255,,,,,,
1,Jérôme Guidez,Masters 1,Single-ply,B,,1974,44,M,151.5,120+,,,,,310,-340,340,340,,,,,340
1,Olivier Waymel,Masters 2,Single-ply,B,,1966,52,M,65.8,66,,,,,190,-195,200.5,200.5,,,,,200.5
2,Thierry Graff,Masters 2,Single-ply,B,,1965,53,M,64.79,66,,,,,117.5,120,-122.5,120,,,,,120
1,Alphonse Cucuzella,Masters 2,Single-ply,B,,1966,52,M,72.98,74,,,,,190,-200,-207.5,190,,,,,190
1,Fabrice Bertin,Masters 2,Single-ply,B,,1967,51,M,83,83,,,,,212.5,220,,220,,,,,220
2,Georges Mingot,Masters 2,Single-ply,B,,1964,54,M,81.76,83,,,,,167.5,172.5,,172.5,,,,,172.5
1,Michel Marneur,Masters 2,Single-ply,B,,1968,50,M,92.49,93,,,,,230,235,240,240,,,,,240
2,Jean-Charles Marchadier,Masters 2,Single-ply,B,,1962,56,M,92.05,93,,,,,190,197.5,-200,197.5,,,,,197.5
3,Yves Lemagnen,Masters 2,Single-ply,B,,1966,52,M,92.13,93,,,,,-197.5,197.5,-205,197.5,,,,,197.5
1,Fabrice Leroy,Masters 2,Single-ply,B,,1963,55,M,104.13,105,,,,,230,-242.5,242.5,242.5,,,,,242.5
2,Pascal Merlier,Masters 2,Single-ply,B,,1959,59,M,101.89,105,,,,,200,-215,220,220,,,,,220
3,Serge Muzy,Masters 2,Single-ply,B,,1959,59,M,94.92,105,,,,,-195,-195,195,195,,,,,195
1,Jean-Yves Minelle,Masters 2,Single-ply,B,,1966,52,M,117.9,120,,,,,-245,245,-252.5,245,,,,,245
2,Pascal Siroux,Masters 2,Single-ply,B,,1964,54,M,119.64,120,,,,,192.5,-205,205,205,,,,,205
3,Luc Berthelot,Masters 2,Single-ply,B,,1962,56,M,118.66,120,,,,,-200,200,-210,200,,,,,200
1,Tony Chard,Masters 2,Single-ply,B,,1968,50,M,125.03,120+,,,,,205,-215,,205,,,,,205
DQ,Patrice Lefebvre,Masters 2,Single-ply,B,,1962,56,M,138.76,120+,,,,,-250,-250,-250,,,,,,
DQ,Reynaldo Rossetti,Masters 2,Single-ply,B,,1960,58,M,157.3,120+,,,,,-220,-220,-237.5,,,,,,
1,Claude Sitruk,Masters 3,Single-ply,B,,1950,68,M,65.04,66,,,,,145,152.5,-160,152.5,,,,,152.5
2,Alain Cuvelier,Masters 3,Single-ply,B,,1953,65,M,64.22,66,,,,,-110,110,-115,110,,,,,110
1,Gérard Leiterer,Masters 3,Single-ply,B,,1954,64,M,70.92,74,,,,,125,130,-135,130,,,,,130
2,Patrick Malenfant,Masters 3,Single-ply,B,,1958,60,M,73.17,74,,,,,120,-125,125,125,,,,,125
1,Alain Collard,Masters 3,Single-ply,B,,1952,66,M,81.85,83,,,,,-135,135,145,145,,,,,145
2,Michel Naty,Masters 3,Single-ply,B,,1954,64,M,81.48,83,,,,,135,-142.5,-150,135,,,,,135
1,Erick Deconinck,Masters 3,Single-ply,B,,1956,62,M,84.64,93,,,,,170,180,-190.5,180,,,,,180
2,Patrick Mathias,Masters 3,Single-ply,B,,1957,61,M,90.34,93,,,,,137.5,145,150,150,,,,,150
3,Philippe Joanny,Masters 3,Single-ply,B,,1958,60,M,84.37,93,,,,,145,147.5,-152.5,147.5,,,,,147.5
1,Pierre Courtehoux,Masters 3,Single-ply,B,,1953,65,M,95.11,105,,,,,175,-180,-180,175,,,,,175
1,Gérard Oumailia,Masters 3,Single-ply,B,,1951,67,M,112.4,120,,,,,180,185,-195,185,,,,,185
1,Gaetan Guarino,Masters 4,Single-ply,B,,1947,71,M,81.18,83,,,,,127.5,132.5,-140,132.5,,,,,132.5
2,Marc Huchet,Masters 4,Single-ply,B,,1938,80,M,81.57,83,,,,,-122.5,122.5,-125,122.5,,,,,122.5
1,Lucien Verne,Masters 4,Single-ply,B,,1944,74,M,89.89,93,,,,,125,130,-135,130,,,,,130
2,Louis Paruit,Masters 4,Single-ply,B,,1944,74,M,90.77,93,,,,,115,120,125,125,,,,,125
